{
  "best_metric": 0.31610187888145447,
  "best_model_checkpoint": "/content/checkpoints/gbert_base_finetuned_s0_cv4_ml/checkpoint-265",
  "epoch": 4.99672131147541,
  "global_step": 760,
  "is_hyper_param_search": false,
  "is_local_process_zero": true,
  "is_world_process_zero": true,
  "log_history": [
    {
      "epoch": 0.03,
      "eval_accuracy": 0.06316652994257588,
      "eval_f1": 0.42807539682539686,
      "eval_loss": 0.6318217515945435,
      "eval_roc_auc": 0.6281806776970532,
      "eval_runtime": 8.0911,
      "eval_samples_per_second": 150.659,
      "eval_steps_per_second": 9.517,
      "step": 5
    },
    {
      "epoch": 0.07,
      "eval_accuracy": 0.36915504511895,
      "eval_f1": 0.44259451959764134,
      "eval_loss": 0.525689959526062,
      "eval_roc_auc": 0.6411194207415017,
      "eval_runtime": 8.023,
      "eval_samples_per_second": 151.938,
      "eval_steps_per_second": 9.597,
      "step": 10
    },
    {
      "epoch": 0.1,
      "eval_accuracy": 0.3716160787530763,
      "eval_f1": 0.43794076163610723,
      "eval_loss": 0.45748719573020935,
      "eval_roc_auc": 0.6385873766726394,
      "eval_runtime": 7.9688,
      "eval_samples_per_second": 152.972,
      "eval_steps_per_second": 9.663,
      "step": 15
    },
    {
      "epoch": 0.13,
      "eval_accuracy": 0.15340442986054142,
      "eval_f1": 0.22748327328872875,
      "eval_loss": 0.44181790947914124,
      "eval_roc_auc": 0.5602437943338562,
      "eval_runtime": 7.9896,
      "eval_samples_per_second": 152.574,
      "eval_steps_per_second": 9.638,
      "step": 20
    },
    {
      "epoch": 0.16,
      "eval_accuracy": 0.24036095159967186,
      "eval_f1": 0.40430622009569384,
      "eval_loss": 0.4427935779094696,
      "eval_roc_auc": 0.6227382109952257,
      "eval_runtime": 8.001,
      "eval_samples_per_second": 152.356,
      "eval_steps_per_second": 9.624,
      "step": 25
    },
    {
      "epoch": 0.2,
      "eval_accuracy": 0.08203445447087777,
      "eval_f1": 0.15350877192982457,
      "eval_loss": 0.4345133304595947,
      "eval_roc_auc": 0.5389285401373328,
      "eval_runtime": 8.0276,
      "eval_samples_per_second": 151.851,
      "eval_steps_per_second": 9.592,
      "step": 30
    },
    {
      "epoch": 0.23,
      "eval_accuracy": 0.3084495488105004,
      "eval_f1": 0.40531561461794025,
      "eval_loss": 0.42531681060791016,
      "eval_roc_auc": 0.6240929222163621,
      "eval_runtime": 7.9784,
      "eval_samples_per_second": 152.787,
      "eval_steps_per_second": 9.651,
      "step": 35
    },
    {
      "epoch": 0.26,
      "eval_accuracy": 0.3379819524200164,
      "eval_f1": 0.4318004676539361,
      "eval_loss": 0.4215826988220215,
      "eval_roc_auc": 0.6360803502557169,
      "eval_runtime": 8.0044,
      "eval_samples_per_second": 152.291,
      "eval_steps_per_second": 9.62,
      "step": 40
    },
    {
      "epoch": 0.3,
      "eval_accuracy": 0.27891714520098443,
      "eval_f1": 0.3882086167800453,
      "eval_loss": 0.40261274576187134,
      "eval_roc_auc": 0.6184283030601849,
      "eval_runtime": 7.9851,
      "eval_samples_per_second": 152.659,
      "eval_steps_per_second": 9.643,
      "step": 45
    },
    {
      "epoch": 0.33,
      "eval_accuracy": 0.4003281378178835,
      "eval_f1": 0.5821404226312201,
      "eval_loss": 0.391268253326416,
      "eval_roc_auc": 0.7214380017488734,
      "eval_runtime": 7.9854,
      "eval_samples_per_second": 152.654,
      "eval_steps_per_second": 9.643,
      "step": 50
    },
    {
      "epoch": 0.36,
      "eval_accuracy": 0.4191960623461854,
      "eval_f1": 0.5878284923928078,
      "eval_loss": 0.3844014108181,
      "eval_roc_auc": 0.7235697633866985,
      "eval_runtime": 7.9887,
      "eval_samples_per_second": 152.591,
      "eval_steps_per_second": 9.639,
      "step": 55
    },
    {
      "epoch": 0.39,
      "eval_accuracy": 0.4167350287120591,
      "eval_f1": 0.5740269188795927,
      "eval_loss": 0.3749644458293915,
      "eval_roc_auc": 0.7122233455708664,
      "eval_runtime": 7.9835,
      "eval_samples_per_second": 152.689,
      "eval_steps_per_second": 9.645,
      "step": 60
    },
    {
      "epoch": 0.43,
      "eval_accuracy": 0.39868744872846595,
      "eval_f1": 0.5285658764088612,
      "eval_loss": 0.37355202436447144,
      "eval_roc_auc": 0.6849383212876382,
      "eval_runtime": 7.9937,
      "eval_samples_per_second": 152.495,
      "eval_steps_per_second": 9.633,
      "step": 65
    },
    {
      "epoch": 0.46,
      "eval_accuracy": 0.42411812961443807,
      "eval_f1": 0.5710059171597633,
      "eval_loss": 0.3630474805831909,
      "eval_roc_auc": 0.7095149968475611,
      "eval_runtime": 8.0215,
      "eval_samples_per_second": 151.966,
      "eval_steps_per_second": 9.599,
      "step": 70
    },
    {
      "epoch": 0.49,
      "eval_accuracy": 0.4495488105004102,
      "eval_f1": 0.6104446012702893,
      "eval_loss": 0.3551262319087982,
      "eval_roc_auc": 0.7345724837610743,
      "eval_runtime": 7.993,
      "eval_samples_per_second": 152.509,
      "eval_steps_per_second": 9.633,
      "step": 75
    },
    {
      "epoch": 0.52,
      "eval_accuracy": 0.4380639868744873,
      "eval_f1": 0.6140533056420907,
      "eval_loss": 0.3536209166049957,
      "eval_roc_auc": 0.7383626043440092,
      "eval_runtime": 7.9938,
      "eval_samples_per_second": 152.494,
      "eval_steps_per_second": 9.633,
      "step": 80
    },
    {
      "epoch": 0.56,
      "eval_accuracy": 0.40689089417555374,
      "eval_f1": 0.5918438480306727,
      "eval_loss": 0.3620014190673828,
      "eval_roc_auc": 0.7252046078864228,
      "eval_runtime": 7.9788,
      "eval_samples_per_second": 152.779,
      "eval_steps_per_second": 9.651,
      "step": 85
    },
    {
      "epoch": 0.59,
      "eval_accuracy": 0.4167350287120591,
      "eval_f1": 0.5988023952095808,
      "eval_loss": 0.35215193033218384,
      "eval_roc_auc": 0.7282418367294348,
      "eval_runtime": 8.0085,
      "eval_samples_per_second": 152.213,
      "eval_steps_per_second": 9.615,
      "step": 90
    },
    {
      "epoch": 0.62,
      "eval_accuracy": 0.4479081214109926,
      "eval_f1": 0.634673876309564,
      "eval_loss": 0.3440335988998413,
      "eval_roc_auc": 0.7526102108096872,
      "eval_runtime": 7.9839,
      "eval_samples_per_second": 152.681,
      "eval_steps_per_second": 9.644,
      "step": 95
    },
    {
      "epoch": 0.66,
      "eval_accuracy": 0.4602132895816243,
      "eval_f1": 0.6378670266621667,
      "eval_loss": 0.3471491038799286,
      "eval_roc_auc": 0.7546135556590144,
      "eval_runtime": 7.9271,
      "eval_samples_per_second": 153.777,
      "eval_steps_per_second": 9.714,
      "step": 100
    },
    {
      "epoch": 0.69,
      "eval_accuracy": 0.4552912223133716,
      "eval_f1": 0.6391959798994975,
      "eval_loss": 0.3423626720905304,
      "eval_roc_auc": 0.756208135697462,
      "eval_runtime": 8.016,
      "eval_samples_per_second": 152.072,
      "eval_steps_per_second": 9.606,
      "step": 105
    },
    {
      "epoch": 0.72,
      "eval_accuracy": 0.4446267432321575,
      "eval_f1": 0.6370566788200199,
      "eval_loss": 0.34281936287879944,
      "eval_roc_auc": 0.7561358744109579,
      "eval_runtime": 8.0176,
      "eval_samples_per_second": 152.04,
      "eval_steps_per_second": 9.604,
      "step": 110
    },
    {
      "epoch": 0.75,
      "eval_accuracy": 0.4561115668580804,
      "eval_f1": 0.6306489976214747,
      "eval_loss": 0.33776310086250305,
      "eval_roc_auc": 0.7497013987551732,
      "eval_runtime": 8.0078,
      "eval_samples_per_second": 152.226,
      "eval_steps_per_second": 9.616,
      "step": 115
    },
    {
      "epoch": 0.79,
      "eval_accuracy": 0.43560295324036097,
      "eval_f1": 0.619535519125683,
      "eval_loss": 0.34532150626182556,
      "eval_roc_auc": 0.7427778441097496,
      "eval_runtime": 8.0037,
      "eval_samples_per_second": 152.304,
      "eval_steps_per_second": 9.621,
      "step": 120
    },
    {
      "epoch": 0.82,
      "eval_accuracy": 0.4372436423297785,
      "eval_f1": 0.6080611535788742,
      "eval_loss": 0.34418460726737976,
      "eval_roc_auc": 0.7346203716270192,
      "eval_runtime": 7.9813,
      "eval_samples_per_second": 152.732,
      "eval_steps_per_second": 9.648,
      "step": 125
    },
    {
      "epoch": 0.85,
      "eval_accuracy": 0.43478260869565216,
      "eval_f1": 0.6368827678871347,
      "eval_loss": 0.3406447470188141,
      "eval_roc_auc": 0.7545574001570208,
      "eval_runtime": 7.9262,
      "eval_samples_per_second": 153.795,
      "eval_steps_per_second": 9.715,
      "step": 130
    },
    {
      "epoch": 0.89,
      "eval_accuracy": 0.44872846595570137,
      "eval_f1": 0.6287094547964114,
      "eval_loss": 0.33070701360702515,
      "eval_roc_auc": 0.746993050031868,
      "eval_runtime": 8.0069,
      "eval_samples_per_second": 152.244,
      "eval_steps_per_second": 9.617,
      "step": 135
    },
    {
      "epoch": 0.92,
      "eval_accuracy": 0.44052502050861364,
      "eval_f1": 0.6427447277305635,
      "eval_loss": 0.335606187582016,
      "eval_roc_auc": 0.7655910436376567,
      "eval_runtime": 7.9852,
      "eval_samples_per_second": 152.658,
      "eval_steps_per_second": 9.643,
      "step": 140
    },
    {
      "epoch": 0.95,
      "eval_accuracy": 0.45036915504511893,
      "eval_f1": 0.6545686087233366,
      "eval_loss": 0.32907480001449585,
      "eval_roc_auc": 0.7715131406022103,
      "eval_runtime": 8.0023,
      "eval_samples_per_second": 152.332,
      "eval_steps_per_second": 9.622,
      "step": 145
    },
    {
      "epoch": 0.98,
      "eval_accuracy": 0.4725184577522559,
      "eval_f1": 0.6570680628272252,
      "eval_loss": 0.3286930024623871,
      "eval_roc_auc": 0.7695822717831808,
      "eval_runtime": 8.0118,
      "eval_samples_per_second": 152.15,
      "eval_steps_per_second": 9.611,
      "step": 150
    },
    {
      "epoch": 1.02,
      "eval_accuracy": 0.45118949958982774,
      "eval_f1": 0.6472893533638145,
      "eval_loss": 0.33020809292793274,
      "eval_roc_auc": 0.7639487904770575,
      "eval_runtime": 8.015,
      "eval_samples_per_second": 152.089,
      "eval_steps_per_second": 9.607,
      "step": 155
    },
    {
      "epoch": 1.05,
      "eval_accuracy": 0.46759639048400325,
      "eval_f1": 0.6493594066082266,
      "eval_loss": 0.325378954410553,
      "eval_roc_auc": 0.7614169611519888,
      "eval_runtime": 8.0005,
      "eval_samples_per_second": 152.366,
      "eval_steps_per_second": 9.624,
      "step": 160
    },
    {
      "epoch": 1.09,
      "eval_accuracy": 0.4593929450369155,
      "eval_f1": 0.6503796632551998,
      "eval_loss": 0.3320108950138092,
      "eval_roc_auc": 0.7645018631171522,
      "eval_runtime": 8.0248,
      "eval_samples_per_second": 151.904,
      "eval_steps_per_second": 9.595,
      "step": 165
    },
    {
      "epoch": 1.12,
      "eval_accuracy": 0.46595570139458575,
      "eval_f1": 0.6592689295039164,
      "eval_loss": 0.3229435682296753,
      "eval_roc_auc": 0.7712330073236223,
      "eval_runtime": 8.0173,
      "eval_samples_per_second": 152.046,
      "eval_steps_per_second": 9.604,
      "step": 170
    },
    {
      "epoch": 1.15,
      "eval_accuracy": 0.4692370795734208,
      "eval_f1": 0.6632224733613173,
      "eval_loss": 0.3225989043712616,
      "eval_roc_auc": 0.7749991839735848,
      "eval_runtime": 8.0195,
      "eval_samples_per_second": 152.004,
      "eval_steps_per_second": 9.602,
      "step": 175
    },
    {
      "epoch": 1.18,
      "eval_accuracy": 0.4700574241181296,
      "eval_f1": 0.6570774762994444,
      "eval_loss": 0.3239133358001709,
      "eval_roc_auc": 0.7697104738278855,
      "eval_runtime": 8.0323,
      "eval_samples_per_second": 151.762,
      "eval_steps_per_second": 9.586,
      "step": 180
    },
    {
      "epoch": 1.22,
      "eval_accuracy": 0.46841673502871206,
      "eval_f1": 0.6478405315614619,
      "eval_loss": 0.3256509006023407,
      "eval_roc_auc": 0.7622501670706714,
      "eval_runtime": 8.016,
      "eval_samples_per_second": 152.07,
      "eval_steps_per_second": 9.606,
      "step": 185
    },
    {
      "epoch": 1.25,
      "eval_accuracy": 0.44626743232157506,
      "eval_f1": 0.6485788113695091,
      "eval_loss": 0.3301216959953308,
      "eval_roc_auc": 0.7660561786943233,
      "eval_runtime": 8.0107,
      "eval_samples_per_second": 152.172,
      "eval_steps_per_second": 9.612,
      "step": 190
    },
    {
      "epoch": 1.28,
      "eval_accuracy": 0.4561115668580804,
      "eval_f1": 0.6440118772682283,
      "eval_loss": 0.3321978747844696,
      "eval_roc_auc": 0.7607916272253901,
      "eval_runtime": 8.0318,
      "eval_samples_per_second": 151.772,
      "eval_steps_per_second": 9.587,
      "step": 195
    },
    {
      "epoch": 1.31,
      "eval_accuracy": 0.45693191140278916,
      "eval_f1": 0.6419344153693276,
      "eval_loss": 0.332906037569046,
      "eval_roc_auc": 0.7591008419674654,
      "eval_runtime": 8.0041,
      "eval_samples_per_second": 152.297,
      "eval_steps_per_second": 9.62,
      "step": 200
    },
    {
      "epoch": 1.35,
      "eval_accuracy": 0.4725184577522559,
      "eval_f1": 0.6666666666666666,
      "eval_loss": 0.32602551579475403,
      "eval_roc_auc": 0.7778198437008772,
      "eval_runtime": 7.9642,
      "eval_samples_per_second": 153.06,
      "eval_steps_per_second": 9.668,
      "step": 205
    },
    {
      "epoch": 1.38,
      "eval_accuracy": 0.4913863822805578,
      "eval_f1": 0.6668848167539267,
      "eval_loss": 0.32121244072914124,
      "eval_roc_auc": 0.7754721571787132,
      "eval_runtime": 8.0198,
      "eval_samples_per_second": 151.999,
      "eval_steps_per_second": 9.601,
      "step": 210
    },
    {
      "epoch": 1.41,
      "eval_accuracy": 0.49056603773584906,
      "eval_f1": 0.6620370370370371,
      "eval_loss": 0.3238256871700287,
      "eval_roc_auc": 0.7712251691751605,
      "eval_runtime": 8.0262,
      "eval_samples_per_second": 151.878,
      "eval_steps_per_second": 9.594,
      "step": 215
    },
    {
      "epoch": 1.45,
      "eval_accuracy": 0.4815422477440525,
      "eval_f1": 0.6701231367465976,
      "eval_loss": 0.3244372010231018,
      "eval_roc_auc": 0.7787174727576024,
      "eval_runtime": 8.0488,
      "eval_samples_per_second": 151.451,
      "eval_steps_per_second": 9.567,
      "step": 220
    },
    {
      "epoch": 1.48,
      "eval_accuracy": 0.4700574241181296,
      "eval_f1": 0.6582278481012658,
      "eval_loss": 0.3309716284275055,
      "eval_roc_auc": 0.7713050538663332,
      "eval_runtime": 8.0316,
      "eval_samples_per_second": 151.776,
      "eval_steps_per_second": 9.587,
      "step": 225
    },
    {
      "epoch": 1.51,
      "eval_accuracy": 0.48236259228876127,
      "eval_f1": 0.6497025776602776,
      "eval_loss": 0.33229681849479675,
      "eval_roc_auc": 0.7639810020460789,
      "eval_runtime": 8.055,
      "eval_samples_per_second": 151.335,
      "eval_steps_per_second": 9.559,
      "step": 230
    },
    {
      "epoch": 1.54,
      "eval_accuracy": 0.48482362592288764,
      "eval_f1": 0.6543046357615894,
      "eval_loss": 0.3251941502094269,
      "eval_roc_auc": 0.7664732111412516,
      "eval_runtime": 8.0257,
      "eval_samples_per_second": 151.887,
      "eval_steps_per_second": 9.594,
      "step": 235
    },
    {
      "epoch": 1.58,
      "eval_accuracy": 0.44872846595570137,
      "eval_f1": 0.647760232033516,
      "eval_loss": 0.3258862793445587,
      "eval_roc_auc": 0.7658317714301422,
      "eval_runtime": 8.0067,
      "eval_samples_per_second": 152.247,
      "eval_steps_per_second": 9.617,
      "step": 240
    },
    {
      "epoch": 1.61,
      "eval_accuracy": 0.45775225594749797,
      "eval_f1": 0.6434782608695652,
      "eval_loss": 0.32118335366249084,
      "eval_roc_auc": 0.7589086462723054,
      "eval_runtime": 7.99,
      "eval_samples_per_second": 152.566,
      "eval_steps_per_second": 9.637,
      "step": 245
    },
    {
      "epoch": 1.64,
      "eval_accuracy": 0.47087776866283837,
      "eval_f1": 0.6325016857720835,
      "eval_loss": 0.3378210663795471,
      "eval_roc_auc": 0.7516004854927683,
      "eval_runtime": 7.9789,
      "eval_samples_per_second": 152.778,
      "eval_steps_per_second": 9.65,
      "step": 250
    },
    {
      "epoch": 1.68,
      "eval_accuracy": 0.4593929450369155,
      "eval_f1": 0.6582278481012658,
      "eval_loss": 0.32711225748062134,
      "eval_roc_auc": 0.7745501547014287,
      "eval_runtime": 7.9965,
      "eval_samples_per_second": 152.442,
      "eval_steps_per_second": 9.629,
      "step": 255
    },
    {
      "epoch": 1.71,
      "eval_accuracy": 0.40935192780968005,
      "eval_f1": 0.6242118537200505,
      "eval_loss": 0.3473276197910309,
      "eval_roc_auc": 0.7538593754563305,
      "eval_runtime": 8.0342,
      "eval_samples_per_second": 151.726,
      "eval_steps_per_second": 9.584,
      "step": 260
    },
    {
      "epoch": 1.74,
      "eval_accuracy": 0.47333880229696473,
      "eval_f1": 0.6577000672494957,
      "eval_loss": 0.31610187888145447,
      "eval_roc_auc": 0.7666016279297497,
      "eval_runtime": 8.0194,
      "eval_samples_per_second": 152.007,
      "eval_steps_per_second": 9.602,
      "step": 265
    },
    {
      "epoch": 1.77,
      "eval_accuracy": 0.47908121410992616,
      "eval_f1": 0.6387650085763293,
      "eval_loss": 0.32829180359840393,
      "eval_roc_auc": 0.75334764099648,
      "eval_runtime": 8.0709,
      "eval_samples_per_second": 151.036,
      "eval_steps_per_second": 9.54,
      "step": 270
    },
    {
      "epoch": 1.81,
      "eval_accuracy": 0.4634946677604594,
      "eval_f1": 0.6345895020188425,
      "eval_loss": 0.33018872141838074,
      "eval_roc_auc": 0.7530348666612837,
      "eval_runtime": 8.0421,
      "eval_samples_per_second": 151.577,
      "eval_steps_per_second": 9.575,
      "step": 275
    },
    {
      "epoch": 1.84,
      "eval_accuracy": 0.4470877768662838,
      "eval_f1": 0.6360354446997047,
      "eval_loss": 0.32664331793785095,
      "eval_roc_auc": 0.7566325768052652,
      "eval_runtime": 8.0333,
      "eval_samples_per_second": 151.743,
      "eval_steps_per_second": 9.585,
      "step": 280
    },
    {
      "epoch": 1.87,
      "eval_accuracy": 0.4634946677604594,
      "eval_f1": 0.6599935421375523,
      "eval_loss": 0.31928300857543945,
      "eval_roc_auc": 0.7730358888417407,
      "eval_runtime": 8.0166,
      "eval_samples_per_second": 152.059,
      "eval_steps_per_second": 9.605,
      "step": 285
    },
    {
      "epoch": 1.9,
      "eval_accuracy": 0.48236259228876127,
      "eval_f1": 0.6740045322110716,
      "eval_loss": 0.3167670667171478,
      "eval_roc_auc": 0.7812016289605198,
      "eval_runtime": 8.041,
      "eval_samples_per_second": 151.598,
      "eval_steps_per_second": 9.576,
      "step": 290
    },
    {
      "epoch": 1.94,
      "eval_accuracy": 0.47579983593109104,
      "eval_f1": 0.6623794212218649,
      "eval_loss": 0.3292601406574249,
      "eval_roc_auc": 0.7750311807988125,
      "eval_runtime": 8.0054,
      "eval_samples_per_second": 152.273,
      "eval_steps_per_second": 9.619,
      "step": 295
    },
    {
      "epoch": 1.97,
      "eval_accuracy": 0.4815422477440525,
      "eval_f1": 0.6711842529848338,
      "eval_loss": 0.31975889205932617,
      "eval_roc_auc": 0.7799274466619367,
      "eval_runtime": 7.9973,
      "eval_samples_per_second": 152.426,
      "eval_steps_per_second": 9.628,
      "step": 300
    },
    {
      "epoch": 2.01,
      "eval_accuracy": 0.4610336341263331,
      "eval_f1": 0.6603957184560494,
      "eval_loss": 0.3197610378265381,
      "eval_roc_auc": 0.7726993853173655,
      "eval_runtime": 8.0524,
      "eval_samples_per_second": 151.383,
      "eval_steps_per_second": 9.562,
      "step": 305
    },
    {
      "epoch": 2.04,
      "eval_accuracy": 0.4749794913863823,
      "eval_f1": 0.6640801810539929,
      "eval_loss": 0.3192605972290039,
      "eval_roc_auc": 0.7753517932824705,
      "eval_runtime": 8.0105,
      "eval_samples_per_second": 152.175,
      "eval_steps_per_second": 9.612,
      "step": 310
    },
    {
      "epoch": 2.07,
      "eval_accuracy": 0.48728465955701394,
      "eval_f1": 0.6642787365678932,
      "eval_loss": 0.32933691143989563,
      "eval_roc_auc": 0.7745425312967604,
      "eval_runtime": 8.0293,
      "eval_samples_per_second": 151.819,
      "eval_steps_per_second": 9.59,
      "step": 315
    },
    {
      "epoch": 2.1,
      "eval_accuracy": 0.4725184577522559,
      "eval_f1": 0.6780928638205048,
      "eval_loss": 0.32413941621780396,
      "eval_roc_auc": 0.7890783239332817,
      "eval_runtime": 8.0372,
      "eval_samples_per_second": 151.67,
      "eval_steps_per_second": 9.58,
      "step": 320
    },
    {
      "epoch": 2.14,
      "eval_accuracy": 0.4716981132075472,
      "eval_f1": 0.6754468485418627,
      "eval_loss": 0.3209807872772217,
      "eval_roc_auc": 0.7865221211876533,
      "eval_runtime": 8.0473,
      "eval_samples_per_second": 151.479,
      "eval_steps_per_second": 9.568,
      "step": 325
    },
    {
      "epoch": 2.17,
      "eval_accuracy": 0.5045118949958983,
      "eval_f1": 0.6750082318077051,
      "eval_loss": 0.3217622637748718,
      "eval_roc_auc": 0.7795030055541335,
      "eval_runtime": 8.0665,
      "eval_samples_per_second": 151.119,
      "eval_steps_per_second": 9.546,
      "step": 330
    },
    {
      "epoch": 2.2,
      "eval_accuracy": 0.4864643150123052,
      "eval_f1": 0.6681967213114753,
      "eval_loss": 0.31972452998161316,
      "eval_roc_auc": 0.7760010711420418,
      "eval_runtime": 8.0244,
      "eval_samples_per_second": 151.912,
      "eval_steps_per_second": 9.596,
      "step": 335
    },
    {
      "epoch": 2.24,
      "eval_accuracy": 0.46513535684987695,
      "eval_f1": 0.6568434839554682,
      "eval_loss": 0.3260347843170166,
      "eval_roc_auc": 0.769365917411255,
      "eval_runtime": 8.0343,
      "eval_samples_per_second": 151.724,
      "eval_steps_per_second": 9.584,
      "step": 340
    },
    {
      "epoch": 2.27,
      "eval_accuracy": 0.4864643150123052,
      "eval_f1": 0.6602902374670184,
      "eval_loss": 0.32888534665107727,
      "eval_roc_auc": 0.7705199505573891,
      "eval_runtime": 8.0355,
      "eval_samples_per_second": 151.702,
      "eval_steps_per_second": 9.582,
      "step": 345
    },
    {
      "epoch": 2.3,
      "eval_accuracy": 0.4856439704675964,
      "eval_f1": 0.656074147633234,
      "eval_loss": 0.33224135637283325,
      "eval_roc_auc": 0.7675630358931366,
      "eval_runtime": 8.0318,
      "eval_samples_per_second": 151.772,
      "eval_steps_per_second": 9.587,
      "step": 350
    },
    {
      "epoch": 2.33,
      "eval_accuracy": 0.4782608695652174,
      "eval_f1": 0.6660200452634982,
      "eval_loss": 0.3256855607032776,
      "eval_roc_auc": 0.7765297703615771,
      "eval_runtime": 7.9999,
      "eval_samples_per_second": 152.377,
      "eval_steps_per_second": 9.625,
      "step": 355
    },
    {
      "epoch": 2.37,
      "eval_accuracy": 0.4815422477440525,
      "eval_f1": 0.6685971685971687,
      "eval_loss": 0.32381561398506165,
      "eval_roc_auc": 0.7787414166905748,
      "eval_runtime": 8.0346,
      "eval_samples_per_second": 151.718,
      "eval_steps_per_second": 9.584,
      "step": 360
    },
    {
      "epoch": 2.4,
      "eval_accuracy": 0.48728465955701394,
      "eval_f1": 0.6717998075072185,
      "eval_loss": 0.32423415780067444,
      "eval_roc_auc": 0.7810893179565324,
      "eval_runtime": 8.021,
      "eval_samples_per_second": 151.976,
      "eval_steps_per_second": 9.6,
      "step": 365
    },
    {
      "epoch": 2.43,
      "eval_accuracy": 0.4807219031993437,
      "eval_f1": 0.6709021601016518,
      "eval_loss": 0.3285050392150879,
      "eval_roc_auc": 0.7818905270499872,
      "eval_runtime": 8.0395,
      "eval_samples_per_second": 151.626,
      "eval_steps_per_second": 9.578,
      "step": 370
    },
    {
      "epoch": 2.47,
      "eval_accuracy": 0.48482362592288764,
      "eval_f1": 0.6655989750160154,
      "eval_loss": 0.3381527066230774,
      "eval_roc_auc": 0.7775072841094747,
      "eval_runtime": 8.042,
      "eval_samples_per_second": 151.579,
      "eval_steps_per_second": 9.575,
      "step": 375
    },
    {
      "epoch": 2.5,
      "eval_accuracy": 0.4782608695652174,
      "eval_f1": 0.6606799230275817,
      "eval_loss": 0.33757591247558594,
      "eval_roc_auc": 0.774325962181041,
      "eval_runtime": 8.082,
      "eval_samples_per_second": 150.83,
      "eval_steps_per_second": 9.527,
      "step": 380
    },
    {
      "epoch": 2.53,
      "eval_accuracy": 0.48728465955701394,
      "eval_f1": 0.6666666666666666,
      "eval_loss": 0.3323557376861572,
      "eval_roc_auc": 0.7761532171197189,
      "eval_runtime": 8.0783,
      "eval_samples_per_second": 150.898,
      "eval_steps_per_second": 9.532,
      "step": 385
    },
    {
      "epoch": 2.56,
      "eval_accuracy": 0.4971287940935193,
      "eval_f1": 0.6657894736842106,
      "eval_loss": 0.33691394329071045,
      "eval_roc_auc": 0.7741339812296745,
      "eval_runtime": 8.0587,
      "eval_samples_per_second": 151.265,
      "eval_steps_per_second": 9.555,
      "step": 390
    },
    {
      "epoch": 2.6,
      "eval_accuracy": 0.48400328137817883,
      "eval_f1": 0.6638601036269429,
      "eval_loss": 0.3320687413215637,
      "eval_roc_auc": 0.7750072368658402,
      "eval_runtime": 8.0642,
      "eval_samples_per_second": 151.163,
      "eval_steps_per_second": 9.548,
      "step": 395
    },
    {
      "epoch": 2.63,
      "eval_accuracy": 0.4831829368334701,
      "eval_f1": 0.6668814432989691,
      "eval_loss": 0.331011563539505,
      "eval_roc_auc": 0.7775233898939853,
      "eval_runtime": 8.0582,
      "eval_samples_per_second": 151.275,
      "eval_steps_per_second": 9.555,
      "step": 400
    },
    {
      "epoch": 2.66,
      "eval_accuracy": 0.48810500410172275,
      "eval_f1": 0.6721991701244813,
      "eval_loss": 0.33171191811561584,
      "eval_roc_auc": 0.7820348348792022,
      "eval_runtime": 8.0862,
      "eval_samples_per_second": 150.75,
      "eval_steps_per_second": 9.522,
      "step": 405
    },
    {
      "epoch": 2.7,
      "eval_accuracy": 0.4692370795734208,
      "eval_f1": 0.6670874092773745,
      "eval_loss": 0.33319005370140076,
      "eval_roc_auc": 0.7804319872047057,
      "eval_runtime": 8.0547,
      "eval_samples_per_second": 151.34,
      "eval_steps_per_second": 9.56,
      "step": 410
    },
    {
      "epoch": 2.73,
      "eval_accuracy": 0.4610336341263331,
      "eval_f1": 0.6571699905033238,
      "eval_loss": 0.3371020555496216,
      "eval_roc_auc": 0.7738529889759126,
      "eval_runtime": 8.0351,
      "eval_samples_per_second": 151.709,
      "eval_steps_per_second": 9.583,
      "step": 415
    },
    {
      "epoch": 2.76,
      "eval_accuracy": 0.4593929450369155,
      "eval_f1": 0.6576463184392699,
      "eval_loss": 0.33646154403686523,
      "eval_roc_auc": 0.774926707943287,
      "eval_runtime": 8.0676,
      "eval_samples_per_second": 151.099,
      "eval_steps_per_second": 9.544,
      "step": 420
    },
    {
      "epoch": 2.79,
      "eval_accuracy": 0.4667760459392945,
      "eval_f1": 0.6637527318139245,
      "eval_loss": 0.3370600938796997,
      "eval_roc_auc": 0.7797907622373899,
      "eval_runtime": 8.0692,
      "eval_samples_per_second": 151.067,
      "eval_steps_per_second": 9.542,
      "step": 425
    },
    {
      "epoch": 2.83,
      "eval_accuracy": 0.4700574241181296,
      "eval_f1": 0.667923342758404,
      "eval_loss": 0.33705905079841614,
      "eval_roc_auc": 0.7815538087818186,
      "eval_runtime": 8.0843,
      "eval_samples_per_second": 150.787,
      "eval_steps_per_second": 9.525,
      "step": 430
    },
    {
      "epoch": 2.86,
      "eval_accuracy": 0.4692370795734208,
      "eval_f1": 0.6635011079455524,
      "eval_loss": 0.3383537232875824,
      "eval_roc_auc": 0.7777795792396008,
      "eval_runtime": 8.0447,
      "eval_samples_per_second": 151.529,
      "eval_steps_per_second": 9.572,
      "step": 435
    },
    {
      "epoch": 2.89,
      "eval_accuracy": 0.47087776866283837,
      "eval_f1": 0.6632685568652438,
      "eval_loss": 0.33809220790863037,
      "eval_roc_auc": 0.7767940125994479,
      "eval_runtime": 8.0642,
      "eval_samples_per_second": 151.162,
      "eval_steps_per_second": 9.548,
      "step": 440
    },
    {
      "epoch": 2.92,
      "eval_accuracy": 0.48236259228876127,
      "eval_f1": 0.6717508738481094,
      "eval_loss": 0.33571308851242065,
      "eval_roc_auc": 0.7823713384035775,
      "eval_runtime": 8.0627,
      "eval_samples_per_second": 151.189,
      "eval_steps_per_second": 9.55,
      "step": 445
    },
    {
      "epoch": 2.96,
      "eval_accuracy": 0.49056603773584906,
      "eval_f1": 0.6673114119922631,
      "eval_loss": 0.3353803753852844,
      "eval_roc_auc": 0.7776996945484282,
      "eval_runtime": 8.0997,
      "eval_samples_per_second": 150.5,
      "eval_steps_per_second": 9.507,
      "step": 450
    },
    {
      "epoch": 2.99,
      "eval_accuracy": 0.48482362592288764,
      "eval_f1": 0.6732547019445331,
      "eval_loss": 0.3311522603034973,
      "eval_roc_auc": 0.7828602026494229,
      "eval_runtime": 8.0792,
      "eval_samples_per_second": 150.882,
      "eval_steps_per_second": 9.531,
      "step": 455
    },
    {
      "epoch": 3.03,
      "eval_accuracy": 0.4593929450369155,
      "eval_f1": 0.6556962025316456,
      "eval_loss": 0.33461835980415344,
      "eval_roc_auc": 0.7729795185959536,
      "eval_runtime": 8.1114,
      "eval_samples_per_second": 150.282,
      "eval_steps_per_second": 9.493,
      "step": 460
    },
    {
      "epoch": 3.06,
      "eval_accuracy": 0.45775225594749797,
      "eval_f1": 0.6512071156289707,
      "eval_loss": 0.33722984790802,
      "eval_roc_auc": 0.7697180972325538,
      "eval_runtime": 8.0684,
      "eval_samples_per_second": 151.083,
      "eval_steps_per_second": 9.543,
      "step": 465
    },
    {
      "epoch": 3.09,
      "eval_accuracy": 0.4815422477440525,
      "eval_f1": 0.6717460317460318,
      "eval_loss": 0.33360302448272705,
      "eval_roc_auc": 0.782499540448282,
      "eval_runtime": 8.0553,
      "eval_samples_per_second": 151.329,
      "eval_steps_per_second": 9.559,
      "step": 470
    },
    {
      "epoch": 3.12,
      "eval_accuracy": 0.4782608695652174,
      "eval_f1": 0.6748273697426239,
      "eval_loss": 0.33798375725746155,
      "eval_roc_auc": 0.78600126011658,
      "eval_runtime": 8.0481,
      "eval_samples_per_second": 151.465,
      "eval_steps_per_second": 9.567,
      "step": 475
    },
    {
      "epoch": 3.16,
      "eval_accuracy": 0.46759639048400325,
      "eval_f1": 0.6683245259558594,
      "eval_loss": 0.33939486742019653,
      "eval_roc_auc": 0.7832685379727155,
      "eval_runtime": 8.0902,
      "eval_samples_per_second": 150.676,
      "eval_steps_per_second": 9.518,
      "step": 480
    },
    {
      "epoch": 3.19,
      "eval_accuracy": 0.4741591468416735,
      "eval_f1": 0.665833072835261,
      "eval_loss": 0.34740638732910156,
      "eval_roc_auc": 0.7809286895990133,
      "eval_runtime": 8.0593,
      "eval_samples_per_second": 151.254,
      "eval_steps_per_second": 9.554,
      "step": 485
    },
    {
      "epoch": 3.22,
      "eval_accuracy": 0.47579983593109104,
      "eval_f1": 0.6619987269255252,
      "eval_loss": 0.35029366612434387,
      "eval_roc_auc": 0.7761368965914147,
      "eval_runtime": 8.0918,
      "eval_samples_per_second": 150.646,
      "eval_steps_per_second": 9.516,
      "step": 490
    },
    {
      "epoch": 3.26,
      "eval_accuracy": 0.4692370795734208,
      "eval_f1": 0.6626467788003808,
      "eval_loss": 0.34992286562919617,
      "eval_roc_auc": 0.7769141617518971,
      "eval_runtime": 8.0657,
      "eval_samples_per_second": 151.134,
      "eval_steps_per_second": 9.547,
      "step": 495
    },
    {
      "epoch": 3.29,
      "learning_rate": 1.3978494623655916e-05,
      "loss": 0.2971,
      "step": 500
    },
    {
      "epoch": 3.29,
      "eval_accuracy": 0.4741591468416735,
      "eval_f1": 0.6645569620253166,
      "eval_loss": 0.3486829996109009,
      "eval_roc_auc": 0.778476744965117,
      "eval_runtime": 8.0764,
      "eval_samples_per_second": 150.933,
      "eval_steps_per_second": 9.534,
      "step": 500
    },
    {
      "epoch": 3.32,
      "eval_accuracy": 0.4782608695652174,
      "eval_f1": 0.6696258719086873,
      "eval_loss": 0.3478684425354004,
      "eval_roc_auc": 0.7813616130866585,
      "eval_runtime": 8.0562,
      "eval_samples_per_second": 151.312,
      "eval_steps_per_second": 9.558,
      "step": 505
    },
    {
      "epoch": 3.35,
      "eval_accuracy": 0.4774405250205086,
      "eval_f1": 0.6658163265306123,
      "eval_loss": 0.34861764311790466,
      "eval_roc_auc": 0.7782364466602186,
      "eval_runtime": 8.0583,
      "eval_samples_per_second": 151.273,
      "eval_steps_per_second": 9.555,
      "step": 510
    },
    {
      "epoch": 3.39,
      "eval_accuracy": 0.46759639048400325,
      "eval_f1": 0.6639523958659568,
      "eval_loss": 0.3515309989452362,
      "eval_roc_auc": 0.7794943084304977,
      "eval_runtime": 8.0433,
      "eval_samples_per_second": 151.555,
      "eval_steps_per_second": 9.573,
      "step": 515
    },
    {
      "epoch": 3.42,
      "eval_accuracy": 0.4634946677604594,
      "eval_f1": 0.663350948088281,
      "eval_loss": 0.35195285081863403,
      "eval_roc_auc": 0.7801272657617649,
      "eval_runtime": 8.0763,
      "eval_samples_per_second": 150.935,
      "eval_steps_per_second": 9.534,
      "step": 520
    },
    {
      "epoch": 3.45,
      "eval_accuracy": 0.47333880229696473,
      "eval_f1": 0.6679151061173532,
      "eval_loss": 0.3510684072971344,
      "eval_roc_auc": 0.7824512230947501,
      "eval_runtime": 8.0583,
      "eval_samples_per_second": 151.272,
      "eval_steps_per_second": 9.555,
      "step": 525
    },
    {
      "epoch": 3.49,
      "eval_accuracy": 0.46595570139458575,
      "eval_f1": 0.6626884422110553,
      "eval_loss": 0.35035577416419983,
      "eval_roc_auc": 0.7783243842436466,
      "eval_runtime": 8.0803,
      "eval_samples_per_second": 150.861,
      "eval_steps_per_second": 9.529,
      "step": 530
    },
    {
      "epoch": 3.52,
      "eval_accuracy": 0.47087776866283837,
      "eval_f1": 0.6635071090047393,
      "eval_loss": 0.3522249758243561,
      "eval_roc_auc": 0.7780359833290098,
      "eval_runtime": 8.0626,
      "eval_samples_per_second": 151.193,
      "eval_steps_per_second": 9.55,
      "step": 535
    },
    {
      "epoch": 3.55,
      "eval_accuracy": 0.4667760459392945,
      "eval_f1": 0.655831739961759,
      "eval_loss": 0.35804975032806396,
      "eval_roc_auc": 0.7721702566102434,
      "eval_runtime": 8.0535,
      "eval_samples_per_second": 151.362,
      "eval_steps_per_second": 9.561,
      "step": 540
    },
    {
      "epoch": 3.58,
      "eval_accuracy": 0.4716981132075472,
      "eval_f1": 0.6583652618135377,
      "eval_loss": 0.35743555426597595,
      "eval_roc_auc": 0.7734844886263098,
      "eval_runtime": 8.0636,
      "eval_samples_per_second": 151.174,
      "eval_steps_per_second": 9.549,
      "step": 545
    },
    {
      "epoch": 3.62,
      "eval_accuracy": 0.4700574241181296,
      "eval_f1": 0.6645408163265306,
      "eval_loss": 0.35204562544822693,
      "eval_roc_auc": 0.777451128607481,
      "eval_runtime": 8.0798,
      "eval_samples_per_second": 150.871,
      "eval_steps_per_second": 9.53,
      "step": 550
    },
    {
      "epoch": 3.65,
      "eval_accuracy": 0.4782608695652174,
      "eval_f1": 0.6670866141732285,
      "eval_loss": 0.35254013538360596,
      "eval_roc_auc": 0.7806883912941148,
      "eval_runtime": 8.0881,
      "eval_samples_per_second": 150.714,
      "eval_steps_per_second": 9.52,
      "step": 555
    },
    {
      "epoch": 3.68,
      "eval_accuracy": 0.47990155865463496,
      "eval_f1": 0.6710526315789473,
      "eval_loss": 0.35144051909446716,
      "eval_roc_auc": 0.7839017100477762,
      "eval_runtime": 8.0963,
      "eval_samples_per_second": 150.562,
      "eval_steps_per_second": 9.51,
      "step": 560
    },
    {
      "epoch": 3.71,
      "eval_accuracy": 0.4593929450369155,
      "eval_f1": 0.6625000000000001,
      "eval_loss": 0.35006746649742126,
      "eval_roc_auc": 0.7788772421399477,
      "eval_runtime": 8.052,
      "eval_samples_per_second": 151.391,
      "eval_steps_per_second": 9.563,
      "step": 565
    },
    {
      "epoch": 3.75,
      "eval_accuracy": 0.4593929450369155,
      "eval_f1": 0.6593406593406594,
      "eval_loss": 0.3507712483406067,
      "eval_roc_auc": 0.776272936784581,
      "eval_runtime": 8.0653,
      "eval_samples_per_second": 151.141,
      "eval_steps_per_second": 9.547,
      "step": 570
    },
    {
      "epoch": 3.78,
      "eval_accuracy": 0.4700574241181296,
      "eval_f1": 0.6618250710451531,
      "eval_loss": 0.3499494194984436,
      "eval_roc_auc": 0.7770743606218293,
      "eval_runtime": 8.0926,
      "eval_samples_per_second": 150.631,
      "eval_steps_per_second": 9.515,
      "step": 575
    },
    {
      "epoch": 3.81,
      "eval_accuracy": 0.47662018047579985,
      "eval_f1": 0.6626582278481012,
      "eval_loss": 0.35412129759788513,
      "eval_roc_auc": 0.7772987678860105,
      "eval_runtime": 8.0771,
      "eval_samples_per_second": 150.92,
      "eval_steps_per_second": 9.533,
      "step": 580
    },
    {
      "epoch": 3.85,
      "eval_accuracy": 0.4741591468416735,
      "eval_f1": 0.6611935585727818,
      "eval_loss": 0.3572123050689697,
      "eval_roc_auc": 0.7766817015954605,
      "eval_runtime": 8.0818,
      "eval_samples_per_second": 150.833,
      "eval_steps_per_second": 9.528,
      "step": 585
    },
    {
      "epoch": 3.88,
      "eval_accuracy": 0.47662018047579985,
      "eval_f1": 0.6666666666666666,
      "eval_loss": 0.3567873537540436,
      "eval_roc_auc": 0.7819223091314214,
      "eval_runtime": 8.0826,
      "eval_samples_per_second": 150.818,
      "eval_steps_per_second": 9.527,
      "step": 590
    },
    {
      "epoch": 3.91,
      "eval_accuracy": 0.4725184577522559,
      "eval_f1": 0.6629178381755702,
      "eval_loss": 0.355048805475235,
      "eval_roc_auc": 0.7791817488390951,
      "eval_runtime": 8.0943,
      "eval_samples_per_second": 150.6,
      "eval_steps_per_second": 9.513,
      "step": 595
    },
    {
      "epoch": 3.94,
      "eval_accuracy": 0.47087776866283837,
      "eval_f1": 0.664578766050736,
      "eval_loss": 0.35483020544052124,
      "eval_roc_auc": 0.7798869674568666,
      "eval_runtime": 8.0915,
      "eval_samples_per_second": 150.652,
      "eval_steps_per_second": 9.516,
      "step": 600
    },
    {
      "epoch": 3.98,
      "eval_accuracy": 0.47579983593109104,
      "eval_f1": 0.6633070866141731,
      "eval_loss": 0.356337308883667,
      "eval_roc_auc": 0.7783324371359018,
      "eval_runtime": 8.0875,
      "eval_samples_per_second": 150.726,
      "eval_steps_per_second": 9.521,
      "step": 605
    },
    {
      "epoch": 4.01,
      "eval_accuracy": 0.4725184577522559,
      "eval_f1": 0.6565656565656566,
      "eval_loss": 0.3576463758945465,
      "eval_roc_auc": 0.7738449360836572,
      "eval_runtime": 8.0898,
      "eval_samples_per_second": 150.684,
      "eval_steps_per_second": 9.518,
      "step": 610
    },
    {
      "epoch": 4.05,
      "eval_accuracy": 0.4741591468416735,
      "eval_f1": 0.6554781507283091,
      "eval_loss": 0.3572046160697937,
      "eval_roc_auc": 0.7727631642240277,
      "eval_runtime": 8.0569,
      "eval_samples_per_second": 151.299,
      "eval_steps_per_second": 9.557,
      "step": 615
    },
    {
      "epoch": 4.08,
      "eval_accuracy": 0.4716981132075472,
      "eval_f1": 0.6573604060913706,
      "eval_loss": 0.3576306104660034,
      "eval_roc_auc": 0.7736847372137251,
      "eval_runtime": 8.0445,
      "eval_samples_per_second": 151.533,
      "eval_steps_per_second": 9.572,
      "step": 620
    },
    {
      "epoch": 4.11,
      "eval_accuracy": 0.4716981132075472,
      "eval_f1": 0.6565464895635673,
      "eval_loss": 0.35778966546058655,
      "eval_roc_auc": 0.7735885319942482,
      "eval_runtime": 8.0918,
      "eval_samples_per_second": 150.646,
      "eval_steps_per_second": 9.516,
      "step": 625
    },
    {
      "epoch": 4.14,
      "eval_accuracy": 0.4716981132075472,
      "eval_f1": 0.6584828454516839,
      "eval_loss": 0.35685408115386963,
      "eval_roc_auc": 0.7754075192968773,
      "eval_runtime": 8.0563,
      "eval_samples_per_second": 151.311,
      "eval_steps_per_second": 9.558,
      "step": 630
    },
    {
      "epoch": 4.18,
      "eval_accuracy": 0.4643150123051682,
      "eval_f1": 0.6572504708097928,
      "eval_loss": 0.35625162720680237,
      "eval_roc_auc": 0.7750068073782531,
      "eval_runtime": 8.0481,
      "eval_samples_per_second": 151.465,
      "eval_steps_per_second": 9.567,
      "step": 635
    },
    {
      "epoch": 4.21,
      "eval_accuracy": 0.46185397867104183,
      "eval_f1": 0.6602304578013081,
      "eval_loss": 0.35893258452415466,
      "eval_roc_auc": 0.7779075665405119,
      "eval_runtime": 8.0865,
      "eval_samples_per_second": 150.744,
      "eval_steps_per_second": 9.522,
      "step": 640
    },
    {
      "epoch": 4.24,
      "eval_accuracy": 0.4634946677604594,
      "eval_f1": 0.6572504708097928,
      "eval_loss": 0.36066997051239014,
      "eval_roc_auc": 0.7750068073782531,
      "eval_runtime": 8.0574,
      "eval_samples_per_second": 151.29,
      "eval_steps_per_second": 9.556,
      "step": 645
    },
    {
      "epoch": 4.28,
      "eval_accuracy": 0.46513535684987695,
      "eval_f1": 0.6580523164197921,
      "eval_loss": 0.3630744516849518,
      "eval_roc_auc": 0.7749748105530254,
      "eval_runtime": 8.0843,
      "eval_samples_per_second": 150.786,
      "eval_steps_per_second": 9.525,
      "step": 650
    },
    {
      "epoch": 4.31,
      "eval_accuracy": 0.4692370795734208,
      "eval_f1": 0.659735349716446,
      "eval_loss": 0.36410996317863464,
      "eval_roc_auc": 0.7760646353049103,
      "eval_runtime": 8.073,
      "eval_samples_per_second": 150.997,
      "eval_steps_per_second": 9.538,
      "step": 655
    },
    {
      "epoch": 4.34,
      "eval_accuracy": 0.46513535684987695,
      "eval_f1": 0.656536878759101,
      "eval_loss": 0.3613521456718445,
      "eval_roc_auc": 0.773460329949544,
      "eval_runtime": 8.0877,
      "eval_samples_per_second": 150.723,
      "eval_steps_per_second": 9.521,
      "step": 660
    },
    {
      "epoch": 4.37,
      "eval_accuracy": 0.4667760459392945,
      "eval_f1": 0.6550412175015853,
      "eval_loss": 0.36153966188430786,
      "eval_roc_auc": 0.7723304554801758,
      "eval_runtime": 8.0874,
      "eval_samples_per_second": 150.728,
      "eval_steps_per_second": 9.521,
      "step": 665
    },
    {
      "epoch": 4.41,
      "eval_accuracy": 0.4643150123051682,
      "eval_f1": 0.6550522648083623,
      "eval_loss": 0.36349305510520935,
      "eval_roc_auc": 0.7724586575248803,
      "eval_runtime": 8.0622,
      "eval_samples_per_second": 151.199,
      "eval_steps_per_second": 9.551,
      "step": 670
    },
    {
      "epoch": 4.44,
      "eval_accuracy": 0.4716981132075472,
      "eval_f1": 0.6628930817610063,
      "eval_loss": 0.36536410450935364,
      "eval_roc_auc": 0.7782843345261635,
      "eval_runtime": 8.1115,
      "eval_samples_per_second": 150.28,
      "eval_steps_per_second": 9.493,
      "step": 675
    },
    {
      "epoch": 4.47,
      "eval_accuracy": 0.47087776866283837,
      "eval_f1": 0.6658354114713217,
      "eval_loss": 0.3667794167995453,
      "eval_roc_auc": 0.7813132957331267,
      "eval_runtime": 8.0833,
      "eval_samples_per_second": 150.804,
      "eval_steps_per_second": 9.526,
      "step": 680
    },
    {
      "epoch": 4.5,
      "eval_accuracy": 0.46841673502871206,
      "eval_f1": 0.6658392801737512,
      "eval_loss": 0.3658396303653717,
      "eval_roc_auc": 0.7819543059566493,
      "eval_runtime": 8.1035,
      "eval_samples_per_second": 150.429,
      "eval_steps_per_second": 9.502,
      "step": 685
    },
    {
      "epoch": 4.54,
      "eval_accuracy": 0.4634946677604594,
      "eval_f1": 0.664,
      "eval_loss": 0.3632983863353729,
      "eval_roc_auc": 0.7819301472798833,
      "eval_runtime": 8.0998,
      "eval_samples_per_second": 150.498,
      "eval_steps_per_second": 9.506,
      "step": 690
    },
    {
      "epoch": 4.57,
      "eval_accuracy": 0.4585726004922067,
      "eval_f1": 0.6631708821714991,
      "eval_loss": 0.3618103563785553,
      "eval_roc_auc": 0.7810647297921794,
      "eval_runtime": 8.0854,
      "eval_samples_per_second": 150.766,
      "eval_steps_per_second": 9.523,
      "step": 695
    },
    {
      "epoch": 4.6,
      "eval_accuracy": 0.4610336341263331,
      "eval_f1": 0.665024630541872,
      "eval_loss": 0.3610358238220215,
      "eval_roc_auc": 0.782499110960695,
      "eval_runtime": 8.0993,
      "eval_samples_per_second": 150.507,
      "eval_steps_per_second": 9.507,
      "step": 700
    },
    {
      "epoch": 4.64,
      "eval_accuracy": 0.4643150123051682,
      "eval_f1": 0.6621160409556314,
      "eval_loss": 0.3614664673805237,
      "eval_roc_auc": 0.7795983517984362,
      "eval_runtime": 8.0984,
      "eval_samples_per_second": 150.524,
      "eval_steps_per_second": 9.508,
      "step": 705
    },
    {
      "epoch": 4.67,
      "eval_accuracy": 0.47087776866283837,
      "eval_f1": 0.6639801611903287,
      "eval_loss": 0.3618822395801544,
      "eval_roc_auc": 0.7809045309222473,
      "eval_runtime": 8.1074,
      "eval_samples_per_second": 150.357,
      "eval_steps_per_second": 9.498,
      "step": 710
    },
    {
      "epoch": 4.7,
      "eval_accuracy": 0.4741591468416735,
      "eval_f1": 0.6662515566625156,
      "eval_loss": 0.3625900149345398,
      "eval_roc_auc": 0.7817460044769786,
      "eval_runtime": 8.09,
      "eval_samples_per_second": 150.68,
      "eval_steps_per_second": 9.518,
      "step": 715
    },
    {
      "epoch": 4.73,
      "eval_accuracy": 0.4692370795734208,
      "eval_f1": 0.665210608424337,
      "eval_loss": 0.3633582592010498,
      "eval_roc_auc": 0.7807924346620535,
      "eval_runtime": 8.0906,
      "eval_samples_per_second": 150.67,
      "eval_steps_per_second": 9.517,
      "step": 720
    },
    {
      "epoch": 4.77,
      "eval_accuracy": 0.4725184577522559,
      "eval_f1": 0.6649968691296181,
      "eval_loss": 0.3639791011810303,
      "eval_roc_auc": 0.780191474156014,
      "eval_runtime": 8.0572,
      "eval_samples_per_second": 151.293,
      "eval_steps_per_second": 9.557,
      "step": 725
    },
    {
      "epoch": 4.8,
      "eval_accuracy": 0.4700574241181296,
      "eval_f1": 0.6635338345864663,
      "eval_loss": 0.3641754388809204,
      "eval_roc_auc": 0.7791898017313504,
      "eval_runtime": 8.0902,
      "eval_samples_per_second": 150.676,
      "eval_steps_per_second": 9.518,
      "step": 730
    },
    {
      "epoch": 4.83,
      "eval_accuracy": 0.4692370795734208,
      "eval_f1": 0.6629107981220658,
      "eval_loss": 0.36396026611328125,
      "eval_roc_auc": 0.7789253447496861,
      "eval_runtime": 8.0618,
      "eval_samples_per_second": 151.207,
      "eval_steps_per_second": 9.551,
      "step": 735
    },
    {
      "epoch": 4.87,
      "eval_accuracy": 0.46759639048400325,
      "eval_f1": 0.6610381488430269,
      "eval_loss": 0.36350592970848083,
      "eval_roc_auc": 0.777875569715284,
      "eval_runtime": 8.1002,
      "eval_samples_per_second": 150.491,
      "eval_steps_per_second": 9.506,
      "step": 740
    },
    {
      "epoch": 4.9,
      "eval_accuracy": 0.4643150123051682,
      "eval_f1": 0.656641604010025,
      "eval_loss": 0.36309143900871277,
      "eval_roc_auc": 0.7748705524412932,
      "eval_runtime": 8.0984,
      "eval_samples_per_second": 150.524,
      "eval_steps_per_second": 9.508,
      "step": 745
    },
    {
      "epoch": 4.93,
      "eval_accuracy": 0.46513535684987695,
      "eval_f1": 0.658307210031348,
      "eval_loss": 0.36302533745765686,
      "eval_roc_auc": 0.7758321751484738,
      "eval_runtime": 8.0954,
      "eval_samples_per_second": 150.579,
      "eval_steps_per_second": 9.512,
      "step": 750
    },
    {
      "epoch": 4.96,
      "eval_accuracy": 0.46595570139458575,
      "eval_f1": 0.6589341692789967,
      "eval_loss": 0.3630276024341583,
      "eval_roc_auc": 0.7762248341748427,
      "eval_runtime": 8.087,
      "eval_samples_per_second": 150.735,
      "eval_steps_per_second": 9.521,
      "step": 755
    },
    {
      "epoch": 5.0,
      "eval_accuracy": 0.46595570139458575,
      "eval_f1": 0.6591407964879272,
      "eval_loss": 0.36303529143333435,
      "eval_roc_auc": 0.7763129865020642,
      "eval_runtime": 8.0957,
      "eval_samples_per_second": 150.573,
      "eval_steps_per_second": 9.511,
      "step": 760
    }
  ],
  "max_steps": 760,
  "num_train_epochs": 5,
  "total_flos": 2104191122173056.0,
  "trial_name": null,
  "trial_params": null
}
