{
  "best_metric": 0.9175366163253784,
  "best_model_checkpoint": "/content/checkpoints/gottbert_base_finetuned_s0_cv0/checkpoint-615",
  "epoch": 4.0,
  "global_step": 1220,
  "is_hyper_param_search": false,
  "is_local_process_zero": true,
  "is_world_process_zero": true,
  "log_history": [
    {
      "epoch": 0.02,
      "eval_accuracy": 0.07377049180327869,
      "eval_loss": 1.8351548910140991,
      "eval_runtime": 10.3635,
      "eval_samples_per_second": 117.721,
      "eval_steps_per_second": 7.43,
      "step": 5
    },
    {
      "epoch": 0.03,
      "eval_accuracy": 0.38688524590163936,
      "eval_loss": 1.7094554901123047,
      "eval_runtime": 10.5837,
      "eval_samples_per_second": 115.272,
      "eval_steps_per_second": 7.275,
      "step": 10
    },
    {
      "epoch": 0.05,
      "eval_accuracy": 0.4016393442622951,
      "eval_loss": 1.552309513092041,
      "eval_runtime": 10.7468,
      "eval_samples_per_second": 113.522,
      "eval_steps_per_second": 7.165,
      "step": 15
    },
    {
      "epoch": 0.07,
      "eval_accuracy": 0.2795081967213115,
      "eval_loss": 1.5437930822372437,
      "eval_runtime": 10.8907,
      "eval_samples_per_second": 112.023,
      "eval_steps_per_second": 7.07,
      "step": 20
    },
    {
      "epoch": 0.08,
      "eval_accuracy": 0.2959016393442623,
      "eval_loss": 1.5335434675216675,
      "eval_runtime": 11.1291,
      "eval_samples_per_second": 109.623,
      "eval_steps_per_second": 6.919,
      "step": 25
    },
    {
      "epoch": 0.1,
      "eval_accuracy": 0.40409836065573773,
      "eval_loss": 1.4855611324310303,
      "eval_runtime": 11.3949,
      "eval_samples_per_second": 107.066,
      "eval_steps_per_second": 6.757,
      "step": 30
    },
    {
      "epoch": 0.11,
      "eval_accuracy": 0.4016393442622951,
      "eval_loss": 1.4834593534469604,
      "eval_runtime": 11.7157,
      "eval_samples_per_second": 104.134,
      "eval_steps_per_second": 6.572,
      "step": 35
    },
    {
      "epoch": 0.13,
      "eval_accuracy": 0.4016393442622951,
      "eval_loss": 1.4656153917312622,
      "eval_runtime": 11.6294,
      "eval_samples_per_second": 104.906,
      "eval_steps_per_second": 6.621,
      "step": 40
    },
    {
      "epoch": 0.15,
      "eval_accuracy": 0.4016393442622951,
      "eval_loss": 1.4258646965026855,
      "eval_runtime": 11.4213,
      "eval_samples_per_second": 106.818,
      "eval_steps_per_second": 6.742,
      "step": 45
    },
    {
      "epoch": 0.16,
      "eval_accuracy": 0.5008196721311475,
      "eval_loss": 1.3940407037734985,
      "eval_runtime": 11.4271,
      "eval_samples_per_second": 106.764,
      "eval_steps_per_second": 6.738,
      "step": 50
    },
    {
      "epoch": 0.18,
      "eval_accuracy": 0.5172131147540984,
      "eval_loss": 1.366409182548523,
      "eval_runtime": 11.6029,
      "eval_samples_per_second": 105.146,
      "eval_steps_per_second": 6.636,
      "step": 55
    },
    {
      "epoch": 0.2,
      "eval_accuracy": 0.46967213114754097,
      "eval_loss": 1.35332190990448,
      "eval_runtime": 11.6119,
      "eval_samples_per_second": 105.065,
      "eval_steps_per_second": 6.631,
      "step": 60
    },
    {
      "epoch": 0.21,
      "eval_accuracy": 0.5344262295081967,
      "eval_loss": 1.3100595474243164,
      "eval_runtime": 11.5484,
      "eval_samples_per_second": 105.642,
      "eval_steps_per_second": 6.668,
      "step": 65
    },
    {
      "epoch": 0.23,
      "eval_accuracy": 0.530327868852459,
      "eval_loss": 1.2848868370056152,
      "eval_runtime": 11.5105,
      "eval_samples_per_second": 105.99,
      "eval_steps_per_second": 6.69,
      "step": 70
    },
    {
      "epoch": 0.25,
      "eval_accuracy": 0.5385245901639344,
      "eval_loss": 1.2818127870559692,
      "eval_runtime": 11.5782,
      "eval_samples_per_second": 105.371,
      "eval_steps_per_second": 6.65,
      "step": 75
    },
    {
      "epoch": 0.26,
      "eval_accuracy": 0.5622950819672131,
      "eval_loss": 1.2467474937438965,
      "eval_runtime": 11.5625,
      "eval_samples_per_second": 105.514,
      "eval_steps_per_second": 6.659,
      "step": 80
    },
    {
      "epoch": 0.28,
      "eval_accuracy": 0.5721311475409836,
      "eval_loss": 1.211801290512085,
      "eval_runtime": 11.5745,
      "eval_samples_per_second": 105.404,
      "eval_steps_per_second": 6.653,
      "step": 85
    },
    {
      "epoch": 0.3,
      "eval_accuracy": 0.5352459016393443,
      "eval_loss": 1.228487491607666,
      "eval_runtime": 11.5338,
      "eval_samples_per_second": 105.777,
      "eval_steps_per_second": 6.676,
      "step": 90
    },
    {
      "epoch": 0.31,
      "eval_accuracy": 0.5688524590163935,
      "eval_loss": 1.185219645500183,
      "eval_runtime": 11.5415,
      "eval_samples_per_second": 105.705,
      "eval_steps_per_second": 6.672,
      "step": 95
    },
    {
      "epoch": 0.33,
      "eval_accuracy": 0.5614754098360656,
      "eval_loss": 1.1956764459609985,
      "eval_runtime": 11.5483,
      "eval_samples_per_second": 105.644,
      "eval_steps_per_second": 6.668,
      "step": 100
    },
    {
      "epoch": 0.34,
      "eval_accuracy": 0.5737704918032787,
      "eval_loss": 1.186396598815918,
      "eval_runtime": 11.5552,
      "eval_samples_per_second": 105.58,
      "eval_steps_per_second": 6.664,
      "step": 105
    },
    {
      "epoch": 0.36,
      "eval_accuracy": 0.5606557377049181,
      "eval_loss": 1.1875782012939453,
      "eval_runtime": 11.5672,
      "eval_samples_per_second": 105.47,
      "eval_steps_per_second": 6.657,
      "step": 110
    },
    {
      "epoch": 0.38,
      "eval_accuracy": 0.5360655737704918,
      "eval_loss": 1.3014166355133057,
      "eval_runtime": 11.5429,
      "eval_samples_per_second": 105.693,
      "eval_steps_per_second": 6.671,
      "step": 115
    },
    {
      "epoch": 0.39,
      "eval_accuracy": 0.5737704918032787,
      "eval_loss": 1.1668224334716797,
      "eval_runtime": 11.541,
      "eval_samples_per_second": 105.71,
      "eval_steps_per_second": 6.672,
      "step": 120
    },
    {
      "epoch": 0.41,
      "eval_accuracy": 0.5573770491803278,
      "eval_loss": 1.21605384349823,
      "eval_runtime": 11.5516,
      "eval_samples_per_second": 105.613,
      "eval_steps_per_second": 6.666,
      "step": 125
    },
    {
      "epoch": 0.43,
      "eval_accuracy": 0.5967213114754099,
      "eval_loss": 1.114159345626831,
      "eval_runtime": 11.5482,
      "eval_samples_per_second": 105.644,
      "eval_steps_per_second": 6.668,
      "step": 130
    },
    {
      "epoch": 0.44,
      "eval_accuracy": 0.5483606557377049,
      "eval_loss": 1.1858242750167847,
      "eval_runtime": 11.5191,
      "eval_samples_per_second": 105.911,
      "eval_steps_per_second": 6.685,
      "step": 135
    },
    {
      "epoch": 0.46,
      "eval_accuracy": 0.5221311475409836,
      "eval_loss": 1.2519965171813965,
      "eval_runtime": 11.5427,
      "eval_samples_per_second": 105.694,
      "eval_steps_per_second": 6.671,
      "step": 140
    },
    {
      "epoch": 0.48,
      "eval_accuracy": 0.5704918032786885,
      "eval_loss": 1.1306324005126953,
      "eval_runtime": 11.5556,
      "eval_samples_per_second": 105.576,
      "eval_steps_per_second": 6.663,
      "step": 145
    },
    {
      "epoch": 0.49,
      "eval_accuracy": 0.5639344262295082,
      "eval_loss": 1.1441113948822021,
      "eval_runtime": 11.5601,
      "eval_samples_per_second": 105.535,
      "eval_steps_per_second": 6.661,
      "step": 150
    },
    {
      "epoch": 0.51,
      "eval_accuracy": 0.578688524590164,
      "eval_loss": 1.1192693710327148,
      "eval_runtime": 11.5516,
      "eval_samples_per_second": 105.613,
      "eval_steps_per_second": 6.666,
      "step": 155
    },
    {
      "epoch": 0.52,
      "eval_accuracy": 0.5827868852459016,
      "eval_loss": 1.119596004486084,
      "eval_runtime": 11.536,
      "eval_samples_per_second": 105.756,
      "eval_steps_per_second": 6.675,
      "step": 160
    },
    {
      "epoch": 0.54,
      "eval_accuracy": 0.5549180327868852,
      "eval_loss": 1.1114435195922852,
      "eval_runtime": 11.5255,
      "eval_samples_per_second": 105.852,
      "eval_steps_per_second": 6.681,
      "step": 165
    },
    {
      "epoch": 0.56,
      "eval_accuracy": 0.6032786885245902,
      "eval_loss": 1.0515788793563843,
      "eval_runtime": 11.5537,
      "eval_samples_per_second": 105.594,
      "eval_steps_per_second": 6.665,
      "step": 170
    },
    {
      "epoch": 0.57,
      "eval_accuracy": 0.6180327868852459,
      "eval_loss": 1.0350233316421509,
      "eval_runtime": 11.5339,
      "eval_samples_per_second": 105.775,
      "eval_steps_per_second": 6.676,
      "step": 175
    },
    {
      "epoch": 0.59,
      "eval_accuracy": 0.6180327868852459,
      "eval_loss": 1.036152958869934,
      "eval_runtime": 11.5386,
      "eval_samples_per_second": 105.732,
      "eval_steps_per_second": 6.673,
      "step": 180
    },
    {
      "epoch": 0.61,
      "eval_accuracy": 0.6245901639344262,
      "eval_loss": 1.0279924869537354,
      "eval_runtime": 11.5315,
      "eval_samples_per_second": 105.797,
      "eval_steps_per_second": 6.677,
      "step": 185
    },
    {
      "epoch": 0.62,
      "eval_accuracy": 0.6,
      "eval_loss": 1.0568363666534424,
      "eval_runtime": 11.5559,
      "eval_samples_per_second": 105.573,
      "eval_steps_per_second": 6.663,
      "step": 190
    },
    {
      "epoch": 0.64,
      "eval_accuracy": 0.5598360655737705,
      "eval_loss": 1.1858316659927368,
      "eval_runtime": 11.5581,
      "eval_samples_per_second": 105.553,
      "eval_steps_per_second": 6.662,
      "step": 195
    },
    {
      "epoch": 0.66,
      "eval_accuracy": 0.610655737704918,
      "eval_loss": 1.053327202796936,
      "eval_runtime": 11.5395,
      "eval_samples_per_second": 105.723,
      "eval_steps_per_second": 6.673,
      "step": 200
    },
    {
      "epoch": 0.67,
      "eval_accuracy": 0.6139344262295082,
      "eval_loss": 1.0498408079147339,
      "eval_runtime": 11.5455,
      "eval_samples_per_second": 105.669,
      "eval_steps_per_second": 6.669,
      "step": 205
    },
    {
      "epoch": 0.69,
      "eval_accuracy": 0.6278688524590164,
      "eval_loss": 0.9949321746826172,
      "eval_runtime": 11.55,
      "eval_samples_per_second": 105.627,
      "eval_steps_per_second": 6.667,
      "step": 210
    },
    {
      "epoch": 0.7,
      "eval_accuracy": 0.589344262295082,
      "eval_loss": 1.0753401517868042,
      "eval_runtime": 11.5527,
      "eval_samples_per_second": 105.603,
      "eval_steps_per_second": 6.665,
      "step": 215
    },
    {
      "epoch": 0.72,
      "eval_accuracy": 0.590983606557377,
      "eval_loss": 1.0623842477798462,
      "eval_runtime": 11.5513,
      "eval_samples_per_second": 105.616,
      "eval_steps_per_second": 6.666,
      "step": 220
    },
    {
      "epoch": 0.74,
      "eval_accuracy": 0.6188524590163934,
      "eval_loss": 1.0270981788635254,
      "eval_runtime": 11.5585,
      "eval_samples_per_second": 105.55,
      "eval_steps_per_second": 6.662,
      "step": 225
    },
    {
      "epoch": 0.75,
      "eval_accuracy": 0.6278688524590164,
      "eval_loss": 1.0000333786010742,
      "eval_runtime": 11.562,
      "eval_samples_per_second": 105.518,
      "eval_steps_per_second": 6.66,
      "step": 230
    },
    {
      "epoch": 0.77,
      "eval_accuracy": 0.6401639344262295,
      "eval_loss": 0.9936809539794922,
      "eval_runtime": 11.5531,
      "eval_samples_per_second": 105.599,
      "eval_steps_per_second": 6.665,
      "step": 235
    },
    {
      "epoch": 0.79,
      "eval_accuracy": 0.6344262295081967,
      "eval_loss": 0.9903192520141602,
      "eval_runtime": 11.5378,
      "eval_samples_per_second": 105.739,
      "eval_steps_per_second": 6.674,
      "step": 240
    },
    {
      "epoch": 0.8,
      "eval_accuracy": 0.639344262295082,
      "eval_loss": 0.9885541796684265,
      "eval_runtime": 11.544,
      "eval_samples_per_second": 105.683,
      "eval_steps_per_second": 6.67,
      "step": 245
    },
    {
      "epoch": 0.82,
      "eval_accuracy": 0.6229508196721312,
      "eval_loss": 1.006875991821289,
      "eval_runtime": 11.5565,
      "eval_samples_per_second": 105.568,
      "eval_steps_per_second": 6.663,
      "step": 250
    },
    {
      "epoch": 0.84,
      "eval_accuracy": 0.6360655737704918,
      "eval_loss": 0.9981399178504944,
      "eval_runtime": 11.6054,
      "eval_samples_per_second": 105.123,
      "eval_steps_per_second": 6.635,
      "step": 255
    },
    {
      "epoch": 0.85,
      "eval_accuracy": 0.6262295081967213,
      "eval_loss": 1.0061583518981934,
      "eval_runtime": 11.5613,
      "eval_samples_per_second": 105.525,
      "eval_steps_per_second": 6.66,
      "step": 260
    },
    {
      "epoch": 0.87,
      "eval_accuracy": 0.6278688524590164,
      "eval_loss": 0.9936225414276123,
      "eval_runtime": 11.5418,
      "eval_samples_per_second": 105.703,
      "eval_steps_per_second": 6.671,
      "step": 265
    },
    {
      "epoch": 0.89,
      "eval_accuracy": 0.6221311475409836,
      "eval_loss": 0.9952605962753296,
      "eval_runtime": 11.5209,
      "eval_samples_per_second": 105.895,
      "eval_steps_per_second": 6.684,
      "step": 270
    },
    {
      "epoch": 0.9,
      "eval_accuracy": 0.639344262295082,
      "eval_loss": 0.9799087047576904,
      "eval_runtime": 11.5594,
      "eval_samples_per_second": 105.542,
      "eval_steps_per_second": 6.661,
      "step": 275
    },
    {
      "epoch": 0.92,
      "eval_accuracy": 0.5991803278688524,
      "eval_loss": 1.0527185201644897,
      "eval_runtime": 11.5609,
      "eval_samples_per_second": 105.528,
      "eval_steps_per_second": 6.66,
      "step": 280
    },
    {
      "epoch": 0.93,
      "eval_accuracy": 0.6163934426229508,
      "eval_loss": 1.0231178998947144,
      "eval_runtime": 11.5314,
      "eval_samples_per_second": 105.798,
      "eval_steps_per_second": 6.677,
      "step": 285
    },
    {
      "epoch": 0.95,
      "eval_accuracy": 0.6368852459016393,
      "eval_loss": 0.9788418412208557,
      "eval_runtime": 11.5347,
      "eval_samples_per_second": 105.768,
      "eval_steps_per_second": 6.676,
      "step": 290
    },
    {
      "epoch": 0.97,
      "eval_accuracy": 0.6434426229508197,
      "eval_loss": 0.9619740843772888,
      "eval_runtime": 11.5575,
      "eval_samples_per_second": 105.559,
      "eval_steps_per_second": 6.662,
      "step": 295
    },
    {
      "epoch": 0.98,
      "eval_accuracy": 0.6532786885245901,
      "eval_loss": 0.9552499055862427,
      "eval_runtime": 11.5711,
      "eval_samples_per_second": 105.435,
      "eval_steps_per_second": 6.655,
      "step": 300
    },
    {
      "epoch": 1.0,
      "eval_accuracy": 0.6540983606557377,
      "eval_loss": 0.951004683971405,
      "eval_runtime": 11.5566,
      "eval_samples_per_second": 105.568,
      "eval_steps_per_second": 6.663,
      "step": 305
    },
    {
      "epoch": 1.02,
      "eval_accuracy": 0.6475409836065574,
      "eval_loss": 0.9607610702514648,
      "eval_runtime": 11.541,
      "eval_samples_per_second": 105.71,
      "eval_steps_per_second": 6.672,
      "step": 310
    },
    {
      "epoch": 1.03,
      "eval_accuracy": 0.6467213114754098,
      "eval_loss": 0.964246392250061,
      "eval_runtime": 11.5527,
      "eval_samples_per_second": 105.603,
      "eval_steps_per_second": 6.665,
      "step": 315
    },
    {
      "epoch": 1.05,
      "eval_accuracy": 0.6368852459016393,
      "eval_loss": 0.9760703444480896,
      "eval_runtime": 11.5273,
      "eval_samples_per_second": 105.836,
      "eval_steps_per_second": 6.68,
      "step": 320
    },
    {
      "epoch": 1.07,
      "eval_accuracy": 0.6385245901639345,
      "eval_loss": 0.9655547738075256,
      "eval_runtime": 11.5572,
      "eval_samples_per_second": 105.561,
      "eval_steps_per_second": 6.662,
      "step": 325
    },
    {
      "epoch": 1.08,
      "eval_accuracy": 0.6418032786885246,
      "eval_loss": 0.9580974578857422,
      "eval_runtime": 11.5527,
      "eval_samples_per_second": 105.603,
      "eval_steps_per_second": 6.665,
      "step": 330
    },
    {
      "epoch": 1.1,
      "eval_accuracy": 0.648360655737705,
      "eval_loss": 0.9580616354942322,
      "eval_runtime": 11.5427,
      "eval_samples_per_second": 105.694,
      "eval_steps_per_second": 6.671,
      "step": 335
    },
    {
      "epoch": 1.11,
      "eval_accuracy": 0.6385245901639345,
      "eval_loss": 0.9878488183021545,
      "eval_runtime": 11.5723,
      "eval_samples_per_second": 105.424,
      "eval_steps_per_second": 6.654,
      "step": 340
    },
    {
      "epoch": 1.13,
      "eval_accuracy": 0.6319672131147541,
      "eval_loss": 0.9893308281898499,
      "eval_runtime": 11.6123,
      "eval_samples_per_second": 105.061,
      "eval_steps_per_second": 6.631,
      "step": 345
    },
    {
      "epoch": 1.15,
      "eval_accuracy": 0.639344262295082,
      "eval_loss": 0.9786871075630188,
      "eval_runtime": 11.5772,
      "eval_samples_per_second": 105.38,
      "eval_steps_per_second": 6.651,
      "step": 350
    },
    {
      "epoch": 1.16,
      "eval_accuracy": 0.6344262295081967,
      "eval_loss": 0.9773094058036804,
      "eval_runtime": 11.5698,
      "eval_samples_per_second": 105.447,
      "eval_steps_per_second": 6.655,
      "step": 355
    },
    {
      "epoch": 1.18,
      "eval_accuracy": 0.6360655737704918,
      "eval_loss": 0.9884056448936462,
      "eval_runtime": 11.5741,
      "eval_samples_per_second": 105.408,
      "eval_steps_per_second": 6.653,
      "step": 360
    },
    {
      "epoch": 1.2,
      "eval_accuracy": 0.6114754098360655,
      "eval_loss": 1.0092393159866333,
      "eval_runtime": 11.5772,
      "eval_samples_per_second": 105.38,
      "eval_steps_per_second": 6.651,
      "step": 365
    },
    {
      "epoch": 1.21,
      "eval_accuracy": 0.6336065573770492,
      "eval_loss": 0.9985211491584778,
      "eval_runtime": 11.5939,
      "eval_samples_per_second": 105.227,
      "eval_steps_per_second": 6.641,
      "step": 370
    },
    {
      "epoch": 1.23,
      "eval_accuracy": 0.6368852459016393,
      "eval_loss": 1.004754662513733,
      "eval_runtime": 11.5812,
      "eval_samples_per_second": 105.344,
      "eval_steps_per_second": 6.649,
      "step": 375
    },
    {
      "epoch": 1.25,
      "eval_accuracy": 0.6163934426229508,
      "eval_loss": 1.0379582643508911,
      "eval_runtime": 11.5661,
      "eval_samples_per_second": 105.48,
      "eval_steps_per_second": 6.657,
      "step": 380
    },
    {
      "epoch": 1.26,
      "eval_accuracy": 0.6147540983606558,
      "eval_loss": 1.0313689708709717,
      "eval_runtime": 11.6035,
      "eval_samples_per_second": 105.14,
      "eval_steps_per_second": 6.636,
      "step": 385
    },
    {
      "epoch": 1.28,
      "eval_accuracy": 0.610655737704918,
      "eval_loss": 1.0165759325027466,
      "eval_runtime": 11.5944,
      "eval_samples_per_second": 105.223,
      "eval_steps_per_second": 6.641,
      "step": 390
    },
    {
      "epoch": 1.3,
      "eval_accuracy": 0.6204918032786885,
      "eval_loss": 1.0174472332000732,
      "eval_runtime": 11.5947,
      "eval_samples_per_second": 105.22,
      "eval_steps_per_second": 6.641,
      "step": 395
    },
    {
      "epoch": 1.31,
      "eval_accuracy": 0.6344262295081967,
      "eval_loss": 0.9667808413505554,
      "eval_runtime": 11.5834,
      "eval_samples_per_second": 105.323,
      "eval_steps_per_second": 6.647,
      "step": 400
    },
    {
      "epoch": 1.33,
      "eval_accuracy": 0.6434426229508197,
      "eval_loss": 0.9583448171615601,
      "eval_runtime": 11.5399,
      "eval_samples_per_second": 105.72,
      "eval_steps_per_second": 6.672,
      "step": 405
    },
    {
      "epoch": 1.34,
      "eval_accuracy": 0.6327868852459017,
      "eval_loss": 0.9708123803138733,
      "eval_runtime": 11.5539,
      "eval_samples_per_second": 105.592,
      "eval_steps_per_second": 6.664,
      "step": 410
    },
    {
      "epoch": 1.36,
      "eval_accuracy": 0.6336065573770492,
      "eval_loss": 0.9723218679428101,
      "eval_runtime": 11.5614,
      "eval_samples_per_second": 105.523,
      "eval_steps_per_second": 6.66,
      "step": 415
    },
    {
      "epoch": 1.38,
      "eval_accuracy": 0.6385245901639345,
      "eval_loss": 0.9667224287986755,
      "eval_runtime": 11.543,
      "eval_samples_per_second": 105.692,
      "eval_steps_per_second": 6.671,
      "step": 420
    },
    {
      "epoch": 1.39,
      "eval_accuracy": 0.6377049180327868,
      "eval_loss": 0.9703907370567322,
      "eval_runtime": 11.5736,
      "eval_samples_per_second": 105.412,
      "eval_steps_per_second": 6.653,
      "step": 425
    },
    {
      "epoch": 1.41,
      "eval_accuracy": 0.6319672131147541,
      "eval_loss": 0.977037787437439,
      "eval_runtime": 11.5631,
      "eval_samples_per_second": 105.508,
      "eval_steps_per_second": 6.659,
      "step": 430
    },
    {
      "epoch": 1.43,
      "eval_accuracy": 0.639344262295082,
      "eval_loss": 0.971651554107666,
      "eval_runtime": 11.6174,
      "eval_samples_per_second": 105.015,
      "eval_steps_per_second": 6.628,
      "step": 435
    },
    {
      "epoch": 1.44,
      "eval_accuracy": 0.6377049180327868,
      "eval_loss": 0.9636098146438599,
      "eval_runtime": 11.5887,
      "eval_samples_per_second": 105.275,
      "eval_steps_per_second": 6.644,
      "step": 440
    },
    {
      "epoch": 1.46,
      "eval_accuracy": 0.6377049180327868,
      "eval_loss": 0.959565281867981,
      "eval_runtime": 11.5625,
      "eval_samples_per_second": 105.514,
      "eval_steps_per_second": 6.659,
      "step": 445
    },
    {
      "epoch": 1.48,
      "eval_accuracy": 0.6385245901639345,
      "eval_loss": 0.9492108225822449,
      "eval_runtime": 11.5444,
      "eval_samples_per_second": 105.679,
      "eval_steps_per_second": 6.67,
      "step": 450
    },
    {
      "epoch": 1.49,
      "eval_accuracy": 0.6180327868852459,
      "eval_loss": 0.995499312877655,
      "eval_runtime": 11.5786,
      "eval_samples_per_second": 105.367,
      "eval_steps_per_second": 6.65,
      "step": 455
    },
    {
      "epoch": 1.51,
      "eval_accuracy": 0.6360655737704918,
      "eval_loss": 0.9642671942710876,
      "eval_runtime": 11.598,
      "eval_samples_per_second": 105.19,
      "eval_steps_per_second": 6.639,
      "step": 460
    },
    {
      "epoch": 1.52,
      "eval_accuracy": 0.6311475409836066,
      "eval_loss": 0.9631885886192322,
      "eval_runtime": 11.6194,
      "eval_samples_per_second": 104.997,
      "eval_steps_per_second": 6.627,
      "step": 465
    },
    {
      "epoch": 1.54,
      "eval_accuracy": 0.6491803278688525,
      "eval_loss": 0.9515304565429688,
      "eval_runtime": 11.5766,
      "eval_samples_per_second": 105.385,
      "eval_steps_per_second": 6.651,
      "step": 470
    },
    {
      "epoch": 1.56,
      "eval_accuracy": 0.6549180327868852,
      "eval_loss": 0.9354249238967896,
      "eval_runtime": 11.5946,
      "eval_samples_per_second": 105.222,
      "eval_steps_per_second": 6.641,
      "step": 475
    },
    {
      "epoch": 1.57,
      "eval_accuracy": 0.65,
      "eval_loss": 0.9523412585258484,
      "eval_runtime": 11.5959,
      "eval_samples_per_second": 105.21,
      "eval_steps_per_second": 6.64,
      "step": 480
    },
    {
      "epoch": 1.59,
      "eval_accuracy": 0.639344262295082,
      "eval_loss": 0.9908645153045654,
      "eval_runtime": 11.5879,
      "eval_samples_per_second": 105.282,
      "eval_steps_per_second": 6.645,
      "step": 485
    },
    {
      "epoch": 1.61,
      "eval_accuracy": 0.6213114754098361,
      "eval_loss": 1.0109987258911133,
      "eval_runtime": 11.5665,
      "eval_samples_per_second": 105.477,
      "eval_steps_per_second": 6.657,
      "step": 490
    },
    {
      "epoch": 1.62,
      "eval_accuracy": 0.6286885245901639,
      "eval_loss": 0.9814109206199646,
      "eval_runtime": 11.5669,
      "eval_samples_per_second": 105.473,
      "eval_steps_per_second": 6.657,
      "step": 495
    },
    {
      "epoch": 1.64,
      "learning_rate": 1.196013289036545e-05,
      "loss": 1.094,
      "step": 500
    },
    {
      "epoch": 1.64,
      "eval_accuracy": 0.6491803278688525,
      "eval_loss": 0.9522245526313782,
      "eval_runtime": 11.5582,
      "eval_samples_per_second": 105.553,
      "eval_steps_per_second": 6.662,
      "step": 500
    },
    {
      "epoch": 1.66,
      "eval_accuracy": 0.6581967213114754,
      "eval_loss": 0.9434975385665894,
      "eval_runtime": 11.5976,
      "eval_samples_per_second": 105.194,
      "eval_steps_per_second": 6.639,
      "step": 505
    },
    {
      "epoch": 1.67,
      "eval_accuracy": 0.6278688524590164,
      "eval_loss": 0.9818337559700012,
      "eval_runtime": 11.5735,
      "eval_samples_per_second": 105.413,
      "eval_steps_per_second": 6.653,
      "step": 510
    },
    {
      "epoch": 1.69,
      "eval_accuracy": 0.6426229508196721,
      "eval_loss": 0.9733486771583557,
      "eval_runtime": 11.5636,
      "eval_samples_per_second": 105.503,
      "eval_steps_per_second": 6.659,
      "step": 515
    },
    {
      "epoch": 1.7,
      "eval_accuracy": 0.6352459016393442,
      "eval_loss": 0.9558101296424866,
      "eval_runtime": 11.5678,
      "eval_samples_per_second": 105.465,
      "eval_steps_per_second": 6.656,
      "step": 520
    },
    {
      "epoch": 1.72,
      "eval_accuracy": 0.6508196721311476,
      "eval_loss": 0.9354252219200134,
      "eval_runtime": 11.4951,
      "eval_samples_per_second": 106.132,
      "eval_steps_per_second": 6.699,
      "step": 525
    },
    {
      "epoch": 1.74,
      "eval_accuracy": 0.6655737704918033,
      "eval_loss": 0.923101007938385,
      "eval_runtime": 11.4127,
      "eval_samples_per_second": 106.899,
      "eval_steps_per_second": 6.747,
      "step": 530
    },
    {
      "epoch": 1.75,
      "eval_accuracy": 0.6418032786885246,
      "eval_loss": 0.9558327794075012,
      "eval_runtime": 11.3485,
      "eval_samples_per_second": 107.503,
      "eval_steps_per_second": 6.785,
      "step": 535
    },
    {
      "epoch": 1.77,
      "eval_accuracy": 0.6450819672131147,
      "eval_loss": 0.9350879192352295,
      "eval_runtime": 11.2668,
      "eval_samples_per_second": 108.282,
      "eval_steps_per_second": 6.834,
      "step": 540
    },
    {
      "epoch": 1.79,
      "eval_accuracy": 0.6532786885245901,
      "eval_loss": 0.9338381886482239,
      "eval_runtime": 11.2576,
      "eval_samples_per_second": 108.371,
      "eval_steps_per_second": 6.84,
      "step": 545
    },
    {
      "epoch": 1.8,
      "eval_accuracy": 0.6475409836065574,
      "eval_loss": 0.9425272941589355,
      "eval_runtime": 11.254,
      "eval_samples_per_second": 108.406,
      "eval_steps_per_second": 6.842,
      "step": 550
    },
    {
      "epoch": 1.82,
      "eval_accuracy": 0.6557377049180327,
      "eval_loss": 0.9360775947570801,
      "eval_runtime": 11.2123,
      "eval_samples_per_second": 108.809,
      "eval_steps_per_second": 6.867,
      "step": 555
    },
    {
      "epoch": 1.84,
      "eval_accuracy": 0.6573770491803279,
      "eval_loss": 0.9500827193260193,
      "eval_runtime": 11.1967,
      "eval_samples_per_second": 108.96,
      "eval_steps_per_second": 6.877,
      "step": 560
    },
    {
      "epoch": 1.85,
      "eval_accuracy": 0.6565573770491804,
      "eval_loss": 0.9663159847259521,
      "eval_runtime": 11.1742,
      "eval_samples_per_second": 109.181,
      "eval_steps_per_second": 6.891,
      "step": 565
    },
    {
      "epoch": 1.87,
      "eval_accuracy": 0.659016393442623,
      "eval_loss": 0.9392055869102478,
      "eval_runtime": 11.1511,
      "eval_samples_per_second": 109.407,
      "eval_steps_per_second": 6.905,
      "step": 570
    },
    {
      "epoch": 1.89,
      "eval_accuracy": 0.6540983606557377,
      "eval_loss": 0.9443411231040955,
      "eval_runtime": 11.1318,
      "eval_samples_per_second": 109.596,
      "eval_steps_per_second": 6.917,
      "step": 575
    },
    {
      "epoch": 1.9,
      "eval_accuracy": 0.648360655737705,
      "eval_loss": 0.9488321542739868,
      "eval_runtime": 11.1273,
      "eval_samples_per_second": 109.641,
      "eval_steps_per_second": 6.92,
      "step": 580
    },
    {
      "epoch": 1.92,
      "eval_accuracy": 0.6639344262295082,
      "eval_loss": 0.9357513785362244,
      "eval_runtime": 11.1324,
      "eval_samples_per_second": 109.59,
      "eval_steps_per_second": 6.917,
      "step": 585
    },
    {
      "epoch": 1.93,
      "eval_accuracy": 0.6622950819672131,
      "eval_loss": 0.9200958013534546,
      "eval_runtime": 11.08,
      "eval_samples_per_second": 110.109,
      "eval_steps_per_second": 6.949,
      "step": 590
    },
    {
      "epoch": 1.95,
      "eval_accuracy": 0.6663934426229509,
      "eval_loss": 0.920695424079895,
      "eval_runtime": 11.0956,
      "eval_samples_per_second": 109.954,
      "eval_steps_per_second": 6.94,
      "step": 595
    },
    {
      "epoch": 1.97,
      "eval_accuracy": 0.6581967213114754,
      "eval_loss": 0.9280862808227539,
      "eval_runtime": 11.0897,
      "eval_samples_per_second": 110.012,
      "eval_steps_per_second": 6.943,
      "step": 600
    },
    {
      "epoch": 1.98,
      "eval_accuracy": 0.6549180327868852,
      "eval_loss": 0.9251850247383118,
      "eval_runtime": 11.0789,
      "eval_samples_per_second": 110.12,
      "eval_steps_per_second": 6.95,
      "step": 605
    },
    {
      "epoch": 2.0,
      "eval_accuracy": 0.6631147540983606,
      "eval_loss": 0.9185212850570679,
      "eval_runtime": 11.0817,
      "eval_samples_per_second": 110.092,
      "eval_steps_per_second": 6.948,
      "step": 610
    },
    {
      "epoch": 2.02,
      "eval_accuracy": 0.671311475409836,
      "eval_loss": 0.9175366163253784,
      "eval_runtime": 11.0987,
      "eval_samples_per_second": 109.923,
      "eval_steps_per_second": 6.938,
      "step": 615
    },
    {
      "epoch": 2.03,
      "eval_accuracy": 0.6663934426229509,
      "eval_loss": 0.9302927255630493,
      "eval_runtime": 11.0746,
      "eval_samples_per_second": 110.162,
      "eval_steps_per_second": 6.953,
      "step": 620
    },
    {
      "epoch": 2.05,
      "eval_accuracy": 0.6631147540983606,
      "eval_loss": 0.9328312873840332,
      "eval_runtime": 11.0686,
      "eval_samples_per_second": 110.222,
      "eval_steps_per_second": 6.957,
      "step": 625
    },
    {
      "epoch": 2.07,
      "eval_accuracy": 0.6540983606557377,
      "eval_loss": 0.9544145464897156,
      "eval_runtime": 11.0733,
      "eval_samples_per_second": 110.175,
      "eval_steps_per_second": 6.954,
      "step": 630
    },
    {
      "epoch": 2.08,
      "eval_accuracy": 0.6418032786885246,
      "eval_loss": 0.9928616881370544,
      "eval_runtime": 11.0888,
      "eval_samples_per_second": 110.021,
      "eval_steps_per_second": 6.944,
      "step": 635
    },
    {
      "epoch": 2.1,
      "eval_accuracy": 0.6581967213114754,
      "eval_loss": 0.9658361077308655,
      "eval_runtime": 11.092,
      "eval_samples_per_second": 109.99,
      "eval_steps_per_second": 6.942,
      "step": 640
    },
    {
      "epoch": 2.11,
      "eval_accuracy": 0.659016393442623,
      "eval_loss": 0.9367780685424805,
      "eval_runtime": 11.0963,
      "eval_samples_per_second": 109.946,
      "eval_steps_per_second": 6.939,
      "step": 645
    },
    {
      "epoch": 2.13,
      "eval_accuracy": 0.6581967213114754,
      "eval_loss": 0.9411593079566956,
      "eval_runtime": 11.0583,
      "eval_samples_per_second": 110.324,
      "eval_steps_per_second": 6.963,
      "step": 650
    },
    {
      "epoch": 2.15,
      "eval_accuracy": 0.6614754098360656,
      "eval_loss": 0.9470435976982117,
      "eval_runtime": 11.0778,
      "eval_samples_per_second": 110.13,
      "eval_steps_per_second": 6.951,
      "step": 655
    },
    {
      "epoch": 2.16,
      "eval_accuracy": 0.6573770491803279,
      "eval_loss": 0.9666295647621155,
      "eval_runtime": 11.08,
      "eval_samples_per_second": 110.108,
      "eval_steps_per_second": 6.949,
      "step": 660
    },
    {
      "epoch": 2.18,
      "eval_accuracy": 0.6557377049180327,
      "eval_loss": 0.9680856466293335,
      "eval_runtime": 11.1065,
      "eval_samples_per_second": 109.845,
      "eval_steps_per_second": 6.933,
      "step": 665
    },
    {
      "epoch": 2.2,
      "eval_accuracy": 0.6532786885245901,
      "eval_loss": 0.9741390943527222,
      "eval_runtime": 11.1114,
      "eval_samples_per_second": 109.797,
      "eval_steps_per_second": 6.93,
      "step": 670
    },
    {
      "epoch": 2.21,
      "eval_accuracy": 0.6573770491803279,
      "eval_loss": 0.9810145497322083,
      "eval_runtime": 11.0862,
      "eval_samples_per_second": 110.046,
      "eval_steps_per_second": 6.946,
      "step": 675
    },
    {
      "epoch": 2.23,
      "eval_accuracy": 0.6598360655737705,
      "eval_loss": 0.9711259603500366,
      "eval_runtime": 11.1,
      "eval_samples_per_second": 109.91,
      "eval_steps_per_second": 6.937,
      "step": 680
    },
    {
      "epoch": 2.25,
      "eval_accuracy": 0.6459016393442623,
      "eval_loss": 0.9882516264915466,
      "eval_runtime": 11.0882,
      "eval_samples_per_second": 110.027,
      "eval_steps_per_second": 6.944,
      "step": 685
    },
    {
      "epoch": 2.26,
      "eval_accuracy": 0.6360655737704918,
      "eval_loss": 0.9919143319129944,
      "eval_runtime": 11.0958,
      "eval_samples_per_second": 109.951,
      "eval_steps_per_second": 6.94,
      "step": 690
    },
    {
      "epoch": 2.28,
      "eval_accuracy": 0.6450819672131147,
      "eval_loss": 0.9810858964920044,
      "eval_runtime": 11.1085,
      "eval_samples_per_second": 109.826,
      "eval_steps_per_second": 6.932,
      "step": 695
    },
    {
      "epoch": 2.3,
      "eval_accuracy": 0.6581967213114754,
      "eval_loss": 0.976901113986969,
      "eval_runtime": 11.1172,
      "eval_samples_per_second": 109.74,
      "eval_steps_per_second": 6.926,
      "step": 700
    },
    {
      "epoch": 2.31,
      "eval_accuracy": 0.6467213114754098,
      "eval_loss": 0.9924286603927612,
      "eval_runtime": 11.1254,
      "eval_samples_per_second": 109.659,
      "eval_steps_per_second": 6.921,
      "step": 705
    },
    {
      "epoch": 2.33,
      "eval_accuracy": 0.65,
      "eval_loss": 0.9925009608268738,
      "eval_runtime": 11.1123,
      "eval_samples_per_second": 109.788,
      "eval_steps_per_second": 6.929,
      "step": 710
    },
    {
      "epoch": 2.34,
      "eval_accuracy": 0.6426229508196721,
      "eval_loss": 0.9896400570869446,
      "eval_runtime": 11.1216,
      "eval_samples_per_second": 109.696,
      "eval_steps_per_second": 6.923,
      "step": 715
    },
    {
      "epoch": 2.36,
      "eval_accuracy": 0.6368852459016393,
      "eval_loss": 0.997435450553894,
      "eval_runtime": 11.1027,
      "eval_samples_per_second": 109.883,
      "eval_steps_per_second": 6.935,
      "step": 720
    },
    {
      "epoch": 2.38,
      "eval_accuracy": 0.648360655737705,
      "eval_loss": 0.9811545610427856,
      "eval_runtime": 11.1493,
      "eval_samples_per_second": 109.424,
      "eval_steps_per_second": 6.906,
      "step": 725
    },
    {
      "epoch": 2.39,
      "eval_accuracy": 0.6598360655737705,
      "eval_loss": 0.9766427278518677,
      "eval_runtime": 11.1466,
      "eval_samples_per_second": 109.451,
      "eval_steps_per_second": 6.908,
      "step": 730
    },
    {
      "epoch": 2.41,
      "eval_accuracy": 0.6565573770491804,
      "eval_loss": 0.9771021008491516,
      "eval_runtime": 11.1199,
      "eval_samples_per_second": 109.713,
      "eval_steps_per_second": 6.925,
      "step": 735
    },
    {
      "epoch": 2.43,
      "eval_accuracy": 0.6581967213114754,
      "eval_loss": 0.9876158833503723,
      "eval_runtime": 11.1188,
      "eval_samples_per_second": 109.724,
      "eval_steps_per_second": 6.925,
      "step": 740
    },
    {
      "epoch": 2.44,
      "eval_accuracy": 0.6459016393442623,
      "eval_loss": 1.0204812288284302,
      "eval_runtime": 11.1177,
      "eval_samples_per_second": 109.735,
      "eval_steps_per_second": 6.926,
      "step": 745
    },
    {
      "epoch": 2.46,
      "eval_accuracy": 0.6459016393442623,
      "eval_loss": 1.0268259048461914,
      "eval_runtime": 11.1077,
      "eval_samples_per_second": 109.833,
      "eval_steps_per_second": 6.932,
      "step": 750
    },
    {
      "epoch": 2.48,
      "eval_accuracy": 0.6450819672131147,
      "eval_loss": 1.020192265510559,
      "eval_runtime": 11.1334,
      "eval_samples_per_second": 109.58,
      "eval_steps_per_second": 6.916,
      "step": 755
    },
    {
      "epoch": 2.49,
      "eval_accuracy": 0.6426229508196721,
      "eval_loss": 1.0132476091384888,
      "eval_runtime": 11.1141,
      "eval_samples_per_second": 109.77,
      "eval_steps_per_second": 6.928,
      "step": 760
    },
    {
      "epoch": 2.51,
      "eval_accuracy": 0.6508196721311476,
      "eval_loss": 0.9990686774253845,
      "eval_runtime": 11.0997,
      "eval_samples_per_second": 109.913,
      "eval_steps_per_second": 6.937,
      "step": 765
    },
    {
      "epoch": 2.52,
      "eval_accuracy": 0.6557377049180327,
      "eval_loss": 0.9932607412338257,
      "eval_runtime": 11.1021,
      "eval_samples_per_second": 109.889,
      "eval_steps_per_second": 6.936,
      "step": 770
    },
    {
      "epoch": 2.54,
      "eval_accuracy": 0.6622950819672131,
      "eval_loss": 0.9886714816093445,
      "eval_runtime": 11.1341,
      "eval_samples_per_second": 109.573,
      "eval_steps_per_second": 6.916,
      "step": 775
    },
    {
      "epoch": 2.56,
      "eval_accuracy": 0.6598360655737705,
      "eval_loss": 0.9869458675384521,
      "eval_runtime": 11.1137,
      "eval_samples_per_second": 109.775,
      "eval_steps_per_second": 6.928,
      "step": 780
    },
    {
      "epoch": 2.57,
      "eval_accuracy": 0.6614754098360656,
      "eval_loss": 0.980735719203949,
      "eval_runtime": 11.1213,
      "eval_samples_per_second": 109.699,
      "eval_steps_per_second": 6.924,
      "step": 785
    },
    {
      "epoch": 2.59,
      "eval_accuracy": 0.6614754098360656,
      "eval_loss": 0.9779707193374634,
      "eval_runtime": 11.1067,
      "eval_samples_per_second": 109.843,
      "eval_steps_per_second": 6.933,
      "step": 790
    },
    {
      "epoch": 2.61,
      "eval_accuracy": 0.6647540983606557,
      "eval_loss": 0.9765281081199646,
      "eval_runtime": 11.1166,
      "eval_samples_per_second": 109.746,
      "eval_steps_per_second": 6.927,
      "step": 795
    },
    {
      "epoch": 2.62,
      "eval_accuracy": 0.659016393442623,
      "eval_loss": 0.9838314652442932,
      "eval_runtime": 11.1045,
      "eval_samples_per_second": 109.865,
      "eval_steps_per_second": 6.934,
      "step": 800
    },
    {
      "epoch": 2.64,
      "eval_accuracy": 0.6434426229508197,
      "eval_loss": 1.0047119855880737,
      "eval_runtime": 11.0996,
      "eval_samples_per_second": 109.914,
      "eval_steps_per_second": 6.937,
      "step": 805
    },
    {
      "epoch": 2.66,
      "eval_accuracy": 0.6368852459016393,
      "eval_loss": 1.030719518661499,
      "eval_runtime": 11.0986,
      "eval_samples_per_second": 109.924,
      "eval_steps_per_second": 6.938,
      "step": 810
    },
    {
      "epoch": 2.67,
      "eval_accuracy": 0.648360655737705,
      "eval_loss": 1.0120528936386108,
      "eval_runtime": 11.1209,
      "eval_samples_per_second": 109.703,
      "eval_steps_per_second": 6.924,
      "step": 815
    },
    {
      "epoch": 2.69,
      "eval_accuracy": 0.6647540983606557,
      "eval_loss": 1.0173965692520142,
      "eval_runtime": 11.1756,
      "eval_samples_per_second": 109.167,
      "eval_steps_per_second": 6.89,
      "step": 820
    },
    {
      "epoch": 2.7,
      "eval_accuracy": 0.6614754098360656,
      "eval_loss": 1.025563359260559,
      "eval_runtime": 11.1844,
      "eval_samples_per_second": 109.08,
      "eval_steps_per_second": 6.885,
      "step": 825
    },
    {
      "epoch": 2.72,
      "eval_accuracy": 0.6540983606557377,
      "eval_loss": 1.0175182819366455,
      "eval_runtime": 11.2146,
      "eval_samples_per_second": 108.786,
      "eval_steps_per_second": 6.866,
      "step": 830
    },
    {
      "epoch": 2.74,
      "eval_accuracy": 0.6655737704918033,
      "eval_loss": 1.0075985193252563,
      "eval_runtime": 11.159,
      "eval_samples_per_second": 109.329,
      "eval_steps_per_second": 6.9,
      "step": 835
    },
    {
      "epoch": 2.75,
      "eval_accuracy": 0.6631147540983606,
      "eval_loss": 1.0051908493041992,
      "eval_runtime": 11.1938,
      "eval_samples_per_second": 108.989,
      "eval_steps_per_second": 6.879,
      "step": 840
    },
    {
      "epoch": 2.77,
      "eval_accuracy": 0.6622950819672131,
      "eval_loss": 1.0018246173858643,
      "eval_runtime": 11.1589,
      "eval_samples_per_second": 109.329,
      "eval_steps_per_second": 6.9,
      "step": 845
    },
    {
      "epoch": 2.79,
      "eval_accuracy": 0.6549180327868852,
      "eval_loss": 1.0116287469863892,
      "eval_runtime": 11.1458,
      "eval_samples_per_second": 109.458,
      "eval_steps_per_second": 6.908,
      "step": 850
    },
    {
      "epoch": 2.8,
      "eval_accuracy": 0.6434426229508197,
      "eval_loss": 1.0153015851974487,
      "eval_runtime": 11.1336,
      "eval_samples_per_second": 109.578,
      "eval_steps_per_second": 6.916,
      "step": 855
    },
    {
      "epoch": 2.82,
      "eval_accuracy": 0.6409836065573771,
      "eval_loss": 1.014899492263794,
      "eval_runtime": 11.1404,
      "eval_samples_per_second": 109.512,
      "eval_steps_per_second": 6.912,
      "step": 860
    },
    {
      "epoch": 2.84,
      "eval_accuracy": 0.6475409836065574,
      "eval_loss": 1.0018326044082642,
      "eval_runtime": 11.1561,
      "eval_samples_per_second": 109.358,
      "eval_steps_per_second": 6.902,
      "step": 865
    },
    {
      "epoch": 2.85,
      "eval_accuracy": 0.65,
      "eval_loss": 0.9908909797668457,
      "eval_runtime": 11.1088,
      "eval_samples_per_second": 109.823,
      "eval_steps_per_second": 6.931,
      "step": 870
    },
    {
      "epoch": 2.87,
      "eval_accuracy": 0.659016393442623,
      "eval_loss": 0.9799640774726868,
      "eval_runtime": 11.1289,
      "eval_samples_per_second": 109.624,
      "eval_steps_per_second": 6.919,
      "step": 875
    },
    {
      "epoch": 2.89,
      "eval_accuracy": 0.6639344262295082,
      "eval_loss": 0.9804055094718933,
      "eval_runtime": 11.1347,
      "eval_samples_per_second": 109.568,
      "eval_steps_per_second": 6.915,
      "step": 880
    },
    {
      "epoch": 2.9,
      "eval_accuracy": 0.6663934426229509,
      "eval_loss": 0.9796135425567627,
      "eval_runtime": 11.0808,
      "eval_samples_per_second": 110.1,
      "eval_steps_per_second": 6.949,
      "step": 885
    },
    {
      "epoch": 2.92,
      "eval_accuracy": 0.659016393442623,
      "eval_loss": 0.9783451557159424,
      "eval_runtime": 11.1293,
      "eval_samples_per_second": 109.62,
      "eval_steps_per_second": 6.919,
      "step": 890
    },
    {
      "epoch": 2.93,
      "eval_accuracy": 0.6573770491803279,
      "eval_loss": 0.9789262413978577,
      "eval_runtime": 11.0977,
      "eval_samples_per_second": 109.932,
      "eval_steps_per_second": 6.938,
      "step": 895
    },
    {
      "epoch": 2.95,
      "eval_accuracy": 0.6557377049180327,
      "eval_loss": 0.9869160652160645,
      "eval_runtime": 11.1081,
      "eval_samples_per_second": 109.83,
      "eval_steps_per_second": 6.932,
      "step": 900
    },
    {
      "epoch": 2.97,
      "eval_accuracy": 0.6344262295081967,
      "eval_loss": 0.994472086429596,
      "eval_runtime": 11.1829,
      "eval_samples_per_second": 109.095,
      "eval_steps_per_second": 6.886,
      "step": 905
    },
    {
      "epoch": 2.98,
      "eval_accuracy": 0.6434426229508197,
      "eval_loss": 0.9791840314865112,
      "eval_runtime": 11.5042,
      "eval_samples_per_second": 106.048,
      "eval_steps_per_second": 6.693,
      "step": 910
    },
    {
      "epoch": 3.0,
      "eval_accuracy": 0.6647540983606557,
      "eval_loss": 0.9642636179924011,
      "eval_runtime": 11.9427,
      "eval_samples_per_second": 102.154,
      "eval_steps_per_second": 6.447,
      "step": 915
    },
    {
      "epoch": 3.02,
      "eval_accuracy": 0.6672131147540984,
      "eval_loss": 0.9666045904159546,
      "eval_runtime": 11.8153,
      "eval_samples_per_second": 103.256,
      "eval_steps_per_second": 6.517,
      "step": 920
    },
    {
      "epoch": 3.03,
      "eval_accuracy": 0.6647540983606557,
      "eval_loss": 0.9720653295516968,
      "eval_runtime": 11.501,
      "eval_samples_per_second": 106.078,
      "eval_steps_per_second": 6.695,
      "step": 925
    },
    {
      "epoch": 3.05,
      "eval_accuracy": 0.6581967213114754,
      "eval_loss": 0.988091230392456,
      "eval_runtime": 11.5328,
      "eval_samples_per_second": 105.785,
      "eval_steps_per_second": 6.677,
      "step": 930
    },
    {
      "epoch": 3.07,
      "eval_accuracy": 0.6377049180327868,
      "eval_loss": 1.0173530578613281,
      "eval_runtime": 11.6646,
      "eval_samples_per_second": 104.59,
      "eval_steps_per_second": 6.601,
      "step": 935
    },
    {
      "epoch": 3.08,
      "eval_accuracy": 0.6409836065573771,
      "eval_loss": 1.0229438543319702,
      "eval_runtime": 11.751,
      "eval_samples_per_second": 103.821,
      "eval_steps_per_second": 6.553,
      "step": 940
    },
    {
      "epoch": 3.1,
      "eval_accuracy": 0.6565573770491804,
      "eval_loss": 1.0165327787399292,
      "eval_runtime": 11.6473,
      "eval_samples_per_second": 104.745,
      "eval_steps_per_second": 6.611,
      "step": 945
    },
    {
      "epoch": 3.11,
      "eval_accuracy": 0.6573770491803279,
      "eval_loss": 1.0151515007019043,
      "eval_runtime": 11.5566,
      "eval_samples_per_second": 105.567,
      "eval_steps_per_second": 6.663,
      "step": 950
    },
    {
      "epoch": 3.13,
      "eval_accuracy": 0.6508196721311476,
      "eval_loss": 1.0177946090698242,
      "eval_runtime": 11.5726,
      "eval_samples_per_second": 105.421,
      "eval_steps_per_second": 6.654,
      "step": 955
    },
    {
      "epoch": 3.15,
      "eval_accuracy": 0.6524590163934426,
      "eval_loss": 1.0169562101364136,
      "eval_runtime": 11.5363,
      "eval_samples_per_second": 105.753,
      "eval_steps_per_second": 6.675,
      "step": 960
    },
    {
      "epoch": 3.16,
      "eval_accuracy": 0.648360655737705,
      "eval_loss": 1.0199787616729736,
      "eval_runtime": 11.4279,
      "eval_samples_per_second": 106.757,
      "eval_steps_per_second": 6.738,
      "step": 965
    },
    {
      "epoch": 3.18,
      "eval_accuracy": 0.65,
      "eval_loss": 1.0179307460784912,
      "eval_runtime": 11.333,
      "eval_samples_per_second": 107.65,
      "eval_steps_per_second": 6.794,
      "step": 970
    },
    {
      "epoch": 3.2,
      "eval_accuracy": 0.6491803278688525,
      "eval_loss": 1.0271108150482178,
      "eval_runtime": 11.3152,
      "eval_samples_per_second": 107.82,
      "eval_steps_per_second": 6.805,
      "step": 975
    },
    {
      "epoch": 3.21,
      "eval_accuracy": 0.6475409836065574,
      "eval_loss": 1.0320334434509277,
      "eval_runtime": 11.3012,
      "eval_samples_per_second": 107.953,
      "eval_steps_per_second": 6.813,
      "step": 980
    },
    {
      "epoch": 3.23,
      "eval_accuracy": 0.6516393442622951,
      "eval_loss": 1.0246399641036987,
      "eval_runtime": 11.2431,
      "eval_samples_per_second": 108.511,
      "eval_steps_per_second": 6.849,
      "step": 985
    },
    {
      "epoch": 3.25,
      "eval_accuracy": 0.6540983606557377,
      "eval_loss": 1.0267324447631836,
      "eval_runtime": 11.2405,
      "eval_samples_per_second": 108.536,
      "eval_steps_per_second": 6.85,
      "step": 990
    },
    {
      "epoch": 3.26,
      "eval_accuracy": 0.6532786885245901,
      "eval_loss": 1.0283268690109253,
      "eval_runtime": 11.2328,
      "eval_samples_per_second": 108.61,
      "eval_steps_per_second": 6.855,
      "step": 995
    },
    {
      "epoch": 3.28,
      "learning_rate": 3.6544850498338876e-06,
      "loss": 0.6818,
      "step": 1000
    },
    {
      "epoch": 3.28,
      "eval_accuracy": 0.6549180327868852,
      "eval_loss": 1.0338505506515503,
      "eval_runtime": 11.2105,
      "eval_samples_per_second": 108.826,
      "eval_steps_per_second": 6.869,
      "step": 1000
    },
    {
      "epoch": 3.3,
      "eval_accuracy": 0.6508196721311476,
      "eval_loss": 1.0419479608535767,
      "eval_runtime": 11.1369,
      "eval_samples_per_second": 109.546,
      "eval_steps_per_second": 6.914,
      "step": 1005
    },
    {
      "epoch": 3.31,
      "eval_accuracy": 0.6434426229508197,
      "eval_loss": 1.0604586601257324,
      "eval_runtime": 11.1476,
      "eval_samples_per_second": 109.441,
      "eval_steps_per_second": 6.907,
      "step": 1010
    },
    {
      "epoch": 3.33,
      "eval_accuracy": 0.6434426229508197,
      "eval_loss": 1.0606741905212402,
      "eval_runtime": 11.139,
      "eval_samples_per_second": 109.525,
      "eval_steps_per_second": 6.913,
      "step": 1015
    },
    {
      "epoch": 3.34,
      "eval_accuracy": 0.6434426229508197,
      "eval_loss": 1.0532864332199097,
      "eval_runtime": 11.4079,
      "eval_samples_per_second": 106.944,
      "eval_steps_per_second": 6.75,
      "step": 1020
    },
    {
      "epoch": 3.36,
      "eval_accuracy": 0.6540983606557377,
      "eval_loss": 1.0420103073120117,
      "eval_runtime": 11.9088,
      "eval_samples_per_second": 102.445,
      "eval_steps_per_second": 6.466,
      "step": 1025
    },
    {
      "epoch": 3.38,
      "eval_accuracy": 0.6549180327868852,
      "eval_loss": 1.039199709892273,
      "eval_runtime": 11.8033,
      "eval_samples_per_second": 103.361,
      "eval_steps_per_second": 6.524,
      "step": 1030
    },
    {
      "epoch": 3.39,
      "eval_accuracy": 0.6540983606557377,
      "eval_loss": 1.0431605577468872,
      "eval_runtime": 11.4929,
      "eval_samples_per_second": 106.153,
      "eval_steps_per_second": 6.7,
      "step": 1035
    },
    {
      "epoch": 3.41,
      "eval_accuracy": 0.6491803278688525,
      "eval_loss": 1.0509997606277466,
      "eval_runtime": 11.5007,
      "eval_samples_per_second": 106.08,
      "eval_steps_per_second": 6.695,
      "step": 1040
    },
    {
      "epoch": 3.43,
      "eval_accuracy": 0.6459016393442623,
      "eval_loss": 1.0630089044570923,
      "eval_runtime": 11.707,
      "eval_samples_per_second": 104.211,
      "eval_steps_per_second": 6.577,
      "step": 1045
    },
    {
      "epoch": 3.44,
      "eval_accuracy": 0.6450819672131147,
      "eval_loss": 1.063825011253357,
      "eval_runtime": 11.7297,
      "eval_samples_per_second": 104.01,
      "eval_steps_per_second": 6.565,
      "step": 1050
    },
    {
      "epoch": 3.46,
      "eval_accuracy": 0.6491803278688525,
      "eval_loss": 1.0637483596801758,
      "eval_runtime": 11.614,
      "eval_samples_per_second": 105.045,
      "eval_steps_per_second": 6.63,
      "step": 1055
    },
    {
      "epoch": 3.48,
      "eval_accuracy": 0.6508196721311476,
      "eval_loss": 1.0583683252334595,
      "eval_runtime": 11.5388,
      "eval_samples_per_second": 105.73,
      "eval_steps_per_second": 6.673,
      "step": 1060
    },
    {
      "epoch": 3.49,
      "eval_accuracy": 0.6475409836065574,
      "eval_loss": 1.0535759925842285,
      "eval_runtime": 11.5938,
      "eval_samples_per_second": 105.228,
      "eval_steps_per_second": 6.641,
      "step": 1065
    },
    {
      "epoch": 3.51,
      "eval_accuracy": 0.6467213114754098,
      "eval_loss": 1.0514715909957886,
      "eval_runtime": 11.6236,
      "eval_samples_per_second": 104.959,
      "eval_steps_per_second": 6.624,
      "step": 1070
    },
    {
      "epoch": 3.52,
      "eval_accuracy": 0.6475409836065574,
      "eval_loss": 1.0574666261672974,
      "eval_runtime": 11.6636,
      "eval_samples_per_second": 104.599,
      "eval_steps_per_second": 6.602,
      "step": 1075
    },
    {
      "epoch": 3.54,
      "eval_accuracy": 0.6459016393442623,
      "eval_loss": 1.0619550943374634,
      "eval_runtime": 11.6288,
      "eval_samples_per_second": 104.912,
      "eval_steps_per_second": 6.621,
      "step": 1080
    },
    {
      "epoch": 3.56,
      "eval_accuracy": 0.6442622950819672,
      "eval_loss": 1.0650731325149536,
      "eval_runtime": 11.619,
      "eval_samples_per_second": 105.0,
      "eval_steps_per_second": 6.627,
      "step": 1085
    },
    {
      "epoch": 3.57,
      "eval_accuracy": 0.648360655737705,
      "eval_loss": 1.0682114362716675,
      "eval_runtime": 11.6511,
      "eval_samples_per_second": 104.711,
      "eval_steps_per_second": 6.609,
      "step": 1090
    },
    {
      "epoch": 3.59,
      "eval_accuracy": 0.6467213114754098,
      "eval_loss": 1.064418077468872,
      "eval_runtime": 11.6175,
      "eval_samples_per_second": 105.014,
      "eval_steps_per_second": 6.628,
      "step": 1095
    },
    {
      "epoch": 3.61,
      "eval_accuracy": 0.65,
      "eval_loss": 1.0630091428756714,
      "eval_runtime": 11.6292,
      "eval_samples_per_second": 104.908,
      "eval_steps_per_second": 6.621,
      "step": 1100
    },
    {
      "epoch": 3.62,
      "eval_accuracy": 0.6475409836065574,
      "eval_loss": 1.0625948905944824,
      "eval_runtime": 11.6264,
      "eval_samples_per_second": 104.933,
      "eval_steps_per_second": 6.623,
      "step": 1105
    },
    {
      "epoch": 3.64,
      "eval_accuracy": 0.6475409836065574,
      "eval_loss": 1.0667070150375366,
      "eval_runtime": 11.6068,
      "eval_samples_per_second": 105.111,
      "eval_steps_per_second": 6.634,
      "step": 1110
    },
    {
      "epoch": 3.66,
      "eval_accuracy": 0.6467213114754098,
      "eval_loss": 1.0680667161941528,
      "eval_runtime": 11.6253,
      "eval_samples_per_second": 104.943,
      "eval_steps_per_second": 6.623,
      "step": 1115
    },
    {
      "epoch": 3.67,
      "eval_accuracy": 0.6459016393442623,
      "eval_loss": 1.0661379098892212,
      "eval_runtime": 11.6355,
      "eval_samples_per_second": 104.851,
      "eval_steps_per_second": 6.618,
      "step": 1120
    },
    {
      "epoch": 3.69,
      "eval_accuracy": 0.6434426229508197,
      "eval_loss": 1.0651341676712036,
      "eval_runtime": 11.6271,
      "eval_samples_per_second": 104.927,
      "eval_steps_per_second": 6.622,
      "step": 1125
    },
    {
      "epoch": 3.7,
      "eval_accuracy": 0.6426229508196721,
      "eval_loss": 1.0671833753585815,
      "eval_runtime": 11.5804,
      "eval_samples_per_second": 105.35,
      "eval_steps_per_second": 6.649,
      "step": 1130
    },
    {
      "epoch": 3.72,
      "eval_accuracy": 0.6442622950819672,
      "eval_loss": 1.0694900751113892,
      "eval_runtime": 11.5947,
      "eval_samples_per_second": 105.22,
      "eval_steps_per_second": 6.641,
      "step": 1135
    },
    {
      "epoch": 3.74,
      "eval_accuracy": 0.6459016393442623,
      "eval_loss": 1.067496418952942,
      "eval_runtime": 11.5981,
      "eval_samples_per_second": 105.19,
      "eval_steps_per_second": 6.639,
      "step": 1140
    },
    {
      "epoch": 3.75,
      "eval_accuracy": 0.6467213114754098,
      "eval_loss": 1.0666532516479492,
      "eval_runtime": 11.6406,
      "eval_samples_per_second": 104.806,
      "eval_steps_per_second": 6.615,
      "step": 1145
    },
    {
      "epoch": 3.77,
      "eval_accuracy": 0.6475409836065574,
      "eval_loss": 1.0631625652313232,
      "eval_runtime": 11.6116,
      "eval_samples_per_second": 105.067,
      "eval_steps_per_second": 6.631,
      "step": 1150
    },
    {
      "epoch": 3.79,
      "eval_accuracy": 0.6508196721311476,
      "eval_loss": 1.061111330986023,
      "eval_runtime": 11.6079,
      "eval_samples_per_second": 105.101,
      "eval_steps_per_second": 6.633,
      "step": 1155
    },
    {
      "epoch": 3.8,
      "eval_accuracy": 0.6524590163934426,
      "eval_loss": 1.0612366199493408,
      "eval_runtime": 11.6103,
      "eval_samples_per_second": 105.079,
      "eval_steps_per_second": 6.632,
      "step": 1160
    },
    {
      "epoch": 3.82,
      "eval_accuracy": 0.6540983606557377,
      "eval_loss": 1.0606144666671753,
      "eval_runtime": 11.6066,
      "eval_samples_per_second": 105.113,
      "eval_steps_per_second": 6.634,
      "step": 1165
    },
    {
      "epoch": 3.84,
      "eval_accuracy": 0.6524590163934426,
      "eval_loss": 1.0585861206054688,
      "eval_runtime": 11.6116,
      "eval_samples_per_second": 105.068,
      "eval_steps_per_second": 6.631,
      "step": 1170
    },
    {
      "epoch": 3.85,
      "eval_accuracy": 0.6540983606557377,
      "eval_loss": 1.0565516948699951,
      "eval_runtime": 11.603,
      "eval_samples_per_second": 105.145,
      "eval_steps_per_second": 6.636,
      "step": 1175
    },
    {
      "epoch": 3.87,
      "eval_accuracy": 0.65,
      "eval_loss": 1.055715560913086,
      "eval_runtime": 11.6117,
      "eval_samples_per_second": 105.067,
      "eval_steps_per_second": 6.631,
      "step": 1180
    },
    {
      "epoch": 3.89,
      "eval_accuracy": 0.6475409836065574,
      "eval_loss": 1.0552453994750977,
      "eval_runtime": 11.626,
      "eval_samples_per_second": 104.937,
      "eval_steps_per_second": 6.623,
      "step": 1185
    },
    {
      "epoch": 3.9,
      "eval_accuracy": 0.6475409836065574,
      "eval_loss": 1.0551276206970215,
      "eval_runtime": 11.6184,
      "eval_samples_per_second": 105.006,
      "eval_steps_per_second": 6.627,
      "step": 1190
    },
    {
      "epoch": 3.92,
      "eval_accuracy": 0.6467213114754098,
      "eval_loss": 1.0560648441314697,
      "eval_runtime": 11.6182,
      "eval_samples_per_second": 105.007,
      "eval_steps_per_second": 6.628,
      "step": 1195
    },
    {
      "epoch": 3.93,
      "eval_accuracy": 0.6475409836065574,
      "eval_loss": 1.0562081336975098,
      "eval_runtime": 11.6147,
      "eval_samples_per_second": 105.039,
      "eval_steps_per_second": 6.63,
      "step": 1200
    },
    {
      "epoch": 3.95,
      "eval_accuracy": 0.6475409836065574,
      "eval_loss": 1.0567296743392944,
      "eval_runtime": 11.6464,
      "eval_samples_per_second": 104.754,
      "eval_steps_per_second": 6.612,
      "step": 1205
    },
    {
      "epoch": 3.97,
      "eval_accuracy": 0.6467213114754098,
      "eval_loss": 1.0573328733444214,
      "eval_runtime": 11.63,
      "eval_samples_per_second": 104.901,
      "eval_steps_per_second": 6.621,
      "step": 1210
    },
    {
      "epoch": 3.98,
      "eval_accuracy": 0.6467213114754098,
      "eval_loss": 1.0574231147766113,
      "eval_runtime": 11.6069,
      "eval_samples_per_second": 105.11,
      "eval_steps_per_second": 6.634,
      "step": 1215
    },
    {
      "epoch": 4.0,
      "eval_accuracy": 0.6467213114754098,
      "eval_loss": 1.0573192834854126,
      "eval_runtime": 11.6274,
      "eval_samples_per_second": 104.924,
      "eval_steps_per_second": 6.622,
      "step": 1220
    }
  ],
  "max_steps": 1220,
  "num_train_epochs": 4,
  "total_flos": 1613742723681984.0,
  "trial_name": null,
  "trial_params": null
}
