{
  "best_metric": 0.9564394950866699,
  "best_model_checkpoint": "/content/checkpoints/gbert_large_finetuned_s1_cv0/checkpoint-200",
  "epoch": 1.9737704918032786,
  "global_step": 200,
  "is_hyper_param_search": false,
  "is_local_process_zero": true,
  "is_world_process_zero": true,
  "log_history": [
    {
      "epoch": 0.05,
      "eval_accuracy": 0.3975409836065574,
      "eval_loss": 1.6526598930358887,
      "eval_runtime": 21.5619,
      "eval_samples_per_second": 56.581,
      "eval_steps_per_second": 3.571,
      "step": 5
    },
    {
      "epoch": 0.1,
      "eval_accuracy": 0.44754098360655736,
      "eval_loss": 1.494097352027893,
      "eval_runtime": 21.4588,
      "eval_samples_per_second": 56.853,
      "eval_steps_per_second": 3.588,
      "step": 10
    },
    {
      "epoch": 0.15,
      "eval_accuracy": 0.4483606557377049,
      "eval_loss": 1.4034653902053833,
      "eval_runtime": 21.4918,
      "eval_samples_per_second": 56.766,
      "eval_steps_per_second": 3.583,
      "step": 15
    },
    {
      "epoch": 0.2,
      "eval_accuracy": 0.4934426229508197,
      "eval_loss": 1.3451967239379883,
      "eval_runtime": 21.4999,
      "eval_samples_per_second": 56.744,
      "eval_steps_per_second": 3.581,
      "step": 20
    },
    {
      "epoch": 0.25,
      "eval_accuracy": 0.5057377049180328,
      "eval_loss": 1.3122258186340332,
      "eval_runtime": 21.4899,
      "eval_samples_per_second": 56.771,
      "eval_steps_per_second": 3.583,
      "step": 25
    },
    {
      "epoch": 0.3,
      "eval_accuracy": 0.5377049180327869,
      "eval_loss": 1.2746485471725464,
      "eval_runtime": 21.4741,
      "eval_samples_per_second": 56.813,
      "eval_steps_per_second": 3.586,
      "step": 30
    },
    {
      "epoch": 0.34,
      "eval_accuracy": 0.5377049180327869,
      "eval_loss": 1.2717291116714478,
      "eval_runtime": 21.4779,
      "eval_samples_per_second": 56.803,
      "eval_steps_per_second": 3.585,
      "step": 35
    },
    {
      "epoch": 0.39,
      "eval_accuracy": 0.5557377049180328,
      "eval_loss": 1.2346765995025635,
      "eval_runtime": 21.4678,
      "eval_samples_per_second": 56.829,
      "eval_steps_per_second": 3.587,
      "step": 40
    },
    {
      "epoch": 0.44,
      "eval_accuracy": 0.5459016393442623,
      "eval_loss": 1.207642912864685,
      "eval_runtime": 21.4934,
      "eval_samples_per_second": 56.762,
      "eval_steps_per_second": 3.582,
      "step": 45
    },
    {
      "epoch": 0.49,
      "eval_accuracy": 0.578688524590164,
      "eval_loss": 1.1296122074127197,
      "eval_runtime": 21.4977,
      "eval_samples_per_second": 56.75,
      "eval_steps_per_second": 3.582,
      "step": 50
    },
    {
      "epoch": 0.54,
      "eval_accuracy": 0.580327868852459,
      "eval_loss": 1.1037756204605103,
      "eval_runtime": 21.4817,
      "eval_samples_per_second": 56.792,
      "eval_steps_per_second": 3.584,
      "step": 55
    },
    {
      "epoch": 0.59,
      "eval_accuracy": 0.5885245901639344,
      "eval_loss": 1.0840778350830078,
      "eval_runtime": 21.4634,
      "eval_samples_per_second": 56.841,
      "eval_steps_per_second": 3.588,
      "step": 60
    },
    {
      "epoch": 0.64,
      "eval_accuracy": 0.5918032786885246,
      "eval_loss": 1.0748710632324219,
      "eval_runtime": 21.5089,
      "eval_samples_per_second": 56.721,
      "eval_steps_per_second": 3.58,
      "step": 65
    },
    {
      "epoch": 0.69,
      "eval_accuracy": 0.5844262295081967,
      "eval_loss": 1.07264244556427,
      "eval_runtime": 21.52,
      "eval_samples_per_second": 56.692,
      "eval_steps_per_second": 3.578,
      "step": 70
    },
    {
      "epoch": 0.74,
      "eval_accuracy": 0.6024590163934426,
      "eval_loss": 1.0409531593322754,
      "eval_runtime": 21.4842,
      "eval_samples_per_second": 56.786,
      "eval_steps_per_second": 3.584,
      "step": 75
    },
    {
      "epoch": 0.79,
      "eval_accuracy": 0.5942622950819673,
      "eval_loss": 1.0307905673980713,
      "eval_runtime": 21.5172,
      "eval_samples_per_second": 56.699,
      "eval_steps_per_second": 3.579,
      "step": 80
    },
    {
      "epoch": 0.84,
      "eval_accuracy": 0.5926229508196721,
      "eval_loss": 1.0326155424118042,
      "eval_runtime": 21.4972,
      "eval_samples_per_second": 56.752,
      "eval_steps_per_second": 3.582,
      "step": 85
    },
    {
      "epoch": 0.89,
      "eval_accuracy": 0.5950819672131148,
      "eval_loss": 1.0566558837890625,
      "eval_runtime": 21.5077,
      "eval_samples_per_second": 56.724,
      "eval_steps_per_second": 3.58,
      "step": 90
    },
    {
      "epoch": 0.93,
      "eval_accuracy": 0.6090163934426229,
      "eval_loss": 1.027654767036438,
      "eval_runtime": 21.4982,
      "eval_samples_per_second": 56.749,
      "eval_steps_per_second": 3.582,
      "step": 95
    },
    {
      "epoch": 0.98,
      "eval_accuracy": 0.6237704918032787,
      "eval_loss": 1.0088613033294678,
      "eval_runtime": 21.5053,
      "eval_samples_per_second": 56.73,
      "eval_steps_per_second": 3.581,
      "step": 100
    },
    {
      "epoch": 1.04,
      "eval_accuracy": 0.6196721311475409,
      "eval_loss": 0.9990514516830444,
      "eval_runtime": 21.4997,
      "eval_samples_per_second": 56.745,
      "eval_steps_per_second": 3.581,
      "step": 105
    },
    {
      "epoch": 1.09,
      "eval_accuracy": 0.6327868852459017,
      "eval_loss": 0.9837488532066345,
      "eval_runtime": 21.5293,
      "eval_samples_per_second": 56.667,
      "eval_steps_per_second": 3.577,
      "step": 110
    },
    {
      "epoch": 1.14,
      "eval_accuracy": 0.6368852459016393,
      "eval_loss": 0.9680159687995911,
      "eval_runtime": 21.5532,
      "eval_samples_per_second": 56.604,
      "eval_steps_per_second": 3.573,
      "step": 115
    },
    {
      "epoch": 1.19,
      "eval_accuracy": 0.6262295081967213,
      "eval_loss": 0.9745710492134094,
      "eval_runtime": 21.5184,
      "eval_samples_per_second": 56.696,
      "eval_steps_per_second": 3.578,
      "step": 120
    },
    {
      "epoch": 1.24,
      "eval_accuracy": 0.6360655737704918,
      "eval_loss": 0.971936821937561,
      "eval_runtime": 21.5335,
      "eval_samples_per_second": 56.656,
      "eval_steps_per_second": 3.576,
      "step": 125
    },
    {
      "epoch": 1.29,
      "eval_accuracy": 0.6336065573770492,
      "eval_loss": 0.9705456495285034,
      "eval_runtime": 21.5185,
      "eval_samples_per_second": 56.695,
      "eval_steps_per_second": 3.578,
      "step": 130
    },
    {
      "epoch": 1.33,
      "eval_accuracy": 0.5942622950819673,
      "eval_loss": 1.0251665115356445,
      "eval_runtime": 21.5112,
      "eval_samples_per_second": 56.715,
      "eval_steps_per_second": 3.58,
      "step": 135
    },
    {
      "epoch": 1.38,
      "eval_accuracy": 0.610655737704918,
      "eval_loss": 0.9953435063362122,
      "eval_runtime": 21.4987,
      "eval_samples_per_second": 56.748,
      "eval_steps_per_second": 3.582,
      "step": 140
    },
    {
      "epoch": 1.43,
      "eval_accuracy": 0.6270491803278688,
      "eval_loss": 0.9835265278816223,
      "eval_runtime": 21.4804,
      "eval_samples_per_second": 56.796,
      "eval_steps_per_second": 3.585,
      "step": 145
    },
    {
      "epoch": 1.48,
      "eval_accuracy": 0.6352459016393442,
      "eval_loss": 0.9739325046539307,
      "eval_runtime": 21.5308,
      "eval_samples_per_second": 56.663,
      "eval_steps_per_second": 3.576,
      "step": 150
    },
    {
      "epoch": 1.53,
      "eval_accuracy": 0.6221311475409836,
      "eval_loss": 0.975039005279541,
      "eval_runtime": 21.514,
      "eval_samples_per_second": 56.707,
      "eval_steps_per_second": 3.579,
      "step": 155
    },
    {
      "epoch": 1.58,
      "eval_accuracy": 0.6278688524590164,
      "eval_loss": 1.0033164024353027,
      "eval_runtime": 21.5021,
      "eval_samples_per_second": 56.739,
      "eval_steps_per_second": 3.581,
      "step": 160
    },
    {
      "epoch": 1.63,
      "eval_accuracy": 0.6221311475409836,
      "eval_loss": 0.9853007197380066,
      "eval_runtime": 21.5252,
      "eval_samples_per_second": 56.678,
      "eval_steps_per_second": 3.577,
      "step": 165
    },
    {
      "epoch": 1.68,
      "eval_accuracy": 0.6418032786885246,
      "eval_loss": 0.9631291627883911,
      "eval_runtime": 21.5318,
      "eval_samples_per_second": 56.66,
      "eval_steps_per_second": 3.576,
      "step": 170
    },
    {
      "epoch": 1.73,
      "eval_accuracy": 0.6336065573770492,
      "eval_loss": 0.9805396199226379,
      "eval_runtime": 21.5231,
      "eval_samples_per_second": 56.683,
      "eval_steps_per_second": 3.578,
      "step": 175
    },
    {
      "epoch": 1.78,
      "eval_accuracy": 0.6327868852459017,
      "eval_loss": 0.9759001135826111,
      "eval_runtime": 21.5202,
      "eval_samples_per_second": 56.691,
      "eval_steps_per_second": 3.578,
      "step": 180
    },
    {
      "epoch": 1.83,
      "eval_accuracy": 0.6385245901639345,
      "eval_loss": 0.9790130257606506,
      "eval_runtime": 21.5346,
      "eval_samples_per_second": 56.653,
      "eval_steps_per_second": 3.576,
      "step": 185
    },
    {
      "epoch": 1.88,
      "eval_accuracy": 0.6368852459016393,
      "eval_loss": 0.9698980450630188,
      "eval_runtime": 21.5184,
      "eval_samples_per_second": 56.696,
      "eval_steps_per_second": 3.578,
      "step": 190
    },
    {
      "epoch": 1.92,
      "eval_accuracy": 0.6377049180327868,
      "eval_loss": 0.9666301012039185,
      "eval_runtime": 21.5257,
      "eval_samples_per_second": 56.676,
      "eval_steps_per_second": 3.577,
      "step": 195
    },
    {
      "epoch": 1.97,
      "eval_accuracy": 0.639344262295082,
      "eval_loss": 0.9564394950866699,
      "eval_runtime": 21.5523,
      "eval_samples_per_second": 56.606,
      "eval_steps_per_second": 3.573,
      "step": 200
    }
  ],
  "max_steps": 606,
  "num_train_epochs": 6,
  "total_flos": 2944185704482176.0,
  "trial_name": null,
  "trial_params": null
}
