{
  "best_metric": 0.9256214499473572,
  "best_model_checkpoint": "/content/checkpoints/gbert_large_finetuned_s0_cv4/checkpoint-205",
  "epoch": 5.983606557377049,
  "global_step": 605,
  "is_hyper_param_search": false,
  "is_local_process_zero": true,
  "is_world_process_zero": true,
  "log_history": [
    {
      "epoch": 0.05,
      "eval_accuracy": 0.22313371616078753,
      "eval_loss": 1.8282371759414673,
      "eval_runtime": 22.0098,
      "eval_samples_per_second": 55.385,
      "eval_steps_per_second": 3.498,
      "step": 5
    },
    {
      "epoch": 0.1,
      "eval_accuracy": 0.39622641509433965,
      "eval_loss": 1.603136420249939,
      "eval_runtime": 21.9847,
      "eval_samples_per_second": 55.448,
      "eval_steps_per_second": 3.502,
      "step": 10
    },
    {
      "epoch": 0.15,
      "eval_accuracy": 0.4585726004922067,
      "eval_loss": 1.504963755607605,
      "eval_runtime": 21.9656,
      "eval_samples_per_second": 55.496,
      "eval_steps_per_second": 3.505,
      "step": 15
    },
    {
      "epoch": 0.2,
      "eval_accuracy": 0.4470877768662838,
      "eval_loss": 1.4389472007751465,
      "eval_runtime": 21.9832,
      "eval_samples_per_second": 55.452,
      "eval_steps_per_second": 3.503,
      "step": 20
    },
    {
      "epoch": 0.25,
      "eval_accuracy": 0.5315832649712879,
      "eval_loss": 1.3554898500442505,
      "eval_runtime": 22.0168,
      "eval_samples_per_second": 55.367,
      "eval_steps_per_second": 3.497,
      "step": 25
    },
    {
      "epoch": 0.3,
      "eval_accuracy": 0.4995898277276456,
      "eval_loss": 1.3304646015167236,
      "eval_runtime": 22.0105,
      "eval_samples_per_second": 55.383,
      "eval_steps_per_second": 3.498,
      "step": 30
    },
    {
      "epoch": 0.34,
      "eval_accuracy": 0.5242001640689089,
      "eval_loss": 1.3203113079071045,
      "eval_runtime": 22.0,
      "eval_samples_per_second": 55.409,
      "eval_steps_per_second": 3.5,
      "step": 35
    },
    {
      "epoch": 0.39,
      "eval_accuracy": 0.5594749794913864,
      "eval_loss": 1.211995005607605,
      "eval_runtime": 22.0331,
      "eval_samples_per_second": 55.326,
      "eval_steps_per_second": 3.495,
      "step": 40
    },
    {
      "epoch": 0.44,
      "eval_accuracy": 0.5643970467596391,
      "eval_loss": 1.185276746749878,
      "eval_runtime": 22.0056,
      "eval_samples_per_second": 55.395,
      "eval_steps_per_second": 3.499,
      "step": 45
    },
    {
      "epoch": 0.49,
      "eval_accuracy": 0.5561936013125512,
      "eval_loss": 1.1839314699172974,
      "eval_runtime": 22.0216,
      "eval_samples_per_second": 55.355,
      "eval_steps_per_second": 3.497,
      "step": 50
    },
    {
      "epoch": 0.54,
      "eval_accuracy": 0.5783429040196882,
      "eval_loss": 1.1311547756195068,
      "eval_runtime": 22.0181,
      "eval_samples_per_second": 55.364,
      "eval_steps_per_second": 3.497,
      "step": 55
    },
    {
      "epoch": 0.59,
      "eval_accuracy": 0.5840853158326497,
      "eval_loss": 1.0911660194396973,
      "eval_runtime": 21.9954,
      "eval_samples_per_second": 55.421,
      "eval_steps_per_second": 3.501,
      "step": 60
    },
    {
      "epoch": 0.64,
      "eval_accuracy": 0.5906480721903199,
      "eval_loss": 1.0922143459320068,
      "eval_runtime": 22.0536,
      "eval_samples_per_second": 55.274,
      "eval_steps_per_second": 3.491,
      "step": 65
    },
    {
      "epoch": 0.69,
      "eval_accuracy": 0.6037735849056604,
      "eval_loss": 1.083573341369629,
      "eval_runtime": 22.0135,
      "eval_samples_per_second": 55.375,
      "eval_steps_per_second": 3.498,
      "step": 70
    },
    {
      "epoch": 0.74,
      "eval_accuracy": 0.6152584085315833,
      "eval_loss": 1.0480883121490479,
      "eval_runtime": 22.0071,
      "eval_samples_per_second": 55.391,
      "eval_steps_per_second": 3.499,
      "step": 75
    },
    {
      "epoch": 0.79,
      "eval_accuracy": 0.6111566858080394,
      "eval_loss": 1.0296307802200317,
      "eval_runtime": 22.0169,
      "eval_samples_per_second": 55.367,
      "eval_steps_per_second": 3.497,
      "step": 80
    },
    {
      "epoch": 0.84,
      "eval_accuracy": 0.6242821985233798,
      "eval_loss": 1.028380036354065,
      "eval_runtime": 22.0321,
      "eval_samples_per_second": 55.328,
      "eval_steps_per_second": 3.495,
      "step": 85
    },
    {
      "epoch": 0.89,
      "eval_accuracy": 0.6193601312551271,
      "eval_loss": 1.0299315452575684,
      "eval_runtime": 22.0079,
      "eval_samples_per_second": 55.389,
      "eval_steps_per_second": 3.499,
      "step": 90
    },
    {
      "epoch": 0.93,
      "eval_accuracy": 0.6398687448728466,
      "eval_loss": 1.012349247932434,
      "eval_runtime": 21.9993,
      "eval_samples_per_second": 55.411,
      "eval_steps_per_second": 3.5,
      "step": 95
    },
    {
      "epoch": 0.98,
      "eval_accuracy": 0.6406890894175554,
      "eval_loss": 0.9694731831550598,
      "eval_runtime": 22.0538,
      "eval_samples_per_second": 55.274,
      "eval_steps_per_second": 3.491,
      "step": 100
    },
    {
      "epoch": 1.04,
      "eval_accuracy": 0.649712879409352,
      "eval_loss": 0.9481257200241089,
      "eval_runtime": 22.0241,
      "eval_samples_per_second": 55.348,
      "eval_steps_per_second": 3.496,
      "step": 105
    },
    {
      "epoch": 1.09,
      "eval_accuracy": 0.6611977030352748,
      "eval_loss": 0.9539815783500671,
      "eval_runtime": 21.9894,
      "eval_samples_per_second": 55.436,
      "eval_steps_per_second": 3.502,
      "step": 110
    },
    {
      "epoch": 1.14,
      "eval_accuracy": 0.6431501230516817,
      "eval_loss": 0.9852174520492554,
      "eval_runtime": 22.0353,
      "eval_samples_per_second": 55.32,
      "eval_steps_per_second": 3.494,
      "step": 115
    },
    {
      "epoch": 1.19,
      "eval_accuracy": 0.6447908121410992,
      "eval_loss": 0.9597479701042175,
      "eval_runtime": 22.0415,
      "eval_samples_per_second": 55.305,
      "eval_steps_per_second": 3.493,
      "step": 120
    },
    {
      "epoch": 1.24,
      "eval_accuracy": 0.6554552912223134,
      "eval_loss": 0.9468733072280884,
      "eval_runtime": 22.0292,
      "eval_samples_per_second": 55.336,
      "eval_steps_per_second": 3.495,
      "step": 125
    },
    {
      "epoch": 1.29,
      "eval_accuracy": 0.645611156685808,
      "eval_loss": 0.951931357383728,
      "eval_runtime": 22.0415,
      "eval_samples_per_second": 55.305,
      "eval_steps_per_second": 3.493,
      "step": 130
    },
    {
      "epoch": 1.33,
      "eval_accuracy": 0.6374077112387203,
      "eval_loss": 0.9620158076286316,
      "eval_runtime": 22.0073,
      "eval_samples_per_second": 55.391,
      "eval_steps_per_second": 3.499,
      "step": 135
    },
    {
      "epoch": 1.38,
      "eval_accuracy": 0.638228055783429,
      "eval_loss": 0.9503846764564514,
      "eval_runtime": 22.0422,
      "eval_samples_per_second": 55.303,
      "eval_steps_per_second": 3.493,
      "step": 140
    },
    {
      "epoch": 1.43,
      "eval_accuracy": 0.6480721903199343,
      "eval_loss": 0.9861558079719543,
      "eval_runtime": 22.0112,
      "eval_samples_per_second": 55.381,
      "eval_steps_per_second": 3.498,
      "step": 145
    },
    {
      "epoch": 1.48,
      "eval_accuracy": 0.6480721903199343,
      "eval_loss": 0.9645212888717651,
      "eval_runtime": 22.0038,
      "eval_samples_per_second": 55.4,
      "eval_steps_per_second": 3.499,
      "step": 150
    },
    {
      "epoch": 1.53,
      "eval_accuracy": 0.6447908121410992,
      "eval_loss": 0.9902299642562866,
      "eval_runtime": 22.0185,
      "eval_samples_per_second": 55.363,
      "eval_steps_per_second": 3.497,
      "step": 155
    },
    {
      "epoch": 1.58,
      "eval_accuracy": 0.6505332239540607,
      "eval_loss": 0.9570155143737793,
      "eval_runtime": 22.0121,
      "eval_samples_per_second": 55.379,
      "eval_steps_per_second": 3.498,
      "step": 160
    },
    {
      "epoch": 1.63,
      "eval_accuracy": 0.6554552912223134,
      "eval_loss": 0.9480012655258179,
      "eval_runtime": 22.0344,
      "eval_samples_per_second": 55.323,
      "eval_steps_per_second": 3.495,
      "step": 165
    },
    {
      "epoch": 1.68,
      "eval_accuracy": 0.6579163248564397,
      "eval_loss": 0.9357655048370361,
      "eval_runtime": 22.0562,
      "eval_samples_per_second": 55.268,
      "eval_steps_per_second": 3.491,
      "step": 170
    },
    {
      "epoch": 1.73,
      "eval_accuracy": 0.6406890894175554,
      "eval_loss": 0.9872122406959534,
      "eval_runtime": 22.0449,
      "eval_samples_per_second": 55.296,
      "eval_steps_per_second": 3.493,
      "step": 175
    },
    {
      "epoch": 1.78,
      "eval_accuracy": 0.6480721903199343,
      "eval_loss": 0.9893603324890137,
      "eval_runtime": 22.052,
      "eval_samples_per_second": 55.278,
      "eval_steps_per_second": 3.492,
      "step": 180
    },
    {
      "epoch": 1.83,
      "eval_accuracy": 0.6480721903199343,
      "eval_loss": 0.9540464878082275,
      "eval_runtime": 22.0305,
      "eval_samples_per_second": 55.332,
      "eval_steps_per_second": 3.495,
      "step": 185
    },
    {
      "epoch": 1.88,
      "eval_accuracy": 0.6554552912223134,
      "eval_loss": 0.9536412954330444,
      "eval_runtime": 22.024,
      "eval_samples_per_second": 55.349,
      "eval_steps_per_second": 3.496,
      "step": 190
    },
    {
      "epoch": 1.92,
      "eval_accuracy": 0.6521739130434783,
      "eval_loss": 0.9501991271972656,
      "eval_runtime": 22.0399,
      "eval_samples_per_second": 55.309,
      "eval_steps_per_second": 3.494,
      "step": 195
    },
    {
      "epoch": 1.97,
      "eval_accuracy": 0.6480721903199343,
      "eval_loss": 0.948304295539856,
      "eval_runtime": 22.0611,
      "eval_samples_per_second": 55.256,
      "eval_steps_per_second": 3.49,
      "step": 200
    },
    {
      "epoch": 2.03,
      "eval_accuracy": 0.6595570139458573,
      "eval_loss": 0.9256214499473572,
      "eval_runtime": 22.0331,
      "eval_samples_per_second": 55.326,
      "eval_steps_per_second": 3.495,
      "step": 205
    },
    {
      "epoch": 2.08,
      "eval_accuracy": 0.6505332239540607,
      "eval_loss": 0.9389062523841858,
      "eval_runtime": 22.0358,
      "eval_samples_per_second": 55.319,
      "eval_steps_per_second": 3.494,
      "step": 210
    },
    {
      "epoch": 2.13,
      "eval_accuracy": 0.6406890894175554,
      "eval_loss": 1.0031529664993286,
      "eval_runtime": 22.0659,
      "eval_samples_per_second": 55.244,
      "eval_steps_per_second": 3.49,
      "step": 215
    },
    {
      "epoch": 2.18,
      "eval_accuracy": 0.6620180475799836,
      "eval_loss": 0.9678274989128113,
      "eval_runtime": 22.0365,
      "eval_samples_per_second": 55.317,
      "eval_steps_per_second": 3.494,
      "step": 220
    },
    {
      "epoch": 2.23,
      "eval_accuracy": 0.6562756357670222,
      "eval_loss": 0.969220757484436,
      "eval_runtime": 22.0548,
      "eval_samples_per_second": 55.272,
      "eval_steps_per_second": 3.491,
      "step": 225
    },
    {
      "epoch": 2.28,
      "eval_accuracy": 0.6562756357670222,
      "eval_loss": 0.9997848272323608,
      "eval_runtime": 22.0407,
      "eval_samples_per_second": 55.307,
      "eval_steps_per_second": 3.494,
      "step": 230
    },
    {
      "epoch": 2.32,
      "eval_accuracy": 0.6505332239540607,
      "eval_loss": 0.9862321615219116,
      "eval_runtime": 22.0293,
      "eval_samples_per_second": 55.335,
      "eval_steps_per_second": 3.495,
      "step": 235
    },
    {
      "epoch": 2.37,
      "eval_accuracy": 0.627563576702215,
      "eval_loss": 1.0067176818847656,
      "eval_runtime": 22.0416,
      "eval_samples_per_second": 55.305,
      "eval_steps_per_second": 3.493,
      "step": 240
    },
    {
      "epoch": 2.42,
      "eval_accuracy": 0.6398687448728466,
      "eval_loss": 1.0152610540390015,
      "eval_runtime": 22.0677,
      "eval_samples_per_second": 55.239,
      "eval_steps_per_second": 3.489,
      "step": 245
    },
    {
      "epoch": 2.47,
      "eval_accuracy": 0.6521739130434783,
      "eval_loss": 0.9988325834274292,
      "eval_runtime": 22.0661,
      "eval_samples_per_second": 55.243,
      "eval_steps_per_second": 3.49,
      "step": 250
    },
    {
      "epoch": 2.52,
      "eval_accuracy": 0.6521739130434783,
      "eval_loss": 0.9822235107421875,
      "eval_runtime": 22.0582,
      "eval_samples_per_second": 55.263,
      "eval_steps_per_second": 3.491,
      "step": 255
    },
    {
      "epoch": 2.57,
      "eval_accuracy": 0.645611156685808,
      "eval_loss": 1.0012993812561035,
      "eval_runtime": 22.0742,
      "eval_samples_per_second": 55.223,
      "eval_steps_per_second": 3.488,
      "step": 260
    },
    {
      "epoch": 2.62,
      "eval_accuracy": 0.6341263330598852,
      "eval_loss": 1.0322601795196533,
      "eval_runtime": 22.0442,
      "eval_samples_per_second": 55.298,
      "eval_steps_per_second": 3.493,
      "step": 265
    },
    {
      "epoch": 2.67,
      "eval_accuracy": 0.6398687448728466,
      "eval_loss": 1.0349838733673096,
      "eval_runtime": 22.0661,
      "eval_samples_per_second": 55.243,
      "eval_steps_per_second": 3.49,
      "step": 270
    },
    {
      "epoch": 2.72,
      "eval_accuracy": 0.6570959803117309,
      "eval_loss": 1.036797285079956,
      "eval_runtime": 22.0626,
      "eval_samples_per_second": 55.252,
      "eval_steps_per_second": 3.49,
      "step": 275
    },
    {
      "epoch": 2.77,
      "eval_accuracy": 0.6579163248564397,
      "eval_loss": 1.0685513019561768,
      "eval_runtime": 22.0765,
      "eval_samples_per_second": 55.217,
      "eval_steps_per_second": 3.488,
      "step": 280
    },
    {
      "epoch": 2.82,
      "eval_accuracy": 0.645611156685808,
      "eval_loss": 1.041722059249878,
      "eval_runtime": 22.0589,
      "eval_samples_per_second": 55.261,
      "eval_steps_per_second": 3.491,
      "step": 285
    },
    {
      "epoch": 2.87,
      "eval_accuracy": 0.6554552912223134,
      "eval_loss": 1.0418938398361206,
      "eval_runtime": 22.1111,
      "eval_samples_per_second": 55.131,
      "eval_steps_per_second": 3.482,
      "step": 290
    },
    {
      "epoch": 2.91,
      "eval_accuracy": 0.6447908121410992,
      "eval_loss": 1.0013808012008667,
      "eval_runtime": 22.047,
      "eval_samples_per_second": 55.291,
      "eval_steps_per_second": 3.493,
      "step": 295
    },
    {
      "epoch": 2.96,
      "eval_accuracy": 0.6554552912223134,
      "eval_loss": 0.9896141290664673,
      "eval_runtime": 22.0771,
      "eval_samples_per_second": 55.215,
      "eval_steps_per_second": 3.488,
      "step": 300
    },
    {
      "epoch": 3.02,
      "eval_accuracy": 0.660377358490566,
      "eval_loss": 0.9884809255599976,
      "eval_runtime": 22.0623,
      "eval_samples_per_second": 55.253,
      "eval_steps_per_second": 3.49,
      "step": 305
    },
    {
      "epoch": 3.07,
      "eval_accuracy": 0.6611977030352748,
      "eval_loss": 0.9986014366149902,
      "eval_runtime": 22.0972,
      "eval_samples_per_second": 55.165,
      "eval_steps_per_second": 3.485,
      "step": 310
    },
    {
      "epoch": 3.12,
      "eval_accuracy": 0.6529942575881871,
      "eval_loss": 1.0455137491226196,
      "eval_runtime": 22.057,
      "eval_samples_per_second": 55.266,
      "eval_steps_per_second": 3.491,
      "step": 315
    },
    {
      "epoch": 3.17,
      "eval_accuracy": 0.6521739130434783,
      "eval_loss": 1.0428948402404785,
      "eval_runtime": 22.0816,
      "eval_samples_per_second": 55.204,
      "eval_steps_per_second": 3.487,
      "step": 320
    },
    {
      "epoch": 3.22,
      "eval_accuracy": 0.6595570139458573,
      "eval_loss": 1.0600996017456055,
      "eval_runtime": 22.0574,
      "eval_samples_per_second": 55.265,
      "eval_steps_per_second": 3.491,
      "step": 325
    },
    {
      "epoch": 3.27,
      "eval_accuracy": 0.6480721903199343,
      "eval_loss": 1.063067078590393,
      "eval_runtime": 22.0674,
      "eval_samples_per_second": 55.24,
      "eval_steps_per_second": 3.489,
      "step": 330
    },
    {
      "epoch": 3.31,
      "eval_accuracy": 0.6406890894175554,
      "eval_loss": 1.1161836385726929,
      "eval_runtime": 22.0993,
      "eval_samples_per_second": 55.16,
      "eval_steps_per_second": 3.484,
      "step": 335
    },
    {
      "epoch": 3.36,
      "eval_accuracy": 0.638228055783429,
      "eval_loss": 1.1032211780548096,
      "eval_runtime": 22.0868,
      "eval_samples_per_second": 55.191,
      "eval_steps_per_second": 3.486,
      "step": 340
    },
    {
      "epoch": 3.41,
      "eval_accuracy": 0.6415094339622641,
      "eval_loss": 1.101315975189209,
      "eval_runtime": 22.057,
      "eval_samples_per_second": 55.266,
      "eval_steps_per_second": 3.491,
      "step": 345
    },
    {
      "epoch": 3.46,
      "eval_accuracy": 0.6505332239540607,
      "eval_loss": 1.1051619052886963,
      "eval_runtime": 22.1003,
      "eval_samples_per_second": 55.158,
      "eval_steps_per_second": 3.484,
      "step": 350
    },
    {
      "epoch": 3.51,
      "eval_accuracy": 0.6538146021328958,
      "eval_loss": 1.1043237447738647,
      "eval_runtime": 22.0841,
      "eval_samples_per_second": 55.198,
      "eval_steps_per_second": 3.487,
      "step": 355
    },
    {
      "epoch": 3.56,
      "eval_accuracy": 0.6505332239540607,
      "eval_loss": 1.0952463150024414,
      "eval_runtime": 22.0541,
      "eval_samples_per_second": 55.273,
      "eval_steps_per_second": 3.491,
      "step": 360
    },
    {
      "epoch": 3.61,
      "eval_accuracy": 0.6365873666940115,
      "eval_loss": 1.1162270307540894,
      "eval_runtime": 22.0684,
      "eval_samples_per_second": 55.237,
      "eval_steps_per_second": 3.489,
      "step": 365
    },
    {
      "epoch": 3.66,
      "eval_accuracy": 0.6308449548810501,
      "eval_loss": 1.1369705200195312,
      "eval_runtime": 22.093,
      "eval_samples_per_second": 55.176,
      "eval_steps_per_second": 3.485,
      "step": 370
    },
    {
      "epoch": 3.71,
      "eval_accuracy": 0.6390484003281378,
      "eval_loss": 1.1256937980651855,
      "eval_runtime": 22.0958,
      "eval_samples_per_second": 55.169,
      "eval_steps_per_second": 3.485,
      "step": 375
    },
    {
      "epoch": 3.76,
      "eval_accuracy": 0.6488925348646432,
      "eval_loss": 1.1086547374725342,
      "eval_runtime": 22.0871,
      "eval_samples_per_second": 55.19,
      "eval_steps_per_second": 3.486,
      "step": 380
    },
    {
      "epoch": 3.81,
      "eval_accuracy": 0.6480721903199343,
      "eval_loss": 1.0919374227523804,
      "eval_runtime": 22.0988,
      "eval_samples_per_second": 55.161,
      "eval_steps_per_second": 3.484,
      "step": 385
    },
    {
      "epoch": 3.86,
      "eval_accuracy": 0.6464315012305168,
      "eval_loss": 1.1022995710372925,
      "eval_runtime": 22.0801,
      "eval_samples_per_second": 55.208,
      "eval_steps_per_second": 3.487,
      "step": 390
    },
    {
      "epoch": 3.9,
      "eval_accuracy": 0.6415094339622641,
      "eval_loss": 1.1082533597946167,
      "eval_runtime": 22.0965,
      "eval_samples_per_second": 55.167,
      "eval_steps_per_second": 3.485,
      "step": 395
    },
    {
      "epoch": 3.95,
      "eval_accuracy": 0.6464315012305168,
      "eval_loss": 1.097733736038208,
      "eval_runtime": 22.0996,
      "eval_samples_per_second": 55.159,
      "eval_steps_per_second": 3.484,
      "step": 400
    },
    {
      "epoch": 4.01,
      "eval_accuracy": 0.6447908121410992,
      "eval_loss": 1.1045968532562256,
      "eval_runtime": 22.0768,
      "eval_samples_per_second": 55.216,
      "eval_steps_per_second": 3.488,
      "step": 405
    },
    {
      "epoch": 4.06,
      "eval_accuracy": 0.6505332239540607,
      "eval_loss": 1.107797622680664,
      "eval_runtime": 22.0716,
      "eval_samples_per_second": 55.229,
      "eval_steps_per_second": 3.489,
      "step": 410
    },
    {
      "epoch": 4.11,
      "eval_accuracy": 0.6505332239540607,
      "eval_loss": 1.103867769241333,
      "eval_runtime": 22.0661,
      "eval_samples_per_second": 55.243,
      "eval_steps_per_second": 3.49,
      "step": 415
    },
    {
      "epoch": 4.16,
      "eval_accuracy": 0.6587366694011485,
      "eval_loss": 1.108827829360962,
      "eval_runtime": 22.0947,
      "eval_samples_per_second": 55.172,
      "eval_steps_per_second": 3.485,
      "step": 420
    },
    {
      "epoch": 4.21,
      "eval_accuracy": 0.6620180475799836,
      "eval_loss": 1.1379058361053467,
      "eval_runtime": 22.106,
      "eval_samples_per_second": 55.143,
      "eval_steps_per_second": 3.483,
      "step": 425
    },
    {
      "epoch": 4.26,
      "eval_accuracy": 0.660377358490566,
      "eval_loss": 1.141152024269104,
      "eval_runtime": 22.0792,
      "eval_samples_per_second": 55.21,
      "eval_steps_per_second": 3.487,
      "step": 430
    },
    {
      "epoch": 4.3,
      "eval_accuracy": 0.6529942575881871,
      "eval_loss": 1.1598142385482788,
      "eval_runtime": 22.0835,
      "eval_samples_per_second": 55.2,
      "eval_steps_per_second": 3.487,
      "step": 435
    },
    {
      "epoch": 4.35,
      "eval_accuracy": 0.6579163248564397,
      "eval_loss": 1.1822909116744995,
      "eval_runtime": 22.0482,
      "eval_samples_per_second": 55.288,
      "eval_steps_per_second": 3.492,
      "step": 440
    },
    {
      "epoch": 4.4,
      "eval_accuracy": 0.6521739130434783,
      "eval_loss": 1.209184169769287,
      "eval_runtime": 22.1269,
      "eval_samples_per_second": 55.091,
      "eval_steps_per_second": 3.48,
      "step": 445
    },
    {
      "epoch": 4.45,
      "eval_accuracy": 0.6406890894175554,
      "eval_loss": 1.2172785997390747,
      "eval_runtime": 22.076,
      "eval_samples_per_second": 55.218,
      "eval_steps_per_second": 3.488,
      "step": 450
    },
    {
      "epoch": 4.5,
      "eval_accuracy": 0.6390484003281378,
      "eval_loss": 1.2160059213638306,
      "eval_runtime": 22.105,
      "eval_samples_per_second": 55.146,
      "eval_steps_per_second": 3.483,
      "step": 455
    },
    {
      "epoch": 4.55,
      "eval_accuracy": 0.649712879409352,
      "eval_loss": 1.2181897163391113,
      "eval_runtime": 22.0978,
      "eval_samples_per_second": 55.164,
      "eval_steps_per_second": 3.485,
      "step": 460
    },
    {
      "epoch": 4.6,
      "eval_accuracy": 0.6529942575881871,
      "eval_loss": 1.2279208898544312,
      "eval_runtime": 22.1015,
      "eval_samples_per_second": 55.155,
      "eval_steps_per_second": 3.484,
      "step": 465
    },
    {
      "epoch": 4.65,
      "eval_accuracy": 0.6431501230516817,
      "eval_loss": 1.2431882619857788,
      "eval_runtime": 22.0754,
      "eval_samples_per_second": 55.22,
      "eval_steps_per_second": 3.488,
      "step": 470
    },
    {
      "epoch": 4.7,
      "eval_accuracy": 0.6365873666940115,
      "eval_loss": 1.259674072265625,
      "eval_runtime": 22.0897,
      "eval_samples_per_second": 55.184,
      "eval_steps_per_second": 3.486,
      "step": 475
    },
    {
      "epoch": 4.75,
      "eval_accuracy": 0.6259228876127974,
      "eval_loss": 1.2814805507659912,
      "eval_runtime": 22.0928,
      "eval_samples_per_second": 55.176,
      "eval_steps_per_second": 3.485,
      "step": 480
    },
    {
      "epoch": 4.8,
      "eval_accuracy": 0.6349466776045939,
      "eval_loss": 1.256806492805481,
      "eval_runtime": 22.1063,
      "eval_samples_per_second": 55.143,
      "eval_steps_per_second": 3.483,
      "step": 485
    },
    {
      "epoch": 4.85,
      "eval_accuracy": 0.6365873666940115,
      "eval_loss": 1.2361453771591187,
      "eval_runtime": 22.092,
      "eval_samples_per_second": 55.178,
      "eval_steps_per_second": 3.485,
      "step": 490
    },
    {
      "epoch": 4.9,
      "eval_accuracy": 0.6431501230516817,
      "eval_loss": 1.235231876373291,
      "eval_runtime": 22.1162,
      "eval_samples_per_second": 55.118,
      "eval_steps_per_second": 3.482,
      "step": 495
    },
    {
      "epoch": 4.94,
      "learning_rate": 3.5932203389830512e-06,
      "loss": 0.6747,
      "step": 500
    },
    {
      "epoch": 4.94,
      "eval_accuracy": 0.6546349466776046,
      "eval_loss": 1.2329127788543701,
      "eval_runtime": 22.1133,
      "eval_samples_per_second": 55.125,
      "eval_steps_per_second": 3.482,
      "step": 500
    },
    {
      "epoch": 4.99,
      "eval_accuracy": 0.660377358490566,
      "eval_loss": 1.2357805967330933,
      "eval_runtime": 22.0859,
      "eval_samples_per_second": 55.194,
      "eval_steps_per_second": 3.486,
      "step": 505
    },
    {
      "epoch": 5.05,
      "eval_accuracy": 0.6521739130434783,
      "eval_loss": 1.24117112159729,
      "eval_runtime": 22.0905,
      "eval_samples_per_second": 55.182,
      "eval_steps_per_second": 3.486,
      "step": 510
    },
    {
      "epoch": 5.1,
      "eval_accuracy": 0.6374077112387203,
      "eval_loss": 1.2596464157104492,
      "eval_runtime": 22.0919,
      "eval_samples_per_second": 55.179,
      "eval_steps_per_second": 3.485,
      "step": 515
    },
    {
      "epoch": 5.15,
      "eval_accuracy": 0.6357670221493027,
      "eval_loss": 1.2779669761657715,
      "eval_runtime": 22.0826,
      "eval_samples_per_second": 55.202,
      "eval_steps_per_second": 3.487,
      "step": 520
    },
    {
      "epoch": 5.2,
      "eval_accuracy": 0.6349466776045939,
      "eval_loss": 1.2842838764190674,
      "eval_runtime": 22.0985,
      "eval_samples_per_second": 55.162,
      "eval_steps_per_second": 3.484,
      "step": 525
    },
    {
      "epoch": 5.25,
      "eval_accuracy": 0.6390484003281378,
      "eval_loss": 1.2823896408081055,
      "eval_runtime": 22.0571,
      "eval_samples_per_second": 55.266,
      "eval_steps_per_second": 3.491,
      "step": 530
    },
    {
      "epoch": 5.3,
      "eval_accuracy": 0.6431501230516817,
      "eval_loss": 1.2787493467330933,
      "eval_runtime": 22.0961,
      "eval_samples_per_second": 55.168,
      "eval_steps_per_second": 3.485,
      "step": 535
    },
    {
      "epoch": 5.34,
      "eval_accuracy": 0.6472518457752255,
      "eval_loss": 1.2828565835952759,
      "eval_runtime": 22.0641,
      "eval_samples_per_second": 55.248,
      "eval_steps_per_second": 3.49,
      "step": 540
    },
    {
      "epoch": 5.39,
      "eval_accuracy": 0.6505332239540607,
      "eval_loss": 1.282371163368225,
      "eval_runtime": 22.0845,
      "eval_samples_per_second": 55.197,
      "eval_steps_per_second": 3.487,
      "step": 545
    },
    {
      "epoch": 5.44,
      "eval_accuracy": 0.6480721903199343,
      "eval_loss": 1.2820838689804077,
      "eval_runtime": 22.0877,
      "eval_samples_per_second": 55.189,
      "eval_steps_per_second": 3.486,
      "step": 550
    },
    {
      "epoch": 5.49,
      "eval_accuracy": 0.6415094339622641,
      "eval_loss": 1.2826809883117676,
      "eval_runtime": 22.0655,
      "eval_samples_per_second": 55.244,
      "eval_steps_per_second": 3.49,
      "step": 555
    },
    {
      "epoch": 5.54,
      "eval_accuracy": 0.6390484003281378,
      "eval_loss": 1.2895231246948242,
      "eval_runtime": 22.0732,
      "eval_samples_per_second": 55.225,
      "eval_steps_per_second": 3.488,
      "step": 560
    },
    {
      "epoch": 5.59,
      "eval_accuracy": 0.6431501230516817,
      "eval_loss": 1.2961078882217407,
      "eval_runtime": 22.0887,
      "eval_samples_per_second": 55.187,
      "eval_steps_per_second": 3.486,
      "step": 565
    },
    {
      "epoch": 5.64,
      "eval_accuracy": 0.6406890894175554,
      "eval_loss": 1.2997369766235352,
      "eval_runtime": 22.1071,
      "eval_samples_per_second": 55.141,
      "eval_steps_per_second": 3.483,
      "step": 570
    },
    {
      "epoch": 5.69,
      "eval_accuracy": 0.6398687448728466,
      "eval_loss": 1.300407886505127,
      "eval_runtime": 22.103,
      "eval_samples_per_second": 55.151,
      "eval_steps_per_second": 3.484,
      "step": 575
    },
    {
      "epoch": 5.74,
      "eval_accuracy": 0.6423297785069729,
      "eval_loss": 1.2977045774459839,
      "eval_runtime": 22.1057,
      "eval_samples_per_second": 55.144,
      "eval_steps_per_second": 3.483,
      "step": 580
    },
    {
      "epoch": 5.79,
      "eval_accuracy": 0.6398687448728466,
      "eval_loss": 1.2948967218399048,
      "eval_runtime": 22.0962,
      "eval_samples_per_second": 55.168,
      "eval_steps_per_second": 3.485,
      "step": 585
    },
    {
      "epoch": 5.84,
      "eval_accuracy": 0.6398687448728466,
      "eval_loss": 1.2930399179458618,
      "eval_runtime": 22.1002,
      "eval_samples_per_second": 55.158,
      "eval_steps_per_second": 3.484,
      "step": 590
    },
    {
      "epoch": 5.89,
      "eval_accuracy": 0.6406890894175554,
      "eval_loss": 1.2919255495071411,
      "eval_runtime": 22.0659,
      "eval_samples_per_second": 55.244,
      "eval_steps_per_second": 3.49,
      "step": 595
    },
    {
      "epoch": 5.93,
      "eval_accuracy": 0.6423297785069729,
      "eval_loss": 1.2914488315582275,
      "eval_runtime": 22.0884,
      "eval_samples_per_second": 55.187,
      "eval_steps_per_second": 3.486,
      "step": 600
    },
    {
      "epoch": 5.98,
      "eval_accuracy": 0.6423297785069729,
      "eval_loss": 1.291615605354309,
      "eval_runtime": 22.1146,
      "eval_samples_per_second": 55.122,
      "eval_steps_per_second": 3.482,
      "step": 605
    }
  ],
  "max_steps": 606,
  "num_train_epochs": 6,
  "total_flos": 8924601140975520.0,
  "trial_name": null,
  "trial_params": null
}
