{
  "best_metric": 0.3179364800453186,
  "best_model_checkpoint": "/content/checkpoints/gbert_base_finetuned_s0_cv1_ml/checkpoint-270",
  "epoch": 4.99672131147541,
  "global_step": 760,
  "is_hyper_param_search": false,
  "is_local_process_zero": true,
  "is_world_process_zero": true,
  "log_history": [
    {
      "epoch": 0.03,
      "eval_accuracy": 0.06316652994257588,
      "eval_f1": 0.46649051165025224,
      "eval_loss": 0.6254445910453796,
      "eval_roc_auc": 0.6553410814344662,
      "eval_runtime": 8.0607,
      "eval_samples_per_second": 151.227,
      "eval_steps_per_second": 9.552,
      "step": 5
    },
    {
      "epoch": 0.07,
      "eval_accuracy": 0.3314191960623462,
      "eval_f1": 0.46153846153846156,
      "eval_loss": 0.5236741304397583,
      "eval_roc_auc": 0.6505878834238102,
      "eval_runtime": 7.9695,
      "eval_samples_per_second": 152.958,
      "eval_steps_per_second": 9.662,
      "step": 10
    },
    {
      "epoch": 0.1,
      "eval_accuracy": 0.18703855619360132,
      "eval_f1": 0.27045235803657364,
      "eval_loss": 0.4605276882648468,
      "eval_roc_auc": 0.5730630761778975,
      "eval_runtime": 8.0081,
      "eval_samples_per_second": 152.221,
      "eval_steps_per_second": 9.615,
      "step": 15
    },
    {
      "epoch": 0.13,
      "eval_accuracy": 0.31419196062346183,
      "eval_f1": 0.3951581413510348,
      "eval_loss": 0.4511685073375702,
      "eval_roc_auc": 0.6173508587581686,
      "eval_runtime": 7.9715,
      "eval_samples_per_second": 152.919,
      "eval_steps_per_second": 9.659,
      "step": 20
    },
    {
      "epoch": 0.16,
      "eval_accuracy": 0.19196062346185397,
      "eval_f1": 0.2669879518072289,
      "eval_loss": 0.4456794261932373,
      "eval_roc_auc": 0.5717803781235691,
      "eval_runtime": 8.0327,
      "eval_samples_per_second": 151.754,
      "eval_steps_per_second": 9.586,
      "step": 25
    },
    {
      "epoch": 0.2,
      "eval_accuracy": 0.32567678424938473,
      "eval_f1": 0.5178335535006606,
      "eval_loss": 0.4415358304977417,
      "eval_roc_auc": 0.6835776429079994,
      "eval_runtime": 8.0106,
      "eval_samples_per_second": 152.173,
      "eval_steps_per_second": 9.612,
      "step": 30
    },
    {
      "epoch": 0.23,
      "eval_accuracy": 0.24118129614438064,
      "eval_f1": 0.386314421827631,
      "eval_loss": 0.426988422870636,
      "eval_roc_auc": 0.6164647060847561,
      "eval_runtime": 7.9955,
      "eval_samples_per_second": 152.46,
      "eval_steps_per_second": 9.63,
      "step": 35
    },
    {
      "epoch": 0.26,
      "eval_accuracy": 0.2977850697292863,
      "eval_f1": 0.38195615514333897,
      "eval_loss": 0.4246790111064911,
      "eval_roc_auc": 0.6135888389229592,
      "eval_runtime": 8.0002,
      "eval_samples_per_second": 152.372,
      "eval_steps_per_second": 9.625,
      "step": 40
    },
    {
      "epoch": 0.3,
      "eval_accuracy": 0.32567678424938473,
      "eval_f1": 0.41017227235438886,
      "eval_loss": 0.416290283203125,
      "eval_roc_auc": 0.6259339938011661,
      "eval_runtime": 7.9892,
      "eval_samples_per_second": 152.581,
      "eval_steps_per_second": 9.638,
      "step": 45
    },
    {
      "epoch": 0.33,
      "eval_accuracy": 0.34864643150123054,
      "eval_f1": 0.47223332001598084,
      "eval_loss": 0.39506295323371887,
      "eval_roc_auc": 0.6554035461987809,
      "eval_runtime": 8.0086,
      "eval_samples_per_second": 152.212,
      "eval_steps_per_second": 9.615,
      "step": 50
    },
    {
      "epoch": 0.36,
      "eval_accuracy": 0.42411812961443807,
      "eval_f1": 0.5864197530864198,
      "eval_loss": 0.3870408236980438,
      "eval_roc_auc": 0.7209979540142875,
      "eval_runtime": 8.0023,
      "eval_samples_per_second": 152.331,
      "eval_steps_per_second": 9.622,
      "step": 55
    },
    {
      "epoch": 0.39,
      "eval_accuracy": 0.40114848236259226,
      "eval_f1": 0.5106536655832431,
      "eval_loss": 0.3966224789619446,
      "eval_roc_auc": 0.6767301813330934,
      "eval_runtime": 7.9967,
      "eval_samples_per_second": 152.437,
      "eval_steps_per_second": 9.629,
      "step": 60
    },
    {
      "epoch": 0.43,
      "eval_accuracy": 0.41017227235438886,
      "eval_f1": 0.5806906272022552,
      "eval_loss": 0.37012481689453125,
      "eval_roc_auc": 0.7159116282393672,
      "eval_runtime": 8.0241,
      "eval_samples_per_second": 151.917,
      "eval_steps_per_second": 9.596,
      "step": 65
    },
    {
      "epoch": 0.46,
      "eval_accuracy": 0.41017227235438886,
      "eval_f1": 0.5596529284164861,
      "eval_loss": 0.3663537800312042,
      "eval_roc_auc": 0.7029369555838471,
      "eval_runtime": 8.0023,
      "eval_samples_per_second": 152.331,
      "eval_steps_per_second": 9.622,
      "step": 70
    },
    {
      "epoch": 0.49,
      "eval_accuracy": 0.4298605414273995,
      "eval_f1": 0.6042612644079638,
      "eval_loss": 0.35954999923706055,
      "eval_roc_auc": 0.7295691254668315,
      "eval_runtime": 8.0076,
      "eval_samples_per_second": 152.23,
      "eval_steps_per_second": 9.616,
      "step": 75
    },
    {
      "epoch": 0.52,
      "eval_accuracy": 0.4520098441345365,
      "eval_f1": 0.6033402922755741,
      "eval_loss": 0.3560587763786316,
      "eval_roc_auc": 0.729368126559965,
      "eval_runtime": 7.9976,
      "eval_samples_per_second": 152.421,
      "eval_steps_per_second": 9.628,
      "step": 80
    },
    {
      "epoch": 0.56,
      "eval_accuracy": 0.45693191140278916,
      "eval_f1": 0.6222984562607204,
      "eval_loss": 0.35027337074279785,
      "eval_roc_auc": 0.7412197568638452,
      "eval_runtime": 8.0043,
      "eval_samples_per_second": 152.293,
      "eval_steps_per_second": 9.62,
      "step": 85
    },
    {
      "epoch": 0.59,
      "eval_accuracy": 0.4495488105004102,
      "eval_f1": 0.6154905335628227,
      "eval_loss": 0.3487897217273712,
      "eval_roc_auc": 0.7370731552381733,
      "eval_runtime": 8.0052,
      "eval_samples_per_second": 152.276,
      "eval_steps_per_second": 9.619,
      "step": 90
    },
    {
      "epoch": 0.62,
      "eval_accuracy": 0.4602132895816243,
      "eval_f1": 0.6115476597198497,
      "eval_loss": 0.3507728576660156,
      "eval_roc_auc": 0.7355096304256339,
      "eval_runtime": 7.9922,
      "eval_samples_per_second": 152.524,
      "eval_steps_per_second": 9.634,
      "step": 95
    },
    {
      "epoch": 0.66,
      "eval_accuracy": 0.4634946677604594,
      "eval_f1": 0.6396276595744681,
      "eval_loss": 0.3446276783943176,
      "eval_roc_auc": 0.7542682755754831,
      "eval_runtime": 7.9722,
      "eval_samples_per_second": 152.906,
      "eval_steps_per_second": 9.659,
      "step": 100
    },
    {
      "epoch": 0.69,
      "eval_accuracy": 0.42821985233798193,
      "eval_f1": 0.6263665594855305,
      "eval_loss": 0.3564169108867645,
      "eval_roc_auc": 0.7498702268053243,
      "eval_runtime": 7.9986,
      "eval_samples_per_second": 152.402,
      "eval_steps_per_second": 9.627,
      "step": 105
    },
    {
      "epoch": 0.72,
      "eval_accuracy": 0.4700574241181296,
      "eval_f1": 0.6253443526170798,
      "eval_loss": 0.3391048312187195,
      "eval_roc_auc": 0.7425822827695183,
      "eval_runtime": 7.9842,
      "eval_samples_per_second": 152.676,
      "eval_steps_per_second": 9.644,
      "step": 110
    },
    {
      "epoch": 0.75,
      "eval_accuracy": 0.4700574241181296,
      "eval_f1": 0.6274104683195593,
      "eval_loss": 0.33616676926612854,
      "eval_roc_auc": 0.7437438097683245,
      "eval_runtime": 7.9482,
      "eval_samples_per_second": 153.369,
      "eval_steps_per_second": 9.688,
      "step": 115
    },
    {
      "epoch": 0.79,
      "eval_accuracy": 0.44380639868744876,
      "eval_f1": 0.6204304748889649,
      "eval_loss": 0.34645721316337585,
      "eval_roc_auc": 0.7405429140871278,
      "eval_runtime": 7.9752,
      "eval_samples_per_second": 152.85,
      "eval_steps_per_second": 9.655,
      "step": 120
    },
    {
      "epoch": 0.82,
      "eval_accuracy": 0.4807219031993437,
      "eval_f1": 0.636756397474244,
      "eval_loss": 0.3366228938102722,
      "eval_roc_auc": 0.7526309047068259,
      "eval_runtime": 8.0208,
      "eval_samples_per_second": 151.98,
      "eval_steps_per_second": 9.6,
      "step": 125
    },
    {
      "epoch": 0.85,
      "eval_accuracy": 0.4831829368334701,
      "eval_f1": 0.6398135818908123,
      "eval_loss": 0.3341357409954071,
      "eval_roc_auc": 0.7542357727235431,
      "eval_runtime": 7.994,
      "eval_samples_per_second": 152.489,
      "eval_steps_per_second": 9.632,
      "step": 130
    },
    {
      "epoch": 0.89,
      "eval_accuracy": 0.48728465955701394,
      "eval_f1": 0.642083897158322,
      "eval_loss": 0.33486735820770264,
      "eval_roc_auc": 0.7538457385002635,
      "eval_runtime": 7.9847,
      "eval_samples_per_second": 152.667,
      "eval_steps_per_second": 9.643,
      "step": 135
    },
    {
      "epoch": 0.92,
      "eval_accuracy": 0.46595570139458575,
      "eval_f1": 0.6363944425618435,
      "eval_loss": 0.33829018473625183,
      "eval_roc_auc": 0.7504173228554867,
      "eval_runtime": 8.0026,
      "eval_samples_per_second": 152.326,
      "eval_steps_per_second": 9.622,
      "step": 140
    },
    {
      "epoch": 0.95,
      "eval_accuracy": 0.4610336341263331,
      "eval_f1": 0.6167369901547117,
      "eval_loss": 0.3322782516479492,
      "eval_roc_auc": 0.7358999293301183,
      "eval_runtime": 8.0392,
      "eval_samples_per_second": 151.632,
      "eval_steps_per_second": 9.578,
      "step": 145
    },
    {
      "epoch": 0.98,
      "eval_accuracy": 0.45365053322395404,
      "eval_f1": 0.6099190995427366,
      "eval_loss": 0.33358246088027954,
      "eval_roc_auc": 0.732116840871013,
      "eval_runtime": 8.015,
      "eval_samples_per_second": 152.09,
      "eval_steps_per_second": 9.607,
      "step": 150
    },
    {
      "epoch": 1.02,
      "eval_accuracy": 0.46513535684987695,
      "eval_f1": 0.6351351351351351,
      "eval_loss": 0.33410242199897766,
      "eval_roc_auc": 0.7500064846895157,
      "eval_runtime": 8.0073,
      "eval_samples_per_second": 152.237,
      "eval_steps_per_second": 9.616,
      "step": 155
    },
    {
      "epoch": 1.05,
      "eval_accuracy": 0.46267432321575064,
      "eval_f1": 0.6577437858508605,
      "eval_loss": 0.33875468373298645,
      "eval_roc_auc": 0.769843705748611,
      "eval_runtime": 8.0078,
      "eval_samples_per_second": 152.227,
      "eval_steps_per_second": 9.616,
      "step": 160
    },
    {
      "epoch": 1.09,
      "eval_accuracy": 0.48400328137817883,
      "eval_f1": 0.653233669158271,
      "eval_loss": 0.33093371987342834,
      "eval_roc_auc": 0.7647987231778685,
      "eval_runtime": 8.0031,
      "eval_samples_per_second": 152.317,
      "eval_steps_per_second": 9.621,
      "step": 165
    },
    {
      "epoch": 1.12,
      "eval_accuracy": 0.48482362592288764,
      "eval_f1": 0.6490196078431373,
      "eval_loss": 0.335135817527771,
      "eval_roc_auc": 0.7616599746435405,
      "eval_runtime": 8.0014,
      "eval_samples_per_second": 152.348,
      "eval_steps_per_second": 9.623,
      "step": 170
    },
    {
      "epoch": 1.15,
      "eval_accuracy": 0.47579983593109104,
      "eval_f1": 0.6495948136142626,
      "eval_loss": 0.33536773920059204,
      "eval_roc_auc": 0.7629278505504046,
      "eval_runtime": 8.0105,
      "eval_samples_per_second": 152.175,
      "eval_steps_per_second": 9.612,
      "step": 175
    },
    {
      "epoch": 1.18,
      "eval_accuracy": 0.4889253486464315,
      "eval_f1": 0.6592398427260812,
      "eval_loss": 0.3294138014316559,
      "eval_roc_auc": 0.767402603933692,
      "eval_runtime": 8.0197,
      "eval_samples_per_second": 152.0,
      "eval_steps_per_second": 9.601,
      "step": 180
    },
    {
      "epoch": 1.22,
      "eval_accuracy": 0.4815422477440525,
      "eval_f1": 0.6425944500167169,
      "eval_loss": 0.3319699168205261,
      "eval_roc_auc": 0.7553884593701117,
      "eval_runtime": 8.0311,
      "eval_samples_per_second": 151.785,
      "eval_steps_per_second": 9.588,
      "step": 185
    },
    {
      "epoch": 1.25,
      "eval_accuracy": 0.4831829368334701,
      "eval_f1": 0.6406722689075631,
      "eval_loss": 0.33066269755363464,
      "eval_roc_auc": 0.7537097452972767,
      "eval_runtime": 8.0236,
      "eval_samples_per_second": 151.926,
      "eval_steps_per_second": 9.597,
      "step": 190
    },
    {
      "epoch": 1.28,
      "eval_accuracy": 0.4864643150123052,
      "eval_f1": 0.6593915343915343,
      "eval_loss": 0.3327064514160156,
      "eval_roc_auc": 0.7664007326375748,
      "eval_runtime": 8.0,
      "eval_samples_per_second": 152.375,
      "eval_steps_per_second": 9.625,
      "step": 195
    },
    {
      "epoch": 1.31,
      "eval_accuracy": 0.48810500410172275,
      "eval_f1": 0.6644951140065147,
      "eval_loss": 0.3291630446910858,
      "eval_roc_auc": 0.7712270355969753,
      "eval_runtime": 8.0291,
      "eval_samples_per_second": 151.823,
      "eval_steps_per_second": 9.59,
      "step": 200
    },
    {
      "epoch": 1.35,
      "eval_accuracy": 0.4946677604593929,
      "eval_f1": 0.6696950032446463,
      "eval_loss": 0.3218771815299988,
      "eval_roc_auc": 0.774809125149214,
      "eval_runtime": 8.0227,
      "eval_samples_per_second": 151.943,
      "eval_steps_per_second": 9.598,
      "step": 205
    },
    {
      "epoch": 1.38,
      "eval_accuracy": 0.4831829368334701,
      "eval_f1": 0.6647380263580842,
      "eval_loss": 0.3210950195789337,
      "eval_roc_auc": 0.7730120985778678,
      "eval_runtime": 8.0271,
      "eval_samples_per_second": 151.86,
      "eval_steps_per_second": 9.592,
      "step": 210
    },
    {
      "epoch": 1.41,
      "eval_accuracy": 0.4856439704675964,
      "eval_f1": 0.6580226904376013,
      "eval_loss": 0.32533761858940125,
      "eval_roc_auc": 0.7679611342118985,
      "eval_runtime": 8.0169,
      "eval_samples_per_second": 152.053,
      "eval_steps_per_second": 9.605,
      "step": 215
    },
    {
      "epoch": 1.45,
      "eval_accuracy": 0.4938474159146842,
      "eval_f1": 0.6649534211371668,
      "eval_loss": 0.3245956599712372,
      "eval_roc_auc": 0.7732219378369722,
      "eval_runtime": 8.0329,
      "eval_samples_per_second": 151.752,
      "eval_steps_per_second": 9.586,
      "step": 220
    },
    {
      "epoch": 1.48,
      "eval_accuracy": 0.48400328137817883,
      "eval_f1": 0.6589072098286454,
      "eval_loss": 0.32577404379844666,
      "eval_roc_auc": 0.768800491248316,
      "eval_runtime": 8.0622,
      "eval_samples_per_second": 151.199,
      "eval_steps_per_second": 9.551,
      "step": 225
    },
    {
      "epoch": 1.51,
      "eval_accuracy": 0.47908121410992616,
      "eval_f1": 0.6437395659432387,
      "eval_loss": 0.33008691668510437,
      "eval_roc_auc": 0.7561953135545892,
      "eval_runtime": 8.0186,
      "eval_samples_per_second": 152.021,
      "eval_steps_per_second": 9.603,
      "step": 230
    },
    {
      "epoch": 1.54,
      "eval_accuracy": 0.4922067268252666,
      "eval_f1": 0.6570372858582466,
      "eval_loss": 0.32561445236206055,
      "eval_roc_auc": 0.7632118005468314,
      "eval_runtime": 8.0277,
      "eval_samples_per_second": 151.85,
      "eval_steps_per_second": 9.592,
      "step": 235
    },
    {
      "epoch": 1.58,
      "eval_accuracy": 0.47662018047579985,
      "eval_f1": 0.6590038314176245,
      "eval_loss": 0.3324452340602875,
      "eval_roc_auc": 0.7703757149701042,
      "eval_runtime": 8.0143,
      "eval_samples_per_second": 152.103,
      "eval_steps_per_second": 9.608,
      "step": 240
    },
    {
      "epoch": 1.61,
      "eval_accuracy": 0.49302707136997537,
      "eval_f1": 0.6563426688632619,
      "eval_loss": 0.3277827799320221,
      "eval_roc_auc": 0.7650382067319018,
      "eval_runtime": 8.0259,
      "eval_samples_per_second": 151.883,
      "eval_steps_per_second": 9.594,
      "step": 245
    },
    {
      "epoch": 1.64,
      "eval_accuracy": 0.4938474159146842,
      "eval_f1": 0.6600790513833992,
      "eval_loss": 0.3286268413066864,
      "eval_roc_auc": 0.767272592525932,
      "eval_runtime": 8.0298,
      "eval_samples_per_second": 151.809,
      "eval_steps_per_second": 9.589,
      "step": 250
    },
    {
      "epoch": 1.68,
      "eval_accuracy": 0.4922067268252666,
      "eval_f1": 0.6701164294954722,
      "eval_loss": 0.32163116335868835,
      "eval_roc_auc": 0.7754711457784671,
      "eval_runtime": 8.0192,
      "eval_samples_per_second": 152.009,
      "eval_steps_per_second": 9.602,
      "step": 255
    },
    {
      "epoch": 1.71,
      "eval_accuracy": 0.48810500410172275,
      "eval_f1": 0.6566265060240964,
      "eval_loss": 0.318435400724411,
      "eval_roc_auc": 0.7633979773062336,
      "eval_runtime": 8.0229,
      "eval_samples_per_second": 151.941,
      "eval_steps_per_second": 9.598,
      "step": 260
    },
    {
      "epoch": 1.74,
      "eval_accuracy": 0.4774405250205086,
      "eval_f1": 0.6411645226811105,
      "eval_loss": 0.32485491037368774,
      "eval_roc_auc": 0.7532487235748904,
      "eval_runtime": 8.0377,
      "eval_samples_per_second": 151.66,
      "eval_steps_per_second": 9.58,
      "step": 265
    },
    {
      "epoch": 1.77,
      "eval_accuracy": 0.4815422477440525,
      "eval_f1": 0.6607669616519175,
      "eval_loss": 0.3179364800453186,
      "eval_roc_auc": 0.7682656234698118,
      "eval_runtime": 8.0446,
      "eval_samples_per_second": 151.531,
      "eval_steps_per_second": 9.572,
      "step": 270
    },
    {
      "epoch": 1.81,
      "eval_accuracy": 0.4913863822805578,
      "eval_f1": 0.6664507772020726,
      "eval_loss": 0.3185378611087799,
      "eval_roc_auc": 0.7731155889289146,
      "eval_runtime": 8.0251,
      "eval_samples_per_second": 151.897,
      "eval_steps_per_second": 9.595,
      "step": 275
    },
    {
      "epoch": 1.84,
      "eval_accuracy": 0.4922067268252666,
      "eval_f1": 0.6681557115507339,
      "eval_loss": 0.3217109143733978,
      "eval_roc_auc": 0.7760060135569712,
      "eval_runtime": 8.0404,
      "eval_samples_per_second": 151.61,
      "eval_steps_per_second": 9.577,
      "step": 280
    },
    {
      "epoch": 1.87,
      "eval_accuracy": 0.48236259228876127,
      "eval_f1": 0.6706738373932299,
      "eval_loss": 0.3182551860809326,
      "eval_roc_auc": 0.7786452557217458,
      "eval_runtime": 8.0262,
      "eval_samples_per_second": 151.878,
      "eval_steps_per_second": 9.594,
      "step": 285
    },
    {
      "epoch": 1.9,
      "eval_accuracy": 0.4634946677604594,
      "eval_f1": 0.6555310431768042,
      "eval_loss": 0.3296867907047272,
      "eval_roc_auc": 0.7698377239533843,
      "eval_runtime": 8.0209,
      "eval_samples_per_second": 151.978,
      "eval_steps_per_second": 9.6,
      "step": 290
    },
    {
      "epoch": 1.94,
      "eval_accuracy": 0.4815422477440525,
      "eval_f1": 0.6528735632183909,
      "eval_loss": 0.31853899359703064,
      "eval_roc_auc": 0.7633771733635423,
      "eval_runtime": 8.0314,
      "eval_samples_per_second": 151.779,
      "eval_steps_per_second": 9.587,
      "step": 295
    },
    {
      "epoch": 1.97,
      "eval_accuracy": 0.4963084495488105,
      "eval_f1": 0.6589173032215211,
      "eval_loss": 0.31937018036842346,
      "eval_roc_auc": 0.7656175409527994,
      "eval_runtime": 8.0238,
      "eval_samples_per_second": 151.923,
      "eval_steps_per_second": 9.596,
      "step": 300
    },
    {
      "epoch": 2.01,
      "eval_accuracy": 0.4963084495488105,
      "eval_f1": 0.6574074074074073,
      "eval_loss": 0.3218163549900055,
      "eval_roc_auc": 0.7652392056387685,
      "eval_runtime": 8.0814,
      "eval_samples_per_second": 150.84,
      "eval_steps_per_second": 9.528,
      "step": 305
    },
    {
      "epoch": 2.04,
      "eval_accuracy": 0.4856439704675964,
      "eval_f1": 0.665151023059435,
      "eval_loss": 0.3187865912914276,
      "eval_roc_auc": 0.7719777244298105,
      "eval_runtime": 8.0473,
      "eval_samples_per_second": 151.479,
      "eval_steps_per_second": 9.568,
      "step": 310
    },
    {
      "epoch": 2.07,
      "eval_accuracy": 0.4889253486464315,
      "eval_f1": 0.6668833279168022,
      "eval_loss": 0.32235366106033325,
      "eval_roc_auc": 0.7729294121695125,
      "eval_runtime": 8.0535,
      "eval_samples_per_second": 151.362,
      "eval_steps_per_second": 9.561,
      "step": 315
    },
    {
      "epoch": 2.1,
      "eval_accuracy": 0.49548810500410173,
      "eval_f1": 0.6638242046572647,
      "eval_loss": 0.328468382358551,
      "eval_roc_auc": 0.7699916625420512,
      "eval_runtime": 8.0526,
      "eval_samples_per_second": 151.379,
      "eval_steps_per_second": 9.562,
      "step": 320
    },
    {
      "epoch": 2.14,
      "eval_accuracy": 0.48728465955701394,
      "eval_f1": 0.670076726342711,
      "eval_loss": 0.33189141750335693,
      "eval_roc_auc": 0.7769251984447333,
      "eval_runtime": 8.006,
      "eval_samples_per_second": 152.26,
      "eval_steps_per_second": 9.618,
      "step": 325
    },
    {
      "epoch": 2.17,
      "eval_accuracy": 0.5102543068088597,
      "eval_f1": 0.6821656050955414,
      "eval_loss": 0.32958272099494934,
      "eval_roc_auc": 0.7847662203259285,
      "eval_runtime": 8.0214,
      "eval_samples_per_second": 151.968,
      "eval_steps_per_second": 9.599,
      "step": 330
    },
    {
      "epoch": 2.2,
      "eval_accuracy": 0.4995898277276456,
      "eval_f1": 0.667735728030789,
      "eval_loss": 0.33590883016586304,
      "eval_roc_auc": 0.7751016508166738,
      "eval_runtime": 8.0229,
      "eval_samples_per_second": 151.94,
      "eval_steps_per_second": 9.597,
      "step": 335
    },
    {
      "epoch": 2.24,
      "eval_accuracy": 0.49548810500410173,
      "eval_f1": 0.6709388016661326,
      "eval_loss": 0.3304539918899536,
      "eval_roc_auc": 0.7771587002035397,
      "eval_runtime": 8.0505,
      "eval_samples_per_second": 151.418,
      "eval_steps_per_second": 9.565,
      "step": 340
    },
    {
      "epoch": 2.27,
      "eval_accuracy": 0.48728465955701394,
      "eval_f1": 0.6653895274584929,
      "eval_loss": 0.3294873535633087,
      "eval_roc_auc": 0.774247471632792,
      "eval_runtime": 8.0606,
      "eval_samples_per_second": 151.23,
      "eval_steps_per_second": 9.553,
      "step": 345
    },
    {
      "epoch": 2.3,
      "eval_accuracy": 0.48236259228876127,
      "eval_f1": 0.6573107049608355,
      "eval_loss": 0.33112889528274536,
      "eval_roc_auc": 0.7667257611569744,
      "eval_runtime": 8.0577,
      "eval_samples_per_second": 151.283,
      "eval_steps_per_second": 9.556,
      "step": 350
    },
    {
      "epoch": 2.33,
      "eval_accuracy": 0.48728465955701394,
      "eval_f1": 0.6539222148978245,
      "eval_loss": 0.33337080478668213,
      "eval_roc_auc": 0.7635781722704089,
      "eval_runtime": 8.0629,
      "eval_samples_per_second": 151.186,
      "eval_steps_per_second": 9.55,
      "step": 355
    },
    {
      "epoch": 2.37,
      "eval_accuracy": 0.4815422477440525,
      "eval_f1": 0.6603896103896104,
      "eval_loss": 0.3283251225948334,
      "eval_roc_auc": 0.7691788265623469,
      "eval_runtime": 8.0535,
      "eval_samples_per_second": 151.364,
      "eval_steps_per_second": 9.561,
      "step": 360
    },
    {
      "epoch": 2.4,
      "eval_accuracy": 0.47087776866283837,
      "eval_f1": 0.6596558317399618,
      "eval_loss": 0.3289452791213989,
      "eval_roc_auc": 0.7710052327474174,
      "eval_runtime": 8.0262,
      "eval_samples_per_second": 151.878,
      "eval_steps_per_second": 9.594,
      "step": 365
    },
    {
      "epoch": 2.43,
      "eval_accuracy": 0.47662018047579985,
      "eval_f1": 0.659473183116471,
      "eval_loss": 0.3364085257053375,
      "eval_roc_auc": 0.7714012487659239,
      "eval_runtime": 8.048,
      "eval_samples_per_second": 151.465,
      "eval_steps_per_second": 9.568,
      "step": 370
    },
    {
      "epoch": 2.47,
      "eval_accuracy": 0.48728465955701394,
      "eval_f1": 0.6564788283985992,
      "eval_loss": 0.34114256501197815,
      "eval_roc_auc": 0.7691905254715957,
      "eval_runtime": 8.0388,
      "eval_samples_per_second": 151.639,
      "eval_steps_per_second": 9.579,
      "step": 375
    },
    {
      "epoch": 2.5,
      "eval_accuracy": 0.4938474159146842,
      "eval_f1": 0.6656061088132358,
      "eval_loss": 0.33402809500694275,
      "eval_roc_auc": 0.7748208240584628,
      "eval_runtime": 8.0338,
      "eval_samples_per_second": 151.735,
      "eval_steps_per_second": 9.585,
      "step": 380
    },
    {
      "epoch": 2.53,
      "eval_accuracy": 0.48400328137817883,
      "eval_f1": 0.6693775414451048,
      "eval_loss": 0.3335103988647461,
      "eval_roc_auc": 0.7793249570554746,
      "eval_runtime": 8.0833,
      "eval_samples_per_second": 150.805,
      "eval_steps_per_second": 9.526,
      "step": 385
    },
    {
      "epoch": 2.56,
      "eval_accuracy": 0.48400328137817883,
      "eval_f1": 0.6706138984107198,
      "eval_loss": 0.33462125062942505,
      "eval_roc_auc": 0.7805839926101008,
      "eval_runtime": 8.0559,
      "eval_samples_per_second": 151.317,
      "eval_steps_per_second": 9.558,
      "step": 390
    },
    {
      "epoch": 2.6,
      "eval_accuracy": 0.48728465955701394,
      "eval_f1": 0.6664584634603372,
      "eval_loss": 0.33834365010261536,
      "eval_roc_auc": 0.7777200890387573,
      "eval_runtime": 8.0425,
      "eval_samples_per_second": 151.57,
      "eval_steps_per_second": 9.574,
      "step": 395
    },
    {
      "epoch": 2.63,
      "eval_accuracy": 0.49056603773584906,
      "eval_f1": 0.6700156985871272,
      "eval_loss": 0.33569976687431335,
      "eval_roc_auc": 0.7792274484996545,
      "eval_runtime": 8.063,
      "eval_samples_per_second": 151.184,
      "eval_steps_per_second": 9.55,
      "step": 400
    },
    {
      "epoch": 2.66,
      "eval_accuracy": 0.4922067268252666,
      "eval_f1": 0.6766917293233083,
      "eval_loss": 0.3292786180973053,
      "eval_roc_auc": 0.7836400547360731,
      "eval_runtime": 8.0565,
      "eval_samples_per_second": 151.306,
      "eval_steps_per_second": 9.557,
      "step": 405
    },
    {
      "epoch": 2.7,
      "eval_accuracy": 0.4938474159146842,
      "eval_f1": 0.6709183673469387,
      "eval_loss": 0.3246660828590393,
      "eval_roc_auc": 0.7777645554811508,
      "eval_runtime": 8.0749,
      "eval_samples_per_second": 150.961,
      "eval_steps_per_second": 9.536,
      "step": 410
    },
    {
      "epoch": 2.73,
      "eval_accuracy": 0.47990155865463496,
      "eval_f1": 0.6588996763754045,
      "eval_loss": 0.33321523666381836,
      "eval_roc_auc": 0.7686793201927938,
      "eval_runtime": 8.0652,
      "eval_samples_per_second": 151.144,
      "eval_steps_per_second": 9.547,
      "step": 415
    },
    {
      "epoch": 2.76,
      "eval_accuracy": 0.4807219031993437,
      "eval_f1": 0.6575875486381324,
      "eval_loss": 0.33014753460884094,
      "eval_roc_auc": 0.767662626749212,
      "eval_runtime": 8.0426,
      "eval_samples_per_second": 151.567,
      "eval_steps_per_second": 9.574,
      "step": 420
    },
    {
      "epoch": 2.79,
      "eval_accuracy": 0.48974569319114025,
      "eval_f1": 0.662166505946641,
      "eval_loss": 0.3282791078090668,
      "eval_roc_auc": 0.7714633959127928,
      "eval_runtime": 8.0856,
      "eval_samples_per_second": 150.761,
      "eval_steps_per_second": 9.523,
      "step": 425
    },
    {
      "epoch": 2.83,
      "eval_accuracy": 0.48728465955701394,
      "eval_f1": 0.6696343402225755,
      "eval_loss": 0.33009204268455505,
      "eval_roc_auc": 0.7773537173151798,
      "eval_runtime": 8.0666,
      "eval_samples_per_second": 151.116,
      "eval_steps_per_second": 9.545,
      "step": 430
    },
    {
      "epoch": 2.86,
      "eval_accuracy": 0.4913863822805578,
      "eval_f1": 0.6593121349772875,
      "eval_loss": 0.33657920360565186,
      "eval_roc_auc": 0.7686143144889138,
      "eval_runtime": 8.0508,
      "eval_samples_per_second": 151.414,
      "eval_steps_per_second": 9.564,
      "step": 435
    },
    {
      "epoch": 2.89,
      "eval_accuracy": 0.48728465955701394,
      "eval_f1": 0.646484375,
      "eval_loss": 0.3542173504829407,
      "eval_roc_auc": 0.7605959562005541,
      "eval_runtime": 8.0674,
      "eval_samples_per_second": 151.102,
      "eval_steps_per_second": 9.545,
      "step": 440
    },
    {
      "epoch": 2.92,
      "eval_accuracy": 0.4864643150123052,
      "eval_f1": 0.6606625924734641,
      "eval_loss": 0.336626261472702,
      "eval_roc_auc": 0.770479205321151,
      "eval_runtime": 8.043,
      "eval_samples_per_second": 151.559,
      "eval_steps_per_second": 9.573,
      "step": 445
    },
    {
      "epoch": 2.96,
      "eval_accuracy": 0.47333880229696473,
      "eval_f1": 0.6616209397666352,
      "eval_loss": 0.336712121963501,
      "eval_roc_auc": 0.7734996413569677,
      "eval_runtime": 8.0481,
      "eval_samples_per_second": 151.465,
      "eval_steps_per_second": 9.568,
      "step": 450
    },
    {
      "epoch": 2.99,
      "eval_accuracy": 0.4774405250205086,
      "eval_f1": 0.6577523081821076,
      "eval_loss": 0.3364647328853607,
      "eval_roc_auc": 0.7699648768041332,
      "eval_runtime": 8.0486,
      "eval_samples_per_second": 151.455,
      "eval_steps_per_second": 9.567,
      "step": 455
    },
    {
      "epoch": 3.03,
      "eval_accuracy": 0.48810500410172275,
      "eval_f1": 0.6626003210272874,
      "eval_loss": 0.3410084843635559,
      "eval_roc_auc": 0.7718830744310016,
      "eval_runtime": 8.0809,
      "eval_samples_per_second": 150.85,
      "eval_steps_per_second": 9.529,
      "step": 460
    },
    {
      "epoch": 3.06,
      "eval_accuracy": 0.4889253486464315,
      "eval_f1": 0.6668793873643906,
      "eval_loss": 0.33963334560394287,
      "eval_roc_auc": 0.7752316622244337,
      "eval_runtime": 8.0966,
      "eval_samples_per_second": 150.558,
      "eval_steps_per_second": 9.51,
      "step": 465
    },
    {
      "epoch": 3.09,
      "eval_accuracy": 0.4889253486464315,
      "eval_f1": 0.6698442961550682,
      "eval_loss": 0.33960941433906555,
      "eval_roc_auc": 0.7775635565742841,
      "eval_runtime": 8.068,
      "eval_samples_per_second": 151.09,
      "eval_steps_per_second": 9.544,
      "step": 470
    },
    {
      "epoch": 3.12,
      "eval_accuracy": 0.4856439704675964,
      "eval_f1": 0.6660335549224439,
      "eval_loss": 0.3416129946708679,
      "eval_roc_auc": 0.7757251867987602,
      "eval_runtime": 8.0652,
      "eval_samples_per_second": 151.144,
      "eval_steps_per_second": 9.547,
      "step": 475
    },
    {
      "epoch": 3.16,
      "eval_accuracy": 0.47579983593109104,
      "eval_f1": 0.6637362637362638,
      "eval_loss": 0.34490737318992615,
      "eval_roc_auc": 0.7753556918369672,
      "eval_runtime": 8.0765,
      "eval_samples_per_second": 150.932,
      "eval_steps_per_second": 9.534,
      "step": 480
    },
    {
      "epoch": 3.19,
      "eval_accuracy": 0.48810500410172275,
      "eval_f1": 0.6668755875900971,
      "eval_loss": 0.35075822472572327,
      "eval_roc_auc": 0.7775339122793552,
      "eval_runtime": 8.0653,
      "eval_samples_per_second": 151.141,
      "eval_steps_per_second": 9.547,
      "step": 485
    },
    {
      "epoch": 3.22,
      "eval_accuracy": 0.4774405250205086,
      "eval_f1": 0.666248037676609,
      "eval_loss": 0.3463837206363678,
      "eval_roc_auc": 0.7769043945020421,
      "eval_runtime": 8.0565,
      "eval_samples_per_second": 151.306,
      "eval_steps_per_second": 9.557,
      "step": 490
    },
    {
      "epoch": 3.26,
      "eval_accuracy": 0.47908121410992616,
      "eval_f1": 0.6647780925401322,
      "eval_loss": 0.34430888295173645,
      "eval_roc_auc": 0.7756778617993557,
      "eval_runtime": 8.0909,
      "eval_samples_per_second": 150.663,
      "eval_steps_per_second": 9.517,
      "step": 495
    },
    {
      "epoch": 3.29,
      "learning_rate": 1.3978494623655916e-05,
      "loss": 0.2963,
      "step": 500
    },
    {
      "epoch": 3.29,
      "eval_accuracy": 0.47333880229696473,
      "eval_f1": 0.6563487049905243,
      "eval_loss": 0.3461548984050751,
      "eval_roc_auc": 0.7700712257121909,
      "eval_runtime": 8.0569,
      "eval_samples_per_second": 151.3,
      "eval_steps_per_second": 9.557,
      "step": 500
    },
    {
      "epoch": 3.32,
      "eval_accuracy": 0.47579983593109104,
      "eval_f1": 0.6591194968553459,
      "eval_loss": 0.3491568863391876,
      "eval_roc_auc": 0.7723144518584592,
      "eval_runtime": 8.1051,
      "eval_samples_per_second": 150.399,
      "eval_steps_per_second": 9.5,
      "step": 505
    },
    {
      "epoch": 3.35,
      "eval_accuracy": 0.47662018047579985,
      "eval_f1": 0.6647851991219818,
      "eval_loss": 0.3471924662590027,
      "eval_roc_auc": 0.7761625460214444,
      "eval_runtime": 8.0742,
      "eval_samples_per_second": 150.974,
      "eval_steps_per_second": 9.537,
      "step": 510
    },
    {
      "epoch": 3.39,
      "eval_accuracy": 0.4807219031993437,
      "eval_f1": 0.6693800876643706,
      "eval_loss": 0.3460114002227783,
      "eval_roc_auc": 0.7792037859999523,
      "eval_runtime": 8.0393,
      "eval_samples_per_second": 151.631,
      "eval_steps_per_second": 9.578,
      "step": 515
    },
    {
      "epoch": 3.42,
      "eval_accuracy": 0.4807219031993437,
      "eval_f1": 0.6662484316185696,
      "eval_loss": 0.34698164463043213,
      "eval_roc_auc": 0.7770255655575641,
      "eval_runtime": 8.0734,
      "eval_samples_per_second": 150.989,
      "eval_steps_per_second": 9.537,
      "step": 520
    },
    {
      "epoch": 3.45,
      "eval_accuracy": 0.4774405250205086,
      "eval_f1": 0.6630982367758187,
      "eval_loss": 0.34761515259742737,
      "eval_roc_auc": 0.7746050030041316,
      "eval_runtime": 8.0553,
      "eval_samples_per_second": 151.33,
      "eval_steps_per_second": 9.559,
      "step": 525
    },
    {
      "epoch": 3.49,
      "eval_accuracy": 0.4815422477440525,
      "eval_f1": 0.6607650964274423,
      "eval_loss": 0.3522477149963379,
      "eval_roc_auc": 0.7726602843205501,
      "eval_runtime": 8.0156,
      "eval_samples_per_second": 152.078,
      "eval_steps_per_second": 9.606,
      "step": 530
    },
    {
      "epoch": 3.52,
      "eval_accuracy": 0.4815422477440525,
      "eval_f1": 0.6630914826498423,
      "eval_loss": 0.34738022089004517,
      "eval_roc_auc": 0.7743626608930873,
      "eval_runtime": 8.0475,
      "eval_samples_per_second": 151.475,
      "eval_steps_per_second": 9.568,
      "step": 535
    },
    {
      "epoch": 3.55,
      "eval_accuracy": 0.48482362592288764,
      "eval_f1": 0.6662448592217652,
      "eval_loss": 0.345348984003067,
      "eval_roc_auc": 0.7759350260578646,
      "eval_runtime": 8.0913,
      "eval_samples_per_second": 150.655,
      "eval_steps_per_second": 9.516,
      "step": 540
    },
    {
      "epoch": 3.58,
      "eval_accuracy": 0.48482362592288764,
      "eval_f1": 0.6649858178380083,
      "eval_loss": 0.3467084765434265,
      "eval_roc_auc": 0.7756453589474157,
      "eval_runtime": 8.0919,
      "eval_samples_per_second": 150.645,
      "eval_steps_per_second": 9.516,
      "step": 545
    },
    {
      "epoch": 3.62,
      "eval_accuracy": 0.48236259228876127,
      "eval_f1": 0.6693903205531113,
      "eval_loss": 0.34813961386680603,
      "eval_roc_auc": 0.7787191017778635,
      "eval_runtime": 8.082,
      "eval_samples_per_second": 150.829,
      "eval_steps_per_second": 9.527,
      "step": 550
    },
    {
      "epoch": 3.65,
      "eval_accuracy": 0.4807219031993437,
      "eval_f1": 0.664366373902133,
      "eval_loss": 0.34944310784339905,
      "eval_roc_auc": 0.775864038558758,
      "eval_runtime": 8.0683,
      "eval_samples_per_second": 151.085,
      "eval_steps_per_second": 9.544,
      "step": 555
    },
    {
      "epoch": 3.68,
      "eval_accuracy": 0.47662018047579985,
      "eval_f1": 0.6641556811048337,
      "eval_loss": 0.3509270250797272,
      "eval_roc_auc": 0.7756541992996535,
      "eval_runtime": 8.0652,
      "eval_samples_per_second": 151.143,
      "eval_steps_per_second": 9.547,
      "step": 560
    },
    {
      "epoch": 3.71,
      "eval_accuracy": 0.48482362592288764,
      "eval_f1": 0.6643356643356644,
      "eval_loss": 0.35208597779273987,
      "eval_roc_auc": 0.7741676437814473,
      "eval_runtime": 8.0959,
      "eval_samples_per_second": 150.57,
      "eval_steps_per_second": 9.511,
      "step": 565
    },
    {
      "epoch": 3.75,
      "eval_accuracy": 0.4856439704675964,
      "eval_f1": 0.6613571201019434,
      "eval_loss": 0.3546281158924103,
      "eval_roc_auc": 0.7720780915426414,
      "eval_runtime": 8.0853,
      "eval_samples_per_second": 150.768,
      "eval_steps_per_second": 9.523,
      "step": 570
    },
    {
      "epoch": 3.78,
      "eval_accuracy": 0.48974569319114025,
      "eval_f1": 0.6609085092770313,
      "eval_loss": 0.35449764132499695,
      "eval_roc_auc": 0.7712948998578663,
      "eval_runtime": 8.0965,
      "eval_samples_per_second": 150.56,
      "eval_steps_per_second": 9.51,
      "step": 575
    },
    {
      "epoch": 3.81,
      "eval_accuracy": 0.4741591468416735,
      "eval_f1": 0.6590693257359924,
      "eval_loss": 0.3518923223018646,
      "eval_roc_auc": 0.7714662544698039,
      "eval_runtime": 8.0558,
      "eval_samples_per_second": 151.319,
      "eval_steps_per_second": 9.558,
      "step": 580
    },
    {
      "epoch": 3.85,
      "eval_accuracy": 0.46759639048400325,
      "eval_f1": 0.6605850896508336,
      "eval_loss": 0.3499365746974945,
      "eval_roc_auc": 0.7731774713945788,
      "eval_runtime": 8.0708,
      "eval_samples_per_second": 151.039,
      "eval_steps_per_second": 9.541,
      "step": 585
    },
    {
      "epoch": 3.88,
      "eval_accuracy": 0.4716981132075472,
      "eval_f1": 0.6620472440944882,
      "eval_loss": 0.3486621081829071,
      "eval_roc_auc": 0.7739193198751764,
      "eval_runtime": 8.0576,
      "eval_samples_per_second": 151.286,
      "eval_steps_per_second": 9.556,
      "step": 590
    },
    {
      "epoch": 3.91,
      "eval_accuracy": 0.47579983593109104,
      "eval_f1": 0.6603415559772297,
      "eval_loss": 0.34950992465019226,
      "eval_roc_auc": 0.7723617768578637,
      "eval_runtime": 8.0942,
      "eval_samples_per_second": 150.602,
      "eval_steps_per_second": 9.513,
      "step": 595
    },
    {
      "epoch": 3.94,
      "eval_accuracy": 0.4815422477440525,
      "eval_f1": 0.6607426213900349,
      "eval_loss": 0.35378649830818176,
      "eval_roc_auc": 0.7721756000984613,
      "eval_runtime": 8.1062,
      "eval_samples_per_second": 150.378,
      "eval_steps_per_second": 9.499,
      "step": 600
    },
    {
      "epoch": 3.98,
      "eval_accuracy": 0.4831829368334701,
      "eval_f1": 0.6641342196897753,
      "eval_loss": 0.35409852862358093,
      "eval_roc_auc": 0.774563659799954,
      "eval_runtime": 8.0838,
      "eval_samples_per_second": 150.795,
      "eval_steps_per_second": 9.525,
      "step": 605
    },
    {
      "epoch": 4.01,
      "eval_accuracy": 0.4831829368334701,
      "eval_f1": 0.6672973825291706,
      "eval_loss": 0.351367324590683,
      "eval_roc_auc": 0.7769842223533865,
      "eval_runtime": 8.0734,
      "eval_samples_per_second": 150.99,
      "eval_steps_per_second": 9.538,
      "step": 610
    },
    {
      "epoch": 4.05,
      "eval_accuracy": 0.47990155865463496,
      "eval_f1": 0.6677155443675268,
      "eval_loss": 0.34959647059440613,
      "eval_roc_auc": 0.7775250719271174,
      "eval_runtime": 8.0711,
      "eval_samples_per_second": 151.032,
      "eval_steps_per_second": 9.54,
      "step": 615
    },
    {
      "epoch": 4.08,
      "eval_accuracy": 0.47579983593109104,
      "eval_f1": 0.6658338538413491,
      "eval_loss": 0.3498840630054474,
      "eval_roc_auc": 0.7773329133724886,
      "eval_runtime": 8.053,
      "eval_samples_per_second": 151.373,
      "eval_steps_per_second": 9.562,
      "step": 620
    },
    {
      "epoch": 4.11,
      "eval_accuracy": 0.47333880229696473,
      "eval_f1": 0.6603832862079798,
      "eval_loss": 0.3526219427585602,
      "eval_roc_auc": 0.7732099742465187,
      "eval_runtime": 8.1166,
      "eval_samples_per_second": 150.186,
      "eval_steps_per_second": 9.487,
      "step": 625
    },
    {
      "epoch": 4.14,
      "eval_accuracy": 0.47087776866283837,
      "eval_f1": 0.6584905660377358,
      "eval_loss": 0.35371682047843933,
      "eval_roc_auc": 0.7719272761921903,
      "eval_runtime": 8.0845,
      "eval_samples_per_second": 150.783,
      "eval_steps_per_second": 9.524,
      "step": 630
    },
    {
      "epoch": 4.18,
      "eval_accuracy": 0.4741591468416735,
      "eval_f1": 0.6616352201257862,
      "eval_loss": 0.3551631271839142,
      "eval_roc_auc": 0.7738631545235342,
      "eval_runtime": 8.0494,
      "eval_samples_per_second": 151.439,
      "eval_steps_per_second": 9.566,
      "step": 635
    },
    {
      "epoch": 4.21,
      "eval_accuracy": 0.47908121410992616,
      "eval_f1": 0.6620428751576293,
      "eval_loss": 0.3576388359069824,
      "eval_roc_auc": 0.7737981488196541,
      "eval_runtime": 8.0844,
      "eval_samples_per_second": 150.784,
      "eval_steps_per_second": 9.524,
      "step": 640
    },
    {
      "epoch": 4.24,
      "eval_accuracy": 0.4774405250205086,
      "eval_f1": 0.6622641509433962,
      "eval_loss": 0.36125418543815613,
      "eval_roc_auc": 0.7742503301898029,
      "eval_runtime": 8.0863,
      "eval_samples_per_second": 150.75,
      "eval_steps_per_second": 9.522,
      "step": 645
    },
    {
      "epoch": 4.28,
      "eval_accuracy": 0.4774405250205086,
      "eval_f1": 0.6605850896508336,
      "eval_loss": 0.3601521849632263,
      "eval_roc_auc": 0.7731774713945788,
      "eval_runtime": 8.1169,
      "eval_samples_per_second": 150.181,
      "eval_steps_per_second": 9.486,
      "step": 650
    },
    {
      "epoch": 4.31,
      "eval_accuracy": 0.47333880229696473,
      "eval_f1": 0.6584982720703738,
      "eval_loss": 0.35952436923980713,
      "eval_roc_auc": 0.7720484472477125,
      "eval_runtime": 8.0861,
      "eval_samples_per_second": 150.752,
      "eval_steps_per_second": 9.522,
      "step": 655
    },
    {
      "epoch": 4.34,
      "eval_accuracy": 0.47662018047579985,
      "eval_f1": 0.6618614854277657,
      "eval_loss": 0.36110106110572815,
      "eval_roc_auc": 0.7744365069492051,
      "eval_runtime": 8.1116,
      "eval_samples_per_second": 150.279,
      "eval_steps_per_second": 9.493,
      "step": 660
    },
    {
      "epoch": 4.37,
      "eval_accuracy": 0.47662018047579985,
      "eval_f1": 0.6614123581336696,
      "eval_loss": 0.36519908905029297,
      "eval_roc_auc": 0.7734109731533854,
      "eval_runtime": 8.1094,
      "eval_samples_per_second": 150.319,
      "eval_steps_per_second": 9.495,
      "step": 665
    },
    {
      "epoch": 4.41,
      "eval_accuracy": 0.47662018047579985,
      "eval_f1": 0.6546489563567363,
      "eval_loss": 0.37031620740890503,
      "eval_roc_auc": 0.7688771958614447,
      "eval_runtime": 8.0581,
      "eval_samples_per_second": 151.276,
      "eval_steps_per_second": 9.556,
      "step": 670
    },
    {
      "epoch": 4.44,
      "eval_accuracy": 0.4725184577522559,
      "eval_f1": 0.6549007248660572,
      "eval_loss": 0.36784622073173523,
      "eval_roc_auc": 0.7694505482871155,
      "eval_runtime": 8.0768,
      "eval_samples_per_second": 150.926,
      "eval_steps_per_second": 9.533,
      "step": 675
    },
    {
      "epoch": 4.47,
      "eval_accuracy": 0.4700574241181296,
      "eval_f1": 0.6578699340245051,
      "eval_loss": 0.3633647561073303,
      "eval_roc_auc": 0.7716612715814437,
      "eval_runtime": 8.0782,
      "eval_samples_per_second": 150.9,
      "eval_steps_per_second": 9.532,
      "step": 680
    },
    {
      "epoch": 4.5,
      "eval_accuracy": 0.4741591468416735,
      "eval_f1": 0.6637445209768316,
      "eval_loss": 0.36006802320480347,
      "eval_roc_auc": 0.7757192050035334,
      "eval_runtime": 8.0844,
      "eval_samples_per_second": 150.784,
      "eval_steps_per_second": 9.525,
      "step": 685
    },
    {
      "epoch": 4.54,
      "eval_accuracy": 0.4749794913863823,
      "eval_f1": 0.6645904702584864,
      "eval_loss": 0.35926443338394165,
      "eval_roc_auc": 0.7769220752065175,
      "eval_runtime": 8.0867,
      "eval_samples_per_second": 150.741,
      "eval_steps_per_second": 9.522,
      "step": 690
    },
    {
      "epoch": 4.57,
      "eval_accuracy": 0.4700574241181296,
      "eval_f1": 0.6603951081843838,
      "eval_loss": 0.3596161901950836,
      "eval_roc_auc": 0.7734523163575631,
      "eval_runtime": 8.1011,
      "eval_samples_per_second": 150.473,
      "eval_steps_per_second": 9.505,
      "step": 695
    },
    {
      "epoch": 4.6,
      "eval_accuracy": 0.4725184577522559,
      "eval_f1": 0.6592920353982301,
      "eval_loss": 0.36097079515457153,
      "eval_roc_auc": 0.7717972647844303,
      "eval_runtime": 8.0728,
      "eval_samples_per_second": 151.002,
      "eval_steps_per_second": 9.538,
      "step": 700
    },
    {
      "epoch": 4.64,
      "eval_accuracy": 0.4782608695652174,
      "eval_f1": 0.6590765338393421,
      "eval_loss": 0.3633251190185547,
      "eval_roc_auc": 0.7715874255253261,
      "eval_runtime": 8.0784,
      "eval_samples_per_second": 150.897,
      "eval_steps_per_second": 9.532,
      "step": 705
    },
    {
      "epoch": 4.67,
      "eval_accuracy": 0.47662018047579985,
      "eval_f1": 0.6546830652790918,
      "eval_loss": 0.3654661774635315,
      "eval_roc_auc": 0.7692407090280112,
      "eval_runtime": 8.1095,
      "eval_samples_per_second": 150.318,
      "eval_steps_per_second": 9.495,
      "step": 710
    },
    {
      "epoch": 4.7,
      "eval_accuracy": 0.47579983593109104,
      "eval_f1": 0.6565656565656566,
      "eval_loss": 0.36668550968170166,
      "eval_roc_auc": 0.7702810649712954,
      "eval_runtime": 8.0866,
      "eval_samples_per_second": 150.743,
      "eval_steps_per_second": 9.522,
      "step": 715
    },
    {
      "epoch": 4.73,
      "eval_accuracy": 0.4774405250205086,
      "eval_f1": 0.6591123701605287,
      "eval_loss": 0.3658475875854492,
      "eval_roc_auc": 0.7721932808029368,
      "eval_runtime": 8.0746,
      "eval_samples_per_second": 150.968,
      "eval_steps_per_second": 9.536,
      "step": 720
    },
    {
      "epoch": 4.77,
      "eval_accuracy": 0.47990155865463496,
      "eval_f1": 0.6618524332810047,
      "eval_loss": 0.36518335342407227,
      "eval_roc_auc": 0.7741941648381606,
      "eval_runtime": 8.0914,
      "eval_samples_per_second": 150.653,
      "eval_steps_per_second": 9.516,
      "step": 725
    },
    {
      "epoch": 4.8,
      "eval_accuracy": 0.4774405250205086,
      "eval_f1": 0.662907268170426,
      "eval_loss": 0.3647415339946747,
      "eval_roc_auc": 0.7751221900781603,
      "eval_runtime": 8.1073,
      "eval_samples_per_second": 150.358,
      "eval_steps_per_second": 9.498,
      "step": 730
    },
    {
      "epoch": 4.83,
      "eval_accuracy": 0.47662018047579985,
      "eval_f1": 0.6633197364292438,
      "eval_loss": 0.364676296710968,
      "eval_roc_auc": 0.7751783554298026,
      "eval_runtime": 8.1078,
      "eval_samples_per_second": 150.349,
      "eval_steps_per_second": 9.497,
      "step": 735
    },
    {
      "epoch": 4.87,
      "eval_accuracy": 0.47579983593109104,
      "eval_f1": 0.6618569636135508,
      "eval_loss": 0.36451807618141174,
      "eval_roc_auc": 0.7743153358936828,
      "eval_runtime": 8.0801,
      "eval_samples_per_second": 150.864,
      "eval_steps_per_second": 9.53,
      "step": 740
    },
    {
      "epoch": 4.9,
      "eval_accuracy": 0.47579983593109104,
      "eval_f1": 0.6629107981220657,
      "eval_loss": 0.3643569052219391,
      "eval_roc_auc": 0.7752433611336825,
      "eval_runtime": 8.1188,
      "eval_samples_per_second": 150.146,
      "eval_steps_per_second": 9.484,
      "step": 745
    },
    {
      "epoch": 4.93,
      "eval_accuracy": 0.47333880229696473,
      "eval_f1": 0.6624921728240452,
      "eval_loss": 0.3643324673175812,
      "eval_roc_auc": 0.7749448536709959,
      "eval_runtime": 8.1096,
      "eval_samples_per_second": 150.315,
      "eval_steps_per_second": 9.495,
      "step": 750
    },
    {
      "epoch": 4.96,
      "eval_accuracy": 0.4725184577522559,
      "eval_f1": 0.6624960900844543,
      "eval_loss": 0.36432981491088867,
      "eval_roc_auc": 0.7750660247265182,
      "eval_runtime": 8.118,
      "eval_samples_per_second": 150.159,
      "eval_steps_per_second": 9.485,
      "step": 755
    },
    {
      "epoch": 5.0,
      "eval_accuracy": 0.4725184577522559,
      "eval_f1": 0.6616588419405321,
      "eval_loss": 0.3643074333667755,
      "eval_roc_auc": 0.7744690098011451,
      "eval_runtime": 8.1118,
      "eval_samples_per_second": 150.274,
      "eval_steps_per_second": 9.492,
      "step": 760
    }
  ],
  "max_steps": 760,
  "num_train_epochs": 5,
  "total_flos": 2104191122173056.0,
  "trial_name": null,
  "trial_params": null
}
