{
  "best_metric": 0.3090260326862335,
  "best_model_checkpoint": "/content/checkpoints/gelectra_large_finetuned_s0_cv0_ml/checkpoint-310",
  "epoch": 4.99672131147541,
  "global_step": 760,
  "is_hyper_param_search": false,
  "is_local_process_zero": true,
  "is_world_process_zero": true,
  "log_history": [
    {
      "epoch": 0.03,
      "eval_accuracy": 0.10983606557377049,
      "eval_f1": 0.2741984732824427,
      "eval_loss": 0.6786929368972778,
      "eval_roc_auc": 0.5325595281321358,
      "eval_runtime": 21.9372,
      "eval_samples_per_second": 55.613,
      "eval_steps_per_second": 3.51,
      "step": 5
    },
    {
      "epoch": 0.07,
      "eval_accuracy": 0.03360655737704918,
      "eval_f1": 0.09379885356956749,
      "eval_loss": 0.6196774840354919,
      "eval_roc_auc": 0.5104604907490339,
      "eval_runtime": 21.7632,
      "eval_samples_per_second": 56.058,
      "eval_steps_per_second": 3.538,
      "step": 10
    },
    {
      "epoch": 0.1,
      "eval_accuracy": 0.002459016393442623,
      "eval_f1": 0.006071645415907711,
      "eval_loss": 0.5535153746604919,
      "eval_roc_auc": 0.500913396754698,
      "eval_runtime": 21.7556,
      "eval_samples_per_second": 56.077,
      "eval_steps_per_second": 3.539,
      "step": 15
    },
    {
      "epoch": 0.13,
      "eval_accuracy": 0.33934426229508197,
      "eval_f1": 0.41684511063526053,
      "eval_loss": 0.5056324601173401,
      "eval_roc_auc": 0.6273179863313241,
      "eval_runtime": 21.7657,
      "eval_samples_per_second": 56.052,
      "eval_steps_per_second": 3.538,
      "step": 20
    },
    {
      "epoch": 0.16,
      "eval_accuracy": 0.37131147540983606,
      "eval_f1": 0.43955276030747725,
      "eval_loss": 0.4802221655845642,
      "eval_roc_auc": 0.6397601930075121,
      "eval_runtime": 21.7555,
      "eval_samples_per_second": 56.078,
      "eval_steps_per_second": 3.539,
      "step": 25
    },
    {
      "epoch": 0.2,
      "eval_accuracy": 0.22049180327868853,
      "eval_f1": 0.3104276790004805,
      "eval_loss": 0.46301624178886414,
      "eval_roc_auc": 0.5879588164572794,
      "eval_runtime": 21.7894,
      "eval_samples_per_second": 55.991,
      "eval_steps_per_second": 3.534,
      "step": 30
    },
    {
      "epoch": 0.23,
      "eval_accuracy": 0.010655737704918032,
      "eval_f1": 0.015776699029126214,
      "eval_loss": 0.4565686881542206,
      "eval_roc_auc": 0.5039755351681957,
      "eval_runtime": 21.7814,
      "eval_samples_per_second": 56.011,
      "eval_steps_per_second": 3.535,
      "step": 35
    },
    {
      "epoch": 0.26,
      "eval_accuracy": 0.1901639344262295,
      "eval_f1": 0.2694041061592388,
      "eval_loss": 0.4488065242767334,
      "eval_roc_auc": 0.57408357741683,
      "eval_runtime": 21.7865,
      "eval_samples_per_second": 55.998,
      "eval_steps_per_second": 3.534,
      "step": 40
    },
    {
      "epoch": 0.3,
      "eval_accuracy": 0.37459016393442623,
      "eval_f1": 0.4417952314165498,
      "eval_loss": 0.444733202457428,
      "eval_roc_auc": 0.6410334616284604,
      "eval_runtime": 21.7858,
      "eval_samples_per_second": 56.0,
      "eval_steps_per_second": 3.534,
      "step": 45
    },
    {
      "epoch": 0.33,
      "eval_accuracy": 0.1040983606557377,
      "eval_f1": 0.1487323943661972,
      "eval_loss": 0.4393087327480316,
      "eval_roc_auc": 0.5396633664964134,
      "eval_runtime": 21.7824,
      "eval_samples_per_second": 56.008,
      "eval_steps_per_second": 3.535,
      "step": 50
    },
    {
      "epoch": 0.36,
      "eval_accuracy": 0.2680327868852459,
      "eval_f1": 0.3574788334901223,
      "eval_loss": 0.4297744631767273,
      "eval_roc_auc": 0.6064454180888061,
      "eval_runtime": 21.7849,
      "eval_samples_per_second": 56.002,
      "eval_steps_per_second": 3.535,
      "step": 55
    },
    {
      "epoch": 0.39,
      "eval_accuracy": 0.4204918032786885,
      "eval_f1": 0.5400073072707344,
      "eval_loss": 0.4226430058479309,
      "eval_roc_auc": 0.6940677624200173,
      "eval_runtime": 21.7988,
      "eval_samples_per_second": 55.966,
      "eval_steps_per_second": 3.532,
      "step": 60
    },
    {
      "epoch": 0.43,
      "eval_accuracy": 0.4163934426229508,
      "eval_f1": 0.5346831646044244,
      "eval_loss": 0.41092219948768616,
      "eval_roc_auc": 0.6899865249772053,
      "eval_runtime": 21.8249,
      "eval_samples_per_second": 55.899,
      "eval_steps_per_second": 3.528,
      "step": 65
    },
    {
      "epoch": 0.46,
      "eval_accuracy": 0.32049180327868854,
      "eval_f1": 0.4688552188552188,
      "eval_loss": 0.4109255373477936,
      "eval_roc_auc": 0.6541534538823396,
      "eval_runtime": 21.8087,
      "eval_samples_per_second": 55.941,
      "eval_steps_per_second": 3.531,
      "step": 70
    },
    {
      "epoch": 0.49,
      "eval_accuracy": 0.3950819672131147,
      "eval_f1": 0.5186915887850467,
      "eval_loss": 0.39859259128570557,
      "eval_roc_auc": 0.6801868751664206,
      "eval_runtime": 21.8094,
      "eval_samples_per_second": 55.939,
      "eval_steps_per_second": 3.531,
      "step": 75
    },
    {
      "epoch": 0.52,
      "eval_accuracy": 0.35327868852459016,
      "eval_f1": 0.49042975803539185,
      "eval_loss": 0.4204733073711395,
      "eval_roc_auc": 0.6676276697893216,
      "eval_runtime": 21.8162,
      "eval_samples_per_second": 55.922,
      "eval_steps_per_second": 3.529,
      "step": 80
    },
    {
      "epoch": 0.56,
      "eval_accuracy": 0.3942622950819672,
      "eval_f1": 0.4979284369114877,
      "eval_loss": 0.40978139638900757,
      "eval_roc_auc": 0.6705663544011683,
      "eval_runtime": 21.8188,
      "eval_samples_per_second": 55.915,
      "eval_steps_per_second": 3.529,
      "step": 85
    },
    {
      "epoch": 0.59,
      "eval_accuracy": 0.44672131147540983,
      "eval_f1": 0.5712209302325582,
      "eval_loss": 0.3832865357398987,
      "eval_roc_auc": 0.711255275027636,
      "eval_runtime": 21.8143,
      "eval_samples_per_second": 55.927,
      "eval_steps_per_second": 3.53,
      "step": 90
    },
    {
      "epoch": 0.62,
      "eval_accuracy": 0.45901639344262296,
      "eval_f1": 0.6074074074074075,
      "eval_loss": 0.3773348331451416,
      "eval_roc_auc": 0.7334874488634989,
      "eval_runtime": 21.8098,
      "eval_samples_per_second": 55.938,
      "eval_steps_per_second": 3.531,
      "step": 95
    },
    {
      "epoch": 0.66,
      "eval_accuracy": 0.4385245901639344,
      "eval_f1": 0.5896243291592129,
      "eval_loss": 0.37537068128585815,
      "eval_roc_auc": 0.7224363163967628,
      "eval_runtime": 21.8238,
      "eval_samples_per_second": 55.902,
      "eval_steps_per_second": 3.528,
      "step": 100
    },
    {
      "epoch": 0.69,
      "eval_accuracy": 0.4385245901639344,
      "eval_f1": 0.5603794235680409,
      "eval_loss": 0.38620105385780334,
      "eval_roc_auc": 0.7051350326386031,
      "eval_runtime": 21.7961,
      "eval_samples_per_second": 55.973,
      "eval_steps_per_second": 3.533,
      "step": 105
    },
    {
      "epoch": 0.72,
      "eval_accuracy": 0.39672131147540984,
      "eval_f1": 0.5512915129151291,
      "eval_loss": 0.3860737979412079,
      "eval_roc_auc": 0.6995925217657928,
      "eval_runtime": 21.8458,
      "eval_samples_per_second": 55.846,
      "eval_steps_per_second": 3.525,
      "step": 110
    },
    {
      "epoch": 0.75,
      "eval_accuracy": 0.4360655737704918,
      "eval_f1": 0.572072072072072,
      "eval_loss": 0.3667046129703522,
      "eval_roc_auc": 0.7095446733315582,
      "eval_runtime": 21.8488,
      "eval_samples_per_second": 55.838,
      "eval_steps_per_second": 3.524,
      "step": 115
    },
    {
      "epoch": 0.79,
      "eval_accuracy": 0.4524590163934426,
      "eval_f1": 0.5872029250457038,
      "eval_loss": 0.36073917150497437,
      "eval_roc_auc": 0.7194443772038117,
      "eval_runtime": 21.8402,
      "eval_samples_per_second": 55.86,
      "eval_steps_per_second": 3.526,
      "step": 120
    },
    {
      "epoch": 0.82,
      "eval_accuracy": 0.45819672131147543,
      "eval_f1": 0.5953818827708703,
      "eval_loss": 0.36189424991607666,
      "eval_roc_auc": 0.726189957477024,
      "eval_runtime": 21.8072,
      "eval_samples_per_second": 55.945,
      "eval_steps_per_second": 3.531,
      "step": 125
    },
    {
      "epoch": 0.85,
      "eval_accuracy": 0.46311475409836067,
      "eval_f1": 0.6053285968028419,
      "eval_loss": 0.3578508198261261,
      "eval_roc_auc": 0.7317026135089121,
      "eval_runtime": 21.8474,
      "eval_samples_per_second": 55.842,
      "eval_steps_per_second": 3.524,
      "step": 130
    },
    {
      "epoch": 0.89,
      "eval_accuracy": 0.48114754098360657,
      "eval_f1": 0.6139240506329114,
      "eval_loss": 0.35698527097702026,
      "eval_roc_auc": 0.7374210258768851,
      "eval_runtime": 21.8281,
      "eval_samples_per_second": 55.891,
      "eval_steps_per_second": 3.528,
      "step": 135
    },
    {
      "epoch": 0.92,
      "eval_accuracy": 0.4737704918032787,
      "eval_f1": 0.6115357887421821,
      "eval_loss": 0.35300543904304504,
      "eval_roc_auc": 0.7371870284750631,
      "eval_runtime": 21.8423,
      "eval_samples_per_second": 55.855,
      "eval_steps_per_second": 3.525,
      "step": 140
    },
    {
      "epoch": 0.95,
      "eval_accuracy": 0.4491803278688525,
      "eval_f1": 0.6119704102219233,
      "eval_loss": 0.3566034138202667,
      "eval_roc_auc": 0.7405565910612992,
      "eval_runtime": 21.8401,
      "eval_samples_per_second": 55.861,
      "eval_steps_per_second": 3.526,
      "step": 145
    },
    {
      "epoch": 0.98,
      "eval_accuracy": 0.4565573770491803,
      "eval_f1": 0.6009126009126008,
      "eval_loss": 0.3465428650379181,
      "eval_roc_auc": 0.7302873326716854,
      "eval_runtime": 21.8465,
      "eval_samples_per_second": 55.844,
      "eval_steps_per_second": 3.525,
      "step": 150
    },
    {
      "epoch": 1.02,
      "eval_accuracy": 0.48442622950819675,
      "eval_f1": 0.6172927002126152,
      "eval_loss": 0.34532755613327026,
      "eval_roc_auc": 0.7385684200334051,
      "eval_runtime": 21.8307,
      "eval_samples_per_second": 55.885,
      "eval_steps_per_second": 3.527,
      "step": 155
    },
    {
      "epoch": 1.05,
      "eval_accuracy": 0.46147540983606555,
      "eval_f1": 0.6401853690830851,
      "eval_loss": 0.3524417281150818,
      "eval_roc_auc": 0.7588672911976633,
      "eval_runtime": 21.8111,
      "eval_samples_per_second": 55.935,
      "eval_steps_per_second": 3.53,
      "step": 160
    },
    {
      "epoch": 1.09,
      "eval_accuracy": 0.43688524590163935,
      "eval_f1": 0.6323713927227101,
      "eval_loss": 0.362272709608078,
      "eval_roc_auc": 0.7603237233021067,
      "eval_runtime": 21.8256,
      "eval_samples_per_second": 55.898,
      "eval_steps_per_second": 3.528,
      "step": 165
    },
    {
      "epoch": 1.12,
      "eval_accuracy": 0.4704918032786885,
      "eval_f1": 0.635058430717863,
      "eval_loss": 0.3547295033931732,
      "eval_roc_auc": 0.7548538323126205,
      "eval_runtime": 21.8085,
      "eval_samples_per_second": 55.942,
      "eval_steps_per_second": 3.531,
      "step": 170
    },
    {
      "epoch": 1.15,
      "eval_accuracy": 0.4778688524590164,
      "eval_f1": 0.648414023372287,
      "eval_loss": 0.34367355704307556,
      "eval_roc_auc": 0.762729055215318,
      "eval_runtime": 21.865,
      "eval_samples_per_second": 55.797,
      "eval_steps_per_second": 3.522,
      "step": 175
    },
    {
      "epoch": 1.18,
      "eval_accuracy": 0.4426229508196721,
      "eval_f1": 0.6324675324675325,
      "eval_loss": 0.34504690766334534,
      "eval_roc_auc": 0.7564345251063074,
      "eval_runtime": 21.8213,
      "eval_samples_per_second": 55.909,
      "eval_steps_per_second": 3.529,
      "step": 180
    },
    {
      "epoch": 1.22,
      "eval_accuracy": 0.46967213114754097,
      "eval_f1": 0.6395663956639567,
      "eval_loss": 0.3376403748989105,
      "eval_roc_auc": 0.7558793864426745,
      "eval_runtime": 21.8352,
      "eval_samples_per_second": 55.873,
      "eval_steps_per_second": 3.526,
      "step": 185
    },
    {
      "epoch": 1.25,
      "eval_accuracy": 0.4704918032786885,
      "eval_f1": 0.6388888888888888,
      "eval_loss": 0.3379831314086914,
      "eval_roc_auc": 0.7554856252975397,
      "eval_runtime": 21.8264,
      "eval_samples_per_second": 55.896,
      "eval_steps_per_second": 3.528,
      "step": 190
    },
    {
      "epoch": 1.28,
      "eval_accuracy": 0.48114754098360657,
      "eval_f1": 0.6442048517520216,
      "eval_loss": 0.3399498462677002,
      "eval_roc_auc": 0.7591973082229916,
      "eval_runtime": 21.8332,
      "eval_samples_per_second": 55.878,
      "eval_steps_per_second": 3.527,
      "step": 195
    },
    {
      "epoch": 1.31,
      "eval_accuracy": 0.4852459016393443,
      "eval_f1": 0.6430034129692832,
      "eval_loss": 0.33836960792541504,
      "eval_roc_auc": 0.7570267805991948,
      "eval_runtime": 21.9026,
      "eval_samples_per_second": 55.701,
      "eval_steps_per_second": 3.516,
      "step": 200
    },
    {
      "epoch": 1.35,
      "eval_accuracy": 0.45819672131147543,
      "eval_f1": 0.64101706256273,
      "eval_loss": 0.33891671895980835,
      "eval_roc_auc": 0.7581378648140527,
      "eval_runtime": 21.8422,
      "eval_samples_per_second": 55.855,
      "eval_steps_per_second": 3.525,
      "step": 205
    },
    {
      "epoch": 1.38,
      "eval_accuracy": 0.48032786885245904,
      "eval_f1": 0.6465400271370421,
      "eval_loss": 0.33346250653266907,
      "eval_roc_auc": 0.759775039739214,
      "eval_runtime": 21.844,
      "eval_samples_per_second": 55.851,
      "eval_steps_per_second": 3.525,
      "step": 210
    },
    {
      "epoch": 1.41,
      "eval_accuracy": 0.4852459016393443,
      "eval_f1": 0.6337680648572436,
      "eval_loss": 0.3324495255947113,
      "eval_roc_auc": 0.7482744708834612,
      "eval_runtime": 21.8219,
      "eval_samples_per_second": 55.907,
      "eval_steps_per_second": 3.529,
      "step": 215
    },
    {
      "epoch": 1.45,
      "eval_accuracy": 0.48770491803278687,
      "eval_f1": 0.6428821266176985,
      "eval_loss": 0.3247162997722626,
      "eval_roc_auc": 0.7542147773393688,
      "eval_runtime": 21.8555,
      "eval_samples_per_second": 55.821,
      "eval_steps_per_second": 3.523,
      "step": 220
    },
    {
      "epoch": 1.48,
      "eval_accuracy": 0.4663934426229508,
      "eval_f1": 0.6370721789223992,
      "eval_loss": 0.33291012048721313,
      "eval_roc_auc": 0.7543922926097165,
      "eval_runtime": 21.8282,
      "eval_samples_per_second": 55.891,
      "eval_steps_per_second": 3.528,
      "step": 225
    },
    {
      "epoch": 1.51,
      "eval_accuracy": 0.5016393442622951,
      "eval_f1": 0.6488340192043895,
      "eval_loss": 0.32816043496131897,
      "eval_roc_auc": 0.7598331356458731,
      "eval_runtime": 21.8691,
      "eval_samples_per_second": 55.787,
      "eval_steps_per_second": 3.521,
      "step": 230
    },
    {
      "epoch": 1.54,
      "eval_accuracy": 0.5024590163934426,
      "eval_f1": 0.6624793388429753,
      "eval_loss": 0.3241986334323883,
      "eval_roc_auc": 0.7722971282870584,
      "eval_runtime": 21.8652,
      "eval_samples_per_second": 55.796,
      "eval_steps_per_second": 3.522,
      "step": 235
    },
    {
      "epoch": 1.58,
      "eval_accuracy": 0.4819672131147541,
      "eval_f1": 0.6563833278634722,
      "eval_loss": 0.32791027426719666,
      "eval_roc_auc": 0.7695746895499987,
      "eval_runtime": 21.8837,
      "eval_samples_per_second": 55.749,
      "eval_steps_per_second": 3.519,
      "step": 240
    },
    {
      "epoch": 1.61,
      "eval_accuracy": 0.5114754098360655,
      "eval_f1": 0.6594227504244483,
      "eval_loss": 0.32137465476989746,
      "eval_roc_auc": 0.7671265925943856,
      "eval_runtime": 21.8415,
      "eval_samples_per_second": 55.857,
      "eval_steps_per_second": 3.525,
      "step": 245
    },
    {
      "epoch": 1.64,
      "eval_accuracy": 0.5016393442622951,
      "eval_f1": 0.652716841039487,
      "eval_loss": 0.3217017948627472,
      "eval_roc_auc": 0.7639684345573818,
      "eval_runtime": 21.8769,
      "eval_samples_per_second": 55.767,
      "eval_steps_per_second": 3.52,
      "step": 250
    },
    {
      "epoch": 1.68,
      "eval_accuracy": 0.4926229508196721,
      "eval_f1": 0.6511162945684772,
      "eval_loss": 0.3234782814979553,
      "eval_roc_auc": 0.7645639176006391,
      "eval_runtime": 21.8742,
      "eval_samples_per_second": 55.774,
      "eval_steps_per_second": 3.52,
      "step": 255
    },
    {
      "epoch": 1.71,
      "eval_accuracy": 0.5065573770491804,
      "eval_f1": 0.6668891855807744,
      "eval_loss": 0.3253459632396698,
      "eval_roc_auc": 0.7736664165315129,
      "eval_runtime": 21.865,
      "eval_samples_per_second": 55.797,
      "eval_steps_per_second": 3.522,
      "step": 260
    },
    {
      "epoch": 1.74,
      "eval_accuracy": 0.5114754098360655,
      "eval_f1": 0.6687033265444671,
      "eval_loss": 0.3324122726917267,
      "eval_roc_auc": 0.7725512978786926,
      "eval_runtime": 21.8816,
      "eval_samples_per_second": 55.755,
      "eval_steps_per_second": 3.519,
      "step": 265
    },
    {
      "epoch": 1.77,
      "eval_accuracy": 0.519672131147541,
      "eval_f1": 0.6735167384819357,
      "eval_loss": 0.32260823249816895,
      "eval_roc_auc": 0.7785133902995973,
      "eval_runtime": 21.8833,
      "eval_samples_per_second": 55.75,
      "eval_steps_per_second": 3.519,
      "step": 270
    },
    {
      "epoch": 1.81,
      "eval_accuracy": 0.48770491803278687,
      "eval_f1": 0.6601941747572816,
      "eval_loss": 0.3231886625289917,
      "eval_roc_auc": 0.7736680303066981,
      "eval_runtime": 21.8487,
      "eval_samples_per_second": 55.838,
      "eval_steps_per_second": 3.524,
      "step": 275
    },
    {
      "epoch": 1.84,
      "eval_accuracy": 0.48278688524590163,
      "eval_f1": 0.6610499027867791,
      "eval_loss": 0.3205152750015259,
      "eval_roc_auc": 0.7740198332970234,
      "eval_runtime": 21.8907,
      "eval_samples_per_second": 55.731,
      "eval_steps_per_second": 3.517,
      "step": 280
    },
    {
      "epoch": 1.87,
      "eval_accuracy": 0.4926229508196721,
      "eval_f1": 0.6621315192743764,
      "eval_loss": 0.31858864426612854,
      "eval_roc_auc": 0.7747194048397118,
      "eval_runtime": 21.8617,
      "eval_samples_per_second": 55.805,
      "eval_steps_per_second": 3.522,
      "step": 285
    },
    {
      "epoch": 1.9,
      "eval_accuracy": 0.5131147540983606,
      "eval_f1": 0.6741203551463335,
      "eval_loss": 0.3147912919521332,
      "eval_roc_auc": 0.7799464226638587,
      "eval_runtime": 21.9186,
      "eval_samples_per_second": 55.661,
      "eval_steps_per_second": 3.513,
      "step": 290
    },
    {
      "epoch": 1.94,
      "eval_accuracy": 0.5008196721311475,
      "eval_f1": 0.659158661808546,
      "eval_loss": 0.31861257553100586,
      "eval_roc_auc": 0.7700685047566024,
      "eval_runtime": 21.881,
      "eval_samples_per_second": 55.756,
      "eval_steps_per_second": 3.519,
      "step": 295
    },
    {
      "epoch": 1.97,
      "eval_accuracy": 0.5245901639344263,
      "eval_f1": 0.6715719063545151,
      "eval_loss": 0.31813547015190125,
      "eval_roc_auc": 0.7761629267426755,
      "eval_runtime": 21.8636,
      "eval_samples_per_second": 55.8,
      "eval_steps_per_second": 3.522,
      "step": 300
    },
    {
      "epoch": 2.01,
      "eval_accuracy": 0.5073770491803279,
      "eval_f1": 0.6773981603153745,
      "eval_loss": 0.3132062554359436,
      "eval_roc_auc": 0.7820451372919239,
      "eval_runtime": 21.8651,
      "eval_samples_per_second": 55.797,
      "eval_steps_per_second": 3.522,
      "step": 305
    },
    {
      "epoch": 2.04,
      "eval_accuracy": 0.5122950819672131,
      "eval_f1": 0.6720053386720054,
      "eval_loss": 0.3090260326862335,
      "eval_roc_auc": 0.7767285549450107,
      "eval_runtime": 21.8425,
      "eval_samples_per_second": 55.854,
      "eval_steps_per_second": 3.525,
      "step": 310
    },
    {
      "epoch": 2.07,
      "eval_accuracy": 0.5180327868852459,
      "eval_f1": 0.6691601496089765,
      "eval_loss": 0.31585466861724854,
      "eval_roc_auc": 0.7725972904714644,
      "eval_runtime": 21.8616,
      "eval_samples_per_second": 55.806,
      "eval_steps_per_second": 3.522,
      "step": 315
    },
    {
      "epoch": 2.1,
      "eval_accuracy": 0.5131147540983606,
      "eval_f1": 0.6673360107095047,
      "eval_loss": 0.31769195199012756,
      "eval_roc_auc": 0.7735825002218941,
      "eval_runtime": 21.8661,
      "eval_samples_per_second": 55.794,
      "eval_steps_per_second": 3.521,
      "step": 320
    },
    {
      "epoch": 2.14,
      "eval_accuracy": 0.5114754098360655,
      "eval_f1": 0.6769635228393034,
      "eval_loss": 0.3108726739883423,
      "eval_roc_auc": 0.7817393268943703,
      "eval_runtime": 21.8886,
      "eval_samples_per_second": 55.737,
      "eval_steps_per_second": 3.518,
      "step": 325
    },
    {
      "epoch": 2.17,
      "eval_accuracy": 0.5114754098360655,
      "eval_f1": 0.67412771560237,
      "eval_loss": 0.31033119559288025,
      "eval_roc_auc": 0.7798165137614679,
      "eval_runtime": 21.855,
      "eval_samples_per_second": 55.822,
      "eval_steps_per_second": 3.523,
      "step": 330
    },
    {
      "epoch": 2.2,
      "eval_accuracy": 0.5262295081967213,
      "eval_f1": 0.6808228268082283,
      "eval_loss": 0.3128810226917267,
      "eval_roc_auc": 0.7827148539936903,
      "eval_runtime": 21.88,
      "eval_samples_per_second": 55.759,
      "eval_steps_per_second": 3.519,
      "step": 335
    },
    {
      "epoch": 2.24,
      "eval_accuracy": 0.49836065573770494,
      "eval_f1": 0.6647058823529411,
      "eval_loss": 0.3217897117137909,
      "eval_roc_auc": 0.7751252692987339,
      "eval_runtime": 21.8769,
      "eval_samples_per_second": 55.766,
      "eval_steps_per_second": 3.52,
      "step": 340
    },
    {
      "epoch": 2.27,
      "eval_accuracy": 0.5204918032786885,
      "eval_f1": 0.6739345887016849,
      "eval_loss": 0.31786587834358215,
      "eval_roc_auc": 0.7792089274043233,
      "eval_runtime": 21.8777,
      "eval_samples_per_second": 55.765,
      "eval_steps_per_second": 3.52,
      "step": 345
    },
    {
      "epoch": 2.3,
      "eval_accuracy": 0.5295081967213114,
      "eval_f1": 0.6841932303647716,
      "eval_loss": 0.314083069562912,
      "eval_roc_auc": 0.7860706994908538,
      "eval_runtime": 21.8816,
      "eval_samples_per_second": 55.755,
      "eval_steps_per_second": 3.519,
      "step": 350
    },
    {
      "epoch": 2.33,
      "eval_accuracy": 0.510655737704918,
      "eval_f1": 0.682626981559366,
      "eval_loss": 0.3146735429763794,
      "eval_roc_auc": 0.7873617196388372,
      "eval_runtime": 21.9012,
      "eval_samples_per_second": 55.705,
      "eval_steps_per_second": 3.516,
      "step": 355
    },
    {
      "epoch": 2.37,
      "eval_accuracy": 0.49508196721311476,
      "eval_f1": 0.6688082235785416,
      "eval_loss": 0.320351243019104,
      "eval_roc_auc": 0.779914147160159,
      "eval_runtime": 21.8756,
      "eval_samples_per_second": 55.77,
      "eval_steps_per_second": 3.52,
      "step": 360
    },
    {
      "epoch": 2.4,
      "eval_accuracy": 0.5073770491803279,
      "eval_f1": 0.6746987951807228,
      "eval_loss": 0.31561002135276794,
      "eval_roc_auc": 0.7816392728329017,
      "eval_runtime": 21.893,
      "eval_samples_per_second": 55.725,
      "eval_steps_per_second": 3.517,
      "step": 365
    },
    {
      "epoch": 2.43,
      "eval_accuracy": 0.5098360655737705,
      "eval_f1": 0.6721311475409837,
      "eval_loss": 0.3166334629058838,
      "eval_roc_auc": 0.7791548659356267,
      "eval_runtime": 21.8743,
      "eval_samples_per_second": 55.773,
      "eval_steps_per_second": 3.52,
      "step": 370
    },
    {
      "epoch": 2.47,
      "eval_accuracy": 0.5073770491803279,
      "eval_f1": 0.6804925469863902,
      "eval_loss": 0.3102528154850006,
      "eval_roc_auc": 0.7858326676510696,
      "eval_runtime": 21.891,
      "eval_samples_per_second": 55.731,
      "eval_steps_per_second": 3.517,
      "step": 375
    },
    {
      "epoch": 2.5,
      "eval_accuracy": 0.49098360655737705,
      "eval_f1": 0.6685934489402697,
      "eval_loss": 0.318923681974411,
      "eval_roc_auc": 0.7798261964125777,
      "eval_runtime": 21.8613,
      "eval_samples_per_second": 55.806,
      "eval_steps_per_second": 3.522,
      "step": 380
    },
    {
      "epoch": 2.53,
      "eval_accuracy": 0.5155737704918033,
      "eval_f1": 0.6777777777777779,
      "eval_loss": 0.3136880397796631,
      "eval_roc_auc": 0.7830004922014314,
      "eval_runtime": 21.9075,
      "eval_samples_per_second": 55.689,
      "eval_steps_per_second": 3.515,
      "step": 385
    },
    {
      "epoch": 2.56,
      "eval_accuracy": 0.5180327868852459,
      "eval_f1": 0.6812827225130891,
      "eval_loss": 0.32238203287124634,
      "eval_roc_auc": 0.7849273397722962,
      "eval_runtime": 21.8483,
      "eval_samples_per_second": 55.839,
      "eval_steps_per_second": 3.524,
      "step": 390
    },
    {
      "epoch": 2.6,
      "eval_accuracy": 0.5147540983606558,
      "eval_f1": 0.6809338521400778,
      "eval_loss": 0.3224671483039856,
      "eval_roc_auc": 0.7860085691462323,
      "eval_runtime": 21.8654,
      "eval_samples_per_second": 55.796,
      "eval_steps_per_second": 3.522,
      "step": 395
    },
    {
      "epoch": 2.63,
      "eval_accuracy": 0.5139344262295082,
      "eval_f1": 0.6764132553606238,
      "eval_loss": 0.32522737979888916,
      "eval_roc_auc": 0.7829924233255064,
      "eval_runtime": 21.8852,
      "eval_samples_per_second": 55.745,
      "eval_steps_per_second": 3.518,
      "step": 400
    },
    {
      "epoch": 2.66,
      "eval_accuracy": 0.5139344262295082,
      "eval_f1": 0.679751390251881,
      "eval_loss": 0.323233425617218,
      "eval_roc_auc": 0.7840518667344452,
      "eval_runtime": 21.8815,
      "eval_samples_per_second": 55.755,
      "eval_steps_per_second": 3.519,
      "step": 405
    },
    {
      "epoch": 2.7,
      "eval_accuracy": 0.5155737704918033,
      "eval_f1": 0.6780439776829669,
      "eval_loss": 0.3252588212490082,
      "eval_roc_auc": 0.7825688073394496,
      "eval_runtime": 21.8855,
      "eval_samples_per_second": 55.745,
      "eval_steps_per_second": 3.518,
      "step": 410
    },
    {
      "epoch": 2.73,
      "eval_accuracy": 0.4934426229508197,
      "eval_f1": 0.6594841658504733,
      "eval_loss": 0.3323316276073456,
      "eval_roc_auc": 0.7721050890400458,
      "eval_runtime": 21.8706,
      "eval_samples_per_second": 55.783,
      "eval_steps_per_second": 3.521,
      "step": 415
    },
    {
      "epoch": 2.76,
      "eval_accuracy": 0.5,
      "eval_f1": 0.6746365105008078,
      "eval_loss": 0.3222222626209259,
      "eval_roc_auc": 0.7826785440520281,
      "eval_runtime": 21.9161,
      "eval_samples_per_second": 55.667,
      "eval_steps_per_second": 3.513,
      "step": 420
    },
    {
      "epoch": 2.79,
      "eval_accuracy": 0.5081967213114754,
      "eval_f1": 0.6773367477592829,
      "eval_loss": 0.32303744554519653,
      "eval_roc_auc": 0.785640628404057,
      "eval_runtime": 21.8951,
      "eval_samples_per_second": 55.72,
      "eval_steps_per_second": 3.517,
      "step": 425
    },
    {
      "epoch": 2.83,
      "eval_accuracy": 0.5057377049180328,
      "eval_f1": 0.6794871794871795,
      "eval_loss": 0.32137516140937805,
      "eval_roc_auc": 0.7867799536846521,
      "eval_runtime": 21.88,
      "eval_samples_per_second": 55.759,
      "eval_steps_per_second": 3.519,
      "step": 430
    },
    {
      "epoch": 2.86,
      "eval_accuracy": 0.49508196721311476,
      "eval_f1": 0.676038338658147,
      "eval_loss": 0.3208633065223694,
      "eval_roc_auc": 0.7851129239185689,
      "eval_runtime": 21.8802,
      "eval_samples_per_second": 55.758,
      "eval_steps_per_second": 3.519,
      "step": 435
    },
    {
      "epoch": 2.89,
      "eval_accuracy": 0.4885245901639344,
      "eval_f1": 0.6666666666666666,
      "eval_loss": 0.3193420469760895,
      "eval_roc_auc": 0.7790346396843455,
      "eval_runtime": 21.9073,
      "eval_samples_per_second": 55.689,
      "eval_steps_per_second": 3.515,
      "step": 440
    },
    {
      "epoch": 2.92,
      "eval_accuracy": 0.5049180327868853,
      "eval_f1": 0.6749266384088686,
      "eval_loss": 0.3165878653526306,
      "eval_roc_auc": 0.7815973146780922,
      "eval_runtime": 21.8376,
      "eval_samples_per_second": 55.867,
      "eval_steps_per_second": 3.526,
      "step": 445
    },
    {
      "epoch": 2.96,
      "eval_accuracy": 0.5,
      "eval_f1": 0.6759649691858579,
      "eval_loss": 0.3164706826210022,
      "eval_roc_auc": 0.7829464307327346,
      "eval_runtime": 21.8852,
      "eval_samples_per_second": 55.746,
      "eval_steps_per_second": 3.518,
      "step": 450
    },
    {
      "epoch": 2.99,
      "eval_accuracy": 0.49508196721311476,
      "eval_f1": 0.6703155183515777,
      "eval_loss": 0.31713148951530457,
      "eval_roc_auc": 0.7805298023932286,
      "eval_runtime": 21.8821,
      "eval_samples_per_second": 55.753,
      "eval_steps_per_second": 3.519,
      "step": 455
    },
    {
      "epoch": 3.03,
      "eval_accuracy": 0.4918032786885246,
      "eval_f1": 0.6670955291090382,
      "eval_loss": 0.31892624497413635,
      "eval_roc_auc": 0.778690905569945,
      "eval_runtime": 21.8765,
      "eval_samples_per_second": 55.768,
      "eval_steps_per_second": 3.52,
      "step": 460
    },
    {
      "epoch": 3.06,
      "eval_accuracy": 0.5155737704918033,
      "eval_f1": 0.6807268007787152,
      "eval_loss": 0.3132103681564331,
      "eval_roc_auc": 0.7857907094962602,
      "eval_runtime": 21.9038,
      "eval_samples_per_second": 55.698,
      "eval_steps_per_second": 3.515,
      "step": 465
    },
    {
      "epoch": 3.09,
      "eval_accuracy": 0.521311475409836,
      "eval_f1": 0.6822157434402332,
      "eval_loss": 0.31522518396377563,
      "eval_roc_auc": 0.7869260003388927,
      "eval_runtime": 21.9047,
      "eval_samples_per_second": 55.696,
      "eval_steps_per_second": 3.515,
      "step": 470
    },
    {
      "epoch": 3.12,
      "eval_accuracy": 0.5024590163934426,
      "eval_f1": 0.6752494367557129,
      "eval_loss": 0.32127031683921814,
      "eval_roc_auc": 0.7835919408067263,
      "eval_runtime": 21.8876,
      "eval_samples_per_second": 55.739,
      "eval_steps_per_second": 3.518,
      "step": 475
    },
    {
      "epoch": 3.16,
      "eval_accuracy": 0.5040983606557377,
      "eval_f1": 0.6782385085181615,
      "eval_loss": 0.3221791684627533,
      "eval_roc_auc": 0.78560270468721,
      "eval_runtime": 21.8755,
      "eval_samples_per_second": 55.77,
      "eval_steps_per_second": 3.52,
      "step": 480
    },
    {
      "epoch": 3.19,
      "eval_accuracy": 0.510655737704918,
      "eval_f1": 0.6832853946947907,
      "eval_loss": 0.32050421833992004,
      "eval_roc_auc": 0.7895322472626338,
      "eval_runtime": 21.8857,
      "eval_samples_per_second": 55.744,
      "eval_steps_per_second": 3.518,
      "step": 485
    },
    {
      "epoch": 3.22,
      "eval_accuracy": 0.5122950819672131,
      "eval_f1": 0.6837224176527023,
      "eval_loss": 0.3228130340576172,
      "eval_roc_auc": 0.7897081487577965,
      "eval_runtime": 21.903,
      "eval_samples_per_second": 55.7,
      "eval_steps_per_second": 3.516,
      "step": 490
    },
    {
      "epoch": 3.26,
      "eval_accuracy": 0.5147540983606558,
      "eval_f1": 0.6853101896496303,
      "eval_loss": 0.329210489988327,
      "eval_roc_auc": 0.7899340772836935,
      "eval_runtime": 21.8886,
      "eval_samples_per_second": 55.737,
      "eval_steps_per_second": 3.518,
      "step": 495
    },
    {
      "epoch": 3.29,
      "learning_rate": 1.0483870967741936e-05,
      "loss": 0.3323,
      "step": 500
    },
    {
      "epoch": 3.29,
      "eval_accuracy": 0.5114754098360655,
      "eval_f1": 0.6854399999999999,
      "eval_loss": 0.325781911611557,
      "eval_roc_auc": 0.790671572543229,
      "eval_runtime": 21.877,
      "eval_samples_per_second": 55.766,
      "eval_steps_per_second": 3.52,
      "step": 500
    },
    {
      "epoch": 3.32,
      "eval_accuracy": 0.5024590163934426,
      "eval_f1": 0.677738741616097,
      "eval_loss": 0.32793113589286804,
      "eval_roc_auc": 0.7862062566063922,
      "eval_runtime": 21.9096,
      "eval_samples_per_second": 55.683,
      "eval_steps_per_second": 3.514,
      "step": 505
    },
    {
      "epoch": 3.35,
      "eval_accuracy": 0.5024590163934426,
      "eval_f1": 0.6775850995504175,
      "eval_loss": 0.32652175426483154,
      "eval_roc_auc": 0.785338852444466,
      "eval_runtime": 21.9151,
      "eval_samples_per_second": 55.669,
      "eval_steps_per_second": 3.514,
      "step": 510
    },
    {
      "epoch": 3.39,
      "eval_accuracy": 0.509016393442623,
      "eval_f1": 0.6845124282982793,
      "eval_loss": 0.32329684495925903,
      "eval_roc_auc": 0.7907094962600761,
      "eval_runtime": 21.9203,
      "eval_samples_per_second": 55.656,
      "eval_steps_per_second": 3.513,
      "step": 515
    },
    {
      "epoch": 3.42,
      "eval_accuracy": 0.5024590163934426,
      "eval_f1": 0.6835764109067851,
      "eval_loss": 0.3223712742328644,
      "eval_roc_auc": 0.7908773288793138,
      "eval_runtime": 21.9086,
      "eval_samples_per_second": 55.686,
      "eval_steps_per_second": 3.515,
      "step": 520
    },
    {
      "epoch": 3.45,
      "eval_accuracy": 0.5073770491803279,
      "eval_f1": 0.6805111821086262,
      "eval_loss": 0.3265375792980194,
      "eval_roc_auc": 0.787869251934513,
      "eval_runtime": 21.8968,
      "eval_samples_per_second": 55.716,
      "eval_steps_per_second": 3.517,
      "step": 525
    },
    {
      "epoch": 3.49,
      "eval_accuracy": 0.5081967213114754,
      "eval_f1": 0.6809326093899712,
      "eval_loss": 0.327115535736084,
      "eval_roc_auc": 0.7881750623320665,
      "eval_runtime": 21.8762,
      "eval_samples_per_second": 55.768,
      "eval_steps_per_second": 3.52,
      "step": 530
    },
    {
      "epoch": 3.52,
      "eval_accuracy": 0.5,
      "eval_f1": 0.6766390833863781,
      "eval_loss": 0.32461017370224,
      "eval_roc_auc": 0.7860263206732669,
      "eval_runtime": 21.906,
      "eval_samples_per_second": 55.692,
      "eval_steps_per_second": 3.515,
      "step": 535
    },
    {
      "epoch": 3.55,
      "eval_accuracy": 0.5163934426229508,
      "eval_f1": 0.680577849117175,
      "eval_loss": 0.3246587812900543,
      "eval_roc_auc": 0.787219707422559,
      "eval_runtime": 21.9011,
      "eval_samples_per_second": 55.705,
      "eval_steps_per_second": 3.516,
      "step": 540
    },
    {
      "epoch": 3.58,
      "eval_accuracy": 0.5131147540983606,
      "eval_f1": 0.677680596047943,
      "eval_loss": 0.32607412338256836,
      "eval_roc_auc": 0.7841696723229488,
      "eval_runtime": 21.89,
      "eval_samples_per_second": 55.733,
      "eval_steps_per_second": 3.518,
      "step": 545
    },
    {
      "epoch": 3.62,
      "eval_accuracy": 0.5057377049180328,
      "eval_f1": 0.6718547341115434,
      "eval_loss": 0.3279855251312256,
      "eval_roc_auc": 0.780495913114344,
      "eval_runtime": 21.87,
      "eval_samples_per_second": 55.784,
      "eval_steps_per_second": 3.521,
      "step": 550
    },
    {
      "epoch": 3.65,
      "eval_accuracy": 0.5098360655737705,
      "eval_f1": 0.6729826853969291,
      "eval_loss": 0.3284313678741455,
      "eval_roc_auc": 0.780156213437906,
      "eval_runtime": 21.8626,
      "eval_samples_per_second": 55.803,
      "eval_steps_per_second": 3.522,
      "step": 555
    },
    {
      "epoch": 3.68,
      "eval_accuracy": 0.5098360655737705,
      "eval_f1": 0.67412771560237,
      "eval_loss": 0.33152779936790466,
      "eval_roc_auc": 0.7798165137614679,
      "eval_runtime": 21.8863,
      "eval_samples_per_second": 55.743,
      "eval_steps_per_second": 3.518,
      "step": 560
    },
    {
      "epoch": 3.71,
      "eval_accuracy": 0.5237704918032787,
      "eval_f1": 0.6839005235602095,
      "eval_loss": 0.3294657766819,
      "eval_roc_auc": 0.7865023843528358,
      "eval_runtime": 21.8925,
      "eval_samples_per_second": 55.727,
      "eval_steps_per_second": 3.517,
      "step": 565
    },
    {
      "epoch": 3.75,
      "eval_accuracy": 0.5180327868852459,
      "eval_f1": 0.6853237878294826,
      "eval_loss": 0.32752639055252075,
      "eval_roc_auc": 0.7881573108050318,
      "eval_runtime": 21.8709,
      "eval_samples_per_second": 55.782,
      "eval_steps_per_second": 3.521,
      "step": 570
    },
    {
      "epoch": 3.78,
      "eval_accuracy": 0.5057377049180328,
      "eval_f1": 0.6809874959923051,
      "eval_loss": 0.32917624711990356,
      "eval_roc_auc": 0.7876554267225033,
      "eval_runtime": 21.8749,
      "eval_samples_per_second": 55.772,
      "eval_steps_per_second": 3.52,
      "step": 575
    },
    {
      "epoch": 3.81,
      "eval_accuracy": 0.510655737704918,
      "eval_f1": 0.6801152737752162,
      "eval_loss": 0.3323761224746704,
      "eval_roc_auc": 0.7873036237321778,
      "eval_runtime": 21.8793,
      "eval_samples_per_second": 55.761,
      "eval_steps_per_second": 3.519,
      "step": 580
    },
    {
      "epoch": 3.85,
      "eval_accuracy": 0.5081967213114754,
      "eval_f1": 0.6786401539448365,
      "eval_loss": 0.33605891466140747,
      "eval_roc_auc": 0.7861683328895451,
      "eval_runtime": 21.9039,
      "eval_samples_per_second": 55.698,
      "eval_steps_per_second": 3.515,
      "step": 585
    },
    {
      "epoch": 3.88,
      "eval_accuracy": 0.49836065573770494,
      "eval_f1": 0.6787186806216302,
      "eval_loss": 0.33389681577682495,
      "eval_roc_auc": 0.7878151904658163,
      "eval_runtime": 21.917,
      "eval_samples_per_second": 55.665,
      "eval_steps_per_second": 3.513,
      "step": 590
    },
    {
      "epoch": 3.91,
      "eval_accuracy": 0.4934426229508197,
      "eval_f1": 0.6730038022813689,
      "eval_loss": 0.3328501582145691,
      "eval_roc_auc": 0.7844012490619933,
      "eval_runtime": 21.8849,
      "eval_samples_per_second": 55.746,
      "eval_steps_per_second": 3.518,
      "step": 595
    },
    {
      "epoch": 3.94,
      "eval_accuracy": 0.5065573770491804,
      "eval_f1": 0.6783999999999999,
      "eval_loss": 0.33186954259872437,
      "eval_roc_auc": 0.7863401999467454,
      "eval_runtime": 21.912,
      "eval_samples_per_second": 55.677,
      "eval_steps_per_second": 3.514,
      "step": 600
    },
    {
      "epoch": 3.98,
      "eval_accuracy": 0.5172131147540984,
      "eval_f1": 0.684430176565008,
      "eval_loss": 0.3317473828792572,
      "eval_roc_auc": 0.7895822742933681,
      "eval_runtime": 21.9198,
      "eval_samples_per_second": 55.657,
      "eval_steps_per_second": 3.513,
      "step": 605
    },
    {
      "epoch": 4.01,
      "eval_accuracy": 0.510655737704918,
      "eval_f1": 0.6826462128475551,
      "eval_loss": 0.33053597807884216,
      "eval_roc_auc": 0.7891384861174989,
      "eval_runtime": 21.8868,
      "eval_samples_per_second": 55.741,
      "eval_steps_per_second": 3.518,
      "step": 610
    },
    {
      "epoch": 4.05,
      "eval_accuracy": 0.5032786885245901,
      "eval_f1": 0.6804058338617629,
      "eval_loss": 0.33105114102363586,
      "eval_roc_auc": 0.7889085231536396,
      "eval_runtime": 21.8439,
      "eval_samples_per_second": 55.851,
      "eval_steps_per_second": 3.525,
      "step": 615
    },
    {
      "epoch": 4.08,
      "eval_accuracy": 0.4967213114754098,
      "eval_f1": 0.6791021182421753,
      "eval_loss": 0.3324759602546692,
      "eval_roc_auc": 0.7885107275705422,
      "eval_runtime": 21.9102,
      "eval_samples_per_second": 55.682,
      "eval_steps_per_second": 3.514,
      "step": 620
    },
    {
      "epoch": 4.11,
      "eval_accuracy": 0.5032786885245901,
      "eval_f1": 0.6822933164396578,
      "eval_loss": 0.33314868807792664,
      "eval_roc_auc": 0.7902197154914349,
      "eval_runtime": 21.8924,
      "eval_samples_per_second": 55.727,
      "eval_steps_per_second": 3.517,
      "step": 625
    },
    {
      "epoch": 4.14,
      "eval_accuracy": 0.49918032786885247,
      "eval_f1": 0.6794136392606756,
      "eval_loss": 0.33429041504859924,
      "eval_roc_auc": 0.787559407098997,
      "eval_runtime": 21.913,
      "eval_samples_per_second": 55.675,
      "eval_steps_per_second": 3.514,
      "step": 630
    },
    {
      "epoch": 4.18,
      "eval_accuracy": 0.5131147540983606,
      "eval_f1": 0.6892366656020442,
      "eval_loss": 0.3339958190917969,
      "eval_roc_auc": 0.7932939572188199,
      "eval_runtime": 21.9049,
      "eval_samples_per_second": 55.695,
      "eval_steps_per_second": 3.515,
      "step": 635
    },
    {
      "epoch": 4.21,
      "eval_accuracy": 0.5122950819672131,
      "eval_f1": 0.6903163950143816,
      "eval_loss": 0.3359556496143341,
      "eval_roc_auc": 0.7938636198591175,
      "eval_runtime": 21.8763,
      "eval_samples_per_second": 55.768,
      "eval_steps_per_second": 3.52,
      "step": 640
    },
    {
      "epoch": 4.24,
      "eval_accuracy": 0.5073770491803279,
      "eval_f1": 0.6847306343640421,
      "eval_loss": 0.3357485830783844,
      "eval_roc_auc": 0.7907974470076574,
      "eval_runtime": 21.8931,
      "eval_samples_per_second": 55.725,
      "eval_steps_per_second": 3.517,
      "step": 645
    },
    {
      "epoch": 4.28,
      "eval_accuracy": 0.4959016393442623,
      "eval_f1": 0.6828193832599119,
      "eval_loss": 0.3366678059101105,
      "eval_roc_auc": 0.7915228389533053,
      "eval_runtime": 21.8914,
      "eval_samples_per_second": 55.73,
      "eval_steps_per_second": 3.517,
      "step": 650
    },
    {
      "epoch": 4.31,
      "eval_accuracy": 0.48688524590163934,
      "eval_f1": 0.6785826277830042,
      "eval_loss": 0.338270902633667,
      "eval_roc_auc": 0.7893740972945059,
      "eval_runtime": 21.8892,
      "eval_samples_per_second": 55.735,
      "eval_steps_per_second": 3.518,
      "step": 655
    },
    {
      "epoch": 4.34,
      "eval_accuracy": 0.49754098360655735,
      "eval_f1": 0.676368237899399,
      "eval_loss": 0.3344690501689911,
      "eval_roc_auc": 0.7867178233400305,
      "eval_runtime": 21.9227,
      "eval_samples_per_second": 55.65,
      "eval_steps_per_second": 3.512,
      "step": 660
    },
    {
      "epoch": 4.37,
      "eval_accuracy": 0.49754098360655735,
      "eval_f1": 0.6768837803320561,
      "eval_loss": 0.333895742893219,
      "eval_roc_auc": 0.7857245447136759,
      "eval_runtime": 21.8963,
      "eval_samples_per_second": 55.717,
      "eval_steps_per_second": 3.517,
      "step": 665
    },
    {
      "epoch": 4.41,
      "eval_accuracy": 0.5024590163934426,
      "eval_f1": 0.6773470041653317,
      "eval_loss": 0.33565783500671387,
      "eval_roc_auc": 0.7855107195016662,
      "eval_runtime": 21.9114,
      "eval_samples_per_second": 55.679,
      "eval_steps_per_second": 3.514,
      "step": 670
    },
    {
      "epoch": 4.44,
      "eval_accuracy": 0.5040983606557377,
      "eval_f1": 0.6777175645521197,
      "eval_loss": 0.33561742305755615,
      "eval_roc_auc": 0.7864660744111737,
      "eval_runtime": 21.9056,
      "eval_samples_per_second": 55.693,
      "eval_steps_per_second": 3.515,
      "step": 675
    },
    {
      "epoch": 4.47,
      "eval_accuracy": 0.5,
      "eval_f1": 0.676423798918231,
      "eval_loss": 0.3355402648448944,
      "eval_roc_auc": 0.7859383699256856,
      "eval_runtime": 21.879,
      "eval_samples_per_second": 55.761,
      "eval_steps_per_second": 3.519,
      "step": 680
    },
    {
      "epoch": 4.5,
      "eval_accuracy": 0.5049180327868853,
      "eval_f1": 0.6809854706253948,
      "eval_loss": 0.3349379599094391,
      "eval_roc_auc": 0.7898219199083376,
      "eval_runtime": 21.9191,
      "eval_samples_per_second": 55.659,
      "eval_steps_per_second": 3.513,
      "step": 685
    },
    {
      "epoch": 4.54,
      "eval_accuracy": 0.5008196721311475,
      "eval_f1": 0.683401317853781,
      "eval_loss": 0.3347450792789459,
      "eval_roc_auc": 0.7923063268056126,
      "eval_runtime": 21.91,
      "eval_samples_per_second": 55.682,
      "eval_steps_per_second": 3.514,
      "step": 690
    },
    {
      "epoch": 4.57,
      "eval_accuracy": 0.5,
      "eval_f1": 0.6835363948766011,
      "eval_loss": 0.3355609178543091,
      "eval_roc_auc": 0.7930438220651481,
      "eval_runtime": 21.8915,
      "eval_samples_per_second": 55.729,
      "eval_steps_per_second": 3.517,
      "step": 695
    },
    {
      "epoch": 4.6,
      "eval_accuracy": 0.5016393442622951,
      "eval_f1": 0.684341859014348,
      "eval_loss": 0.3361116051673889,
      "eval_roc_auc": 0.793785351762646,
      "eval_runtime": 21.9168,
      "eval_samples_per_second": 55.665,
      "eval_steps_per_second": 3.513,
      "step": 700
    },
    {
      "epoch": 4.64,
      "eval_accuracy": 0.5,
      "eval_f1": 0.6818465377417342,
      "eval_loss": 0.33605000376701355,
      "eval_roc_auc": 0.7922103071821066,
      "eval_runtime": 21.9077,
      "eval_samples_per_second": 55.688,
      "eval_steps_per_second": 3.515,
      "step": 705
    },
    {
      "epoch": 4.67,
      "eval_accuracy": 0.5,
      "eval_f1": 0.6818323465253974,
      "eval_loss": 0.33623936772346497,
      "eval_roc_auc": 0.7923402160844973,
      "eval_runtime": 21.9239,
      "eval_samples_per_second": 55.647,
      "eval_steps_per_second": 3.512,
      "step": 710
    },
    {
      "epoch": 4.7,
      "eval_accuracy": 0.5032786885245901,
      "eval_f1": 0.681875,
      "eval_loss": 0.33635812997817993,
      "eval_roc_auc": 0.7919504893773247,
      "eval_runtime": 21.9086,
      "eval_samples_per_second": 55.686,
      "eval_steps_per_second": 3.515,
      "step": 715
    },
    {
      "epoch": 4.73,
      "eval_accuracy": 0.5065573770491804,
      "eval_f1": 0.685069008782936,
      "eval_loss": 0.33623775839805603,
      "eval_roc_auc": 0.793399659493436,
      "eval_runtime": 21.9039,
      "eval_samples_per_second": 55.698,
      "eval_steps_per_second": 3.515,
      "step": 720
    },
    {
      "epoch": 4.77,
      "eval_accuracy": 0.5040983606557377,
      "eval_f1": 0.6844416562107903,
      "eval_loss": 0.3361968398094177,
      "eval_roc_auc": 0.793005898348301,
      "eval_runtime": 21.8707,
      "eval_samples_per_second": 55.782,
      "eval_steps_per_second": 3.521,
      "step": 725
    },
    {
      "epoch": 4.8,
      "eval_accuracy": 0.510655737704918,
      "eval_f1": 0.6853897128431682,
      "eval_loss": 0.33652493357658386,
      "eval_roc_auc": 0.7927081568266724,
      "eval_runtime": 21.8849,
      "eval_samples_per_second": 55.746,
      "eval_steps_per_second": 3.518,
      "step": 730
    },
    {
      "epoch": 4.83,
      "eval_accuracy": 0.510655737704918,
      "eval_f1": 0.6847929181157129,
      "eval_loss": 0.3367428183555603,
      "eval_roc_auc": 0.7920545778767559,
      "eval_runtime": 21.9023,
      "eval_samples_per_second": 55.702,
      "eval_steps_per_second": 3.516,
      "step": 735
    },
    {
      "epoch": 4.87,
      "eval_accuracy": 0.5081967213114754,
      "eval_f1": 0.6858225449952636,
      "eval_loss": 0.3366852402687073,
      "eval_roc_auc": 0.7928840583218353,
      "eval_runtime": 21.9129,
      "eval_samples_per_second": 55.675,
      "eval_steps_per_second": 3.514,
      "step": 740
    },
    {
      "epoch": 4.9,
      "eval_accuracy": 0.5057377049180328,
      "eval_f1": 0.6851910325228923,
      "eval_loss": 0.33661994338035583,
      "eval_roc_auc": 0.7924902971767003,
      "eval_runtime": 21.9406,
      "eval_samples_per_second": 55.605,
      "eval_steps_per_second": 3.509,
      "step": 745
    },
    {
      "epoch": 4.93,
      "eval_accuracy": 0.5065573770491804,
      "eval_f1": 0.6858044164037855,
      "eval_loss": 0.33653131127357483,
      "eval_roc_auc": 0.7930139672242259,
      "eval_runtime": 21.9161,
      "eval_samples_per_second": 55.667,
      "eval_steps_per_second": 3.513,
      "step": 750
    },
    {
      "epoch": 4.96,
      "eval_accuracy": 0.5081967213114754,
      "eval_f1": 0.6856240126382307,
      "eval_loss": 0.3364819586277008,
      "eval_roc_auc": 0.792666198671863,
      "eval_runtime": 21.9422,
      "eval_samples_per_second": 55.601,
      "eval_steps_per_second": 3.509,
      "step": 755
    },
    {
      "epoch": 5.0,
      "eval_accuracy": 0.5073770491803279,
      "eval_f1": 0.6849747474747475,
      "eval_loss": 0.3364526927471161,
      "eval_roc_auc": 0.7924023464291189,
      "eval_runtime": 21.9204,
      "eval_samples_per_second": 55.656,
      "eval_steps_per_second": 3.513,
      "step": 760
    }
  ],
  "max_steps": 760,
  "num_train_epochs": 5,
  "total_flos": 7451590906400256.0,
  "trial_name": null,
  "trial_params": null
}
