{
  "best_metric": 0.9379348158836365,
  "best_model_checkpoint": "/content/checkpoints/gbert_large_finetuned_s1_cv3/checkpoint-200",
  "epoch": 5.983606557377049,
  "global_step": 605,
  "is_hyper_param_search": false,
  "is_local_process_zero": true,
  "is_world_process_zero": true,
  "log_history": [
    {
      "epoch": 0.05,
      "eval_accuracy": 0.3921246923707957,
      "eval_loss": 1.6444672346115112,
      "eval_runtime": 21.6764,
      "eval_samples_per_second": 56.236,
      "eval_steps_per_second": 3.552,
      "step": 5
    },
    {
      "epoch": 0.1,
      "eval_accuracy": 0.43232157506152585,
      "eval_loss": 1.481984257698059,
      "eval_runtime": 21.7299,
      "eval_samples_per_second": 56.098,
      "eval_steps_per_second": 3.543,
      "step": 10
    },
    {
      "epoch": 0.15,
      "eval_accuracy": 0.4700574241181296,
      "eval_loss": 1.4153252840042114,
      "eval_runtime": 21.6801,
      "eval_samples_per_second": 56.227,
      "eval_steps_per_second": 3.552,
      "step": 15
    },
    {
      "epoch": 0.2,
      "eval_accuracy": 0.5258408531583265,
      "eval_loss": 1.342111349105835,
      "eval_runtime": 21.7418,
      "eval_samples_per_second": 56.067,
      "eval_steps_per_second": 3.542,
      "step": 20
    },
    {
      "epoch": 0.25,
      "eval_accuracy": 0.5324036095159967,
      "eval_loss": 1.2778266668319702,
      "eval_runtime": 21.6949,
      "eval_samples_per_second": 56.188,
      "eval_steps_per_second": 3.549,
      "step": 25
    },
    {
      "epoch": 0.3,
      "eval_accuracy": 0.5242001640689089,
      "eval_loss": 1.2524195909500122,
      "eval_runtime": 21.6939,
      "eval_samples_per_second": 56.191,
      "eval_steps_per_second": 3.549,
      "step": 30
    },
    {
      "epoch": 0.34,
      "eval_accuracy": 0.5479901558654635,
      "eval_loss": 1.201103925704956,
      "eval_runtime": 21.6956,
      "eval_samples_per_second": 56.187,
      "eval_steps_per_second": 3.549,
      "step": 35
    },
    {
      "epoch": 0.39,
      "eval_accuracy": 0.5676784249384742,
      "eval_loss": 1.2128875255584717,
      "eval_runtime": 21.6755,
      "eval_samples_per_second": 56.239,
      "eval_steps_per_second": 3.552,
      "step": 40
    },
    {
      "epoch": 0.44,
      "eval_accuracy": 0.5652173913043478,
      "eval_loss": 1.1860719919204712,
      "eval_runtime": 21.6974,
      "eval_samples_per_second": 56.182,
      "eval_steps_per_second": 3.549,
      "step": 45
    },
    {
      "epoch": 0.49,
      "eval_accuracy": 0.5619360131255127,
      "eval_loss": 1.1489737033843994,
      "eval_runtime": 21.7243,
      "eval_samples_per_second": 56.112,
      "eval_steps_per_second": 3.544,
      "step": 50
    },
    {
      "epoch": 0.54,
      "eval_accuracy": 0.5709598031173093,
      "eval_loss": 1.157994270324707,
      "eval_runtime": 21.689,
      "eval_samples_per_second": 56.204,
      "eval_steps_per_second": 3.55,
      "step": 55
    },
    {
      "epoch": 0.59,
      "eval_accuracy": 0.5709598031173093,
      "eval_loss": 1.1519582271575928,
      "eval_runtime": 21.6837,
      "eval_samples_per_second": 56.217,
      "eval_steps_per_second": 3.551,
      "step": 60
    },
    {
      "epoch": 0.64,
      "eval_accuracy": 0.6004922067268252,
      "eval_loss": 1.1054997444152832,
      "eval_runtime": 21.7154,
      "eval_samples_per_second": 56.135,
      "eval_steps_per_second": 3.546,
      "step": 65
    },
    {
      "epoch": 0.69,
      "eval_accuracy": 0.5799835931091059,
      "eval_loss": 1.1024937629699707,
      "eval_runtime": 21.6922,
      "eval_samples_per_second": 56.195,
      "eval_steps_per_second": 3.55,
      "step": 70
    },
    {
      "epoch": 0.74,
      "eval_accuracy": 0.5758818703855619,
      "eval_loss": 1.0975725650787354,
      "eval_runtime": 21.6978,
      "eval_samples_per_second": 56.181,
      "eval_steps_per_second": 3.549,
      "step": 75
    },
    {
      "epoch": 0.79,
      "eval_accuracy": 0.5881870385561936,
      "eval_loss": 1.11350679397583,
      "eval_runtime": 21.7026,
      "eval_samples_per_second": 56.168,
      "eval_steps_per_second": 3.548,
      "step": 80
    },
    {
      "epoch": 0.84,
      "eval_accuracy": 0.5914684167350287,
      "eval_loss": 1.069865107536316,
      "eval_runtime": 21.6995,
      "eval_samples_per_second": 56.176,
      "eval_steps_per_second": 3.548,
      "step": 85
    },
    {
      "epoch": 0.89,
      "eval_accuracy": 0.5988515176374077,
      "eval_loss": 1.0697882175445557,
      "eval_runtime": 21.6969,
      "eval_samples_per_second": 56.183,
      "eval_steps_per_second": 3.549,
      "step": 90
    },
    {
      "epoch": 0.93,
      "eval_accuracy": 0.6111566858080394,
      "eval_loss": 1.0330159664154053,
      "eval_runtime": 21.6235,
      "eval_samples_per_second": 56.374,
      "eval_steps_per_second": 3.561,
      "step": 95
    },
    {
      "epoch": 0.98,
      "eval_accuracy": 0.6251025430680885,
      "eval_loss": 1.021690845489502,
      "eval_runtime": 21.5734,
      "eval_samples_per_second": 56.505,
      "eval_steps_per_second": 3.569,
      "step": 100
    },
    {
      "epoch": 1.04,
      "eval_accuracy": 0.6103363412633306,
      "eval_loss": 1.0181673765182495,
      "eval_runtime": 21.6577,
      "eval_samples_per_second": 56.285,
      "eval_steps_per_second": 3.555,
      "step": 105
    },
    {
      "epoch": 1.09,
      "eval_accuracy": 0.6004922067268252,
      "eval_loss": 1.032626748085022,
      "eval_runtime": 21.6187,
      "eval_samples_per_second": 56.386,
      "eval_steps_per_second": 3.562,
      "step": 110
    },
    {
      "epoch": 1.14,
      "eval_accuracy": 0.6070549630844955,
      "eval_loss": 1.0309276580810547,
      "eval_runtime": 21.6479,
      "eval_samples_per_second": 56.31,
      "eval_steps_per_second": 3.557,
      "step": 115
    },
    {
      "epoch": 1.19,
      "eval_accuracy": 0.6185397867104184,
      "eval_loss": 1.0070390701293945,
      "eval_runtime": 21.6806,
      "eval_samples_per_second": 56.225,
      "eval_steps_per_second": 3.552,
      "step": 120
    },
    {
      "epoch": 1.24,
      "eval_accuracy": 0.593929450369155,
      "eval_loss": 1.0454025268554688,
      "eval_runtime": 21.6111,
      "eval_samples_per_second": 56.406,
      "eval_steps_per_second": 3.563,
      "step": 125
    },
    {
      "epoch": 1.29,
      "eval_accuracy": 0.6210008203445447,
      "eval_loss": 0.9941027760505676,
      "eval_runtime": 21.6464,
      "eval_samples_per_second": 56.314,
      "eval_steps_per_second": 3.557,
      "step": 130
    },
    {
      "epoch": 1.33,
      "eval_accuracy": 0.6242821985233798,
      "eval_loss": 0.992132306098938,
      "eval_runtime": 21.615,
      "eval_samples_per_second": 56.396,
      "eval_steps_per_second": 3.562,
      "step": 135
    },
    {
      "epoch": 1.38,
      "eval_accuracy": 0.627563576702215,
      "eval_loss": 0.9920791387557983,
      "eval_runtime": 21.6137,
      "eval_samples_per_second": 56.399,
      "eval_steps_per_second": 3.563,
      "step": 140
    },
    {
      "epoch": 1.43,
      "eval_accuracy": 0.6177194421657096,
      "eval_loss": 0.9948664307594299,
      "eval_runtime": 21.6412,
      "eval_samples_per_second": 56.328,
      "eval_steps_per_second": 3.558,
      "step": 145
    },
    {
      "epoch": 1.48,
      "eval_accuracy": 0.6218211648892535,
      "eval_loss": 0.9853225350379944,
      "eval_runtime": 21.6315,
      "eval_samples_per_second": 56.353,
      "eval_steps_per_second": 3.56,
      "step": 150
    },
    {
      "epoch": 1.53,
      "eval_accuracy": 0.6341263330598852,
      "eval_loss": 0.9871527552604675,
      "eval_runtime": 21.653,
      "eval_samples_per_second": 56.297,
      "eval_steps_per_second": 3.556,
      "step": 155
    },
    {
      "epoch": 1.58,
      "eval_accuracy": 0.6251025430680885,
      "eval_loss": 0.9910735487937927,
      "eval_runtime": 21.6284,
      "eval_samples_per_second": 56.361,
      "eval_steps_per_second": 3.56,
      "step": 160
    },
    {
      "epoch": 1.63,
      "eval_accuracy": 0.6390484003281378,
      "eval_loss": 0.9507777094841003,
      "eval_runtime": 21.6391,
      "eval_samples_per_second": 56.333,
      "eval_steps_per_second": 3.558,
      "step": 165
    },
    {
      "epoch": 1.68,
      "eval_accuracy": 0.6431501230516817,
      "eval_loss": 0.9502195715904236,
      "eval_runtime": 21.618,
      "eval_samples_per_second": 56.388,
      "eval_steps_per_second": 3.562,
      "step": 170
    },
    {
      "epoch": 1.73,
      "eval_accuracy": 0.6406890894175554,
      "eval_loss": 0.9802437424659729,
      "eval_runtime": 21.6357,
      "eval_samples_per_second": 56.342,
      "eval_steps_per_second": 3.559,
      "step": 175
    },
    {
      "epoch": 1.78,
      "eval_accuracy": 0.6357670221493027,
      "eval_loss": 0.9757117033004761,
      "eval_runtime": 21.6277,
      "eval_samples_per_second": 56.363,
      "eval_steps_per_second": 3.56,
      "step": 180
    },
    {
      "epoch": 1.83,
      "eval_accuracy": 0.645611156685808,
      "eval_loss": 0.9590877294540405,
      "eval_runtime": 21.658,
      "eval_samples_per_second": 56.284,
      "eval_steps_per_second": 3.555,
      "step": 185
    },
    {
      "epoch": 1.88,
      "eval_accuracy": 0.6431501230516817,
      "eval_loss": 0.9683274030685425,
      "eval_runtime": 21.6203,
      "eval_samples_per_second": 56.382,
      "eval_steps_per_second": 3.561,
      "step": 190
    },
    {
      "epoch": 1.92,
      "eval_accuracy": 0.6505332239540607,
      "eval_loss": 0.9463397264480591,
      "eval_runtime": 21.622,
      "eval_samples_per_second": 56.378,
      "eval_steps_per_second": 3.561,
      "step": 195
    },
    {
      "epoch": 1.97,
      "eval_accuracy": 0.6579163248564397,
      "eval_loss": 0.9379348158836365,
      "eval_runtime": 21.6345,
      "eval_samples_per_second": 56.345,
      "eval_steps_per_second": 3.559,
      "step": 200
    },
    {
      "epoch": 2.03,
      "eval_accuracy": 0.6636587366694011,
      "eval_loss": 0.9392104148864746,
      "eval_runtime": 21.6534,
      "eval_samples_per_second": 56.296,
      "eval_steps_per_second": 3.556,
      "step": 205
    },
    {
      "epoch": 2.08,
      "eval_accuracy": 0.6570959803117309,
      "eval_loss": 0.9562384486198425,
      "eval_runtime": 21.6355,
      "eval_samples_per_second": 56.343,
      "eval_steps_per_second": 3.559,
      "step": 210
    },
    {
      "epoch": 2.13,
      "eval_accuracy": 0.6628383921246924,
      "eval_loss": 0.9447738528251648,
      "eval_runtime": 21.6657,
      "eval_samples_per_second": 56.264,
      "eval_steps_per_second": 3.554,
      "step": 215
    },
    {
      "epoch": 2.18,
      "eval_accuracy": 0.6661197703035275,
      "eval_loss": 0.9623264670372009,
      "eval_runtime": 21.6278,
      "eval_samples_per_second": 56.363,
      "eval_steps_per_second": 3.56,
      "step": 220
    },
    {
      "epoch": 2.23,
      "eval_accuracy": 0.6529942575881871,
      "eval_loss": 0.9793992638587952,
      "eval_runtime": 21.6045,
      "eval_samples_per_second": 56.423,
      "eval_steps_per_second": 3.564,
      "step": 225
    },
    {
      "epoch": 2.28,
      "eval_accuracy": 0.6554552912223134,
      "eval_loss": 0.9936268925666809,
      "eval_runtime": 21.6994,
      "eval_samples_per_second": 56.177,
      "eval_steps_per_second": 3.548,
      "step": 230
    },
    {
      "epoch": 2.32,
      "eval_accuracy": 0.6554552912223134,
      "eval_loss": 0.981604814529419,
      "eval_runtime": 21.6989,
      "eval_samples_per_second": 56.178,
      "eval_steps_per_second": 3.549,
      "step": 235
    },
    {
      "epoch": 2.37,
      "eval_accuracy": 0.6472518457752255,
      "eval_loss": 0.9885339140892029,
      "eval_runtime": 21.6785,
      "eval_samples_per_second": 56.231,
      "eval_steps_per_second": 3.552,
      "step": 240
    },
    {
      "epoch": 2.42,
      "eval_accuracy": 0.6529942575881871,
      "eval_loss": 0.9594842791557312,
      "eval_runtime": 21.625,
      "eval_samples_per_second": 56.37,
      "eval_steps_per_second": 3.561,
      "step": 245
    },
    {
      "epoch": 2.47,
      "eval_accuracy": 0.6521739130434783,
      "eval_loss": 0.9564018845558167,
      "eval_runtime": 21.6502,
      "eval_samples_per_second": 56.304,
      "eval_steps_per_second": 3.557,
      "step": 250
    },
    {
      "epoch": 2.52,
      "eval_accuracy": 0.6406890894175554,
      "eval_loss": 0.9595165252685547,
      "eval_runtime": 21.6733,
      "eval_samples_per_second": 56.244,
      "eval_steps_per_second": 3.553,
      "step": 255
    },
    {
      "epoch": 2.57,
      "eval_accuracy": 0.6529942575881871,
      "eval_loss": 0.963032603263855,
      "eval_runtime": 21.6476,
      "eval_samples_per_second": 56.311,
      "eval_steps_per_second": 3.557,
      "step": 260
    },
    {
      "epoch": 2.62,
      "eval_accuracy": 0.649712879409352,
      "eval_loss": 0.9741191864013672,
      "eval_runtime": 21.6318,
      "eval_samples_per_second": 56.352,
      "eval_steps_per_second": 3.56,
      "step": 265
    },
    {
      "epoch": 2.67,
      "eval_accuracy": 0.6620180475799836,
      "eval_loss": 0.9793946743011475,
      "eval_runtime": 21.6116,
      "eval_samples_per_second": 56.405,
      "eval_steps_per_second": 3.563,
      "step": 270
    },
    {
      "epoch": 2.72,
      "eval_accuracy": 0.6464315012305168,
      "eval_loss": 0.9701766967773438,
      "eval_runtime": 21.6242,
      "eval_samples_per_second": 56.372,
      "eval_steps_per_second": 3.561,
      "step": 275
    },
    {
      "epoch": 2.77,
      "eval_accuracy": 0.645611156685808,
      "eval_loss": 0.9837907552719116,
      "eval_runtime": 21.6646,
      "eval_samples_per_second": 56.267,
      "eval_steps_per_second": 3.554,
      "step": 280
    },
    {
      "epoch": 2.82,
      "eval_accuracy": 0.6488925348646432,
      "eval_loss": 0.9980717897415161,
      "eval_runtime": 21.6423,
      "eval_samples_per_second": 56.325,
      "eval_steps_per_second": 3.558,
      "step": 285
    },
    {
      "epoch": 2.87,
      "eval_accuracy": 0.6349466776045939,
      "eval_loss": 1.015372395515442,
      "eval_runtime": 21.6584,
      "eval_samples_per_second": 56.283,
      "eval_steps_per_second": 3.555,
      "step": 290
    },
    {
      "epoch": 2.91,
      "eval_accuracy": 0.6464315012305168,
      "eval_loss": 0.9996815323829651,
      "eval_runtime": 21.7454,
      "eval_samples_per_second": 56.058,
      "eval_steps_per_second": 3.541,
      "step": 295
    },
    {
      "epoch": 2.96,
      "eval_accuracy": 0.6570959803117309,
      "eval_loss": 0.9833228588104248,
      "eval_runtime": 21.6852,
      "eval_samples_per_second": 56.214,
      "eval_steps_per_second": 3.551,
      "step": 300
    },
    {
      "epoch": 3.02,
      "eval_accuracy": 0.645611156685808,
      "eval_loss": 1.0100502967834473,
      "eval_runtime": 21.7142,
      "eval_samples_per_second": 56.138,
      "eval_steps_per_second": 3.546,
      "step": 305
    },
    {
      "epoch": 3.07,
      "eval_accuracy": 0.645611156685808,
      "eval_loss": 1.044626235961914,
      "eval_runtime": 21.6853,
      "eval_samples_per_second": 56.213,
      "eval_steps_per_second": 3.551,
      "step": 310
    },
    {
      "epoch": 3.12,
      "eval_accuracy": 0.6365873666940115,
      "eval_loss": 1.0782634019851685,
      "eval_runtime": 21.7123,
      "eval_samples_per_second": 56.143,
      "eval_steps_per_second": 3.546,
      "step": 315
    },
    {
      "epoch": 3.17,
      "eval_accuracy": 0.6529942575881871,
      "eval_loss": 1.0532679557800293,
      "eval_runtime": 21.7055,
      "eval_samples_per_second": 56.161,
      "eval_steps_per_second": 3.547,
      "step": 320
    },
    {
      "epoch": 3.22,
      "eval_accuracy": 0.6587366694011485,
      "eval_loss": 1.0251469612121582,
      "eval_runtime": 21.7062,
      "eval_samples_per_second": 56.159,
      "eval_steps_per_second": 3.547,
      "step": 325
    },
    {
      "epoch": 3.27,
      "eval_accuracy": 0.6546349466776046,
      "eval_loss": 1.0282620191574097,
      "eval_runtime": 21.6619,
      "eval_samples_per_second": 56.274,
      "eval_steps_per_second": 3.555,
      "step": 330
    },
    {
      "epoch": 3.31,
      "eval_accuracy": 0.6628383921246924,
      "eval_loss": 1.0255755186080933,
      "eval_runtime": 21.6825,
      "eval_samples_per_second": 56.221,
      "eval_steps_per_second": 3.551,
      "step": 335
    },
    {
      "epoch": 3.36,
      "eval_accuracy": 0.6570959803117309,
      "eval_loss": 1.0350574254989624,
      "eval_runtime": 21.689,
      "eval_samples_per_second": 56.204,
      "eval_steps_per_second": 3.55,
      "step": 340
    },
    {
      "epoch": 3.41,
      "eval_accuracy": 0.6579163248564397,
      "eval_loss": 1.0404622554779053,
      "eval_runtime": 21.6743,
      "eval_samples_per_second": 56.242,
      "eval_steps_per_second": 3.553,
      "step": 345
    },
    {
      "epoch": 3.46,
      "eval_accuracy": 0.6546349466776046,
      "eval_loss": 1.039482831954956,
      "eval_runtime": 21.6656,
      "eval_samples_per_second": 56.264,
      "eval_steps_per_second": 3.554,
      "step": 350
    },
    {
      "epoch": 3.51,
      "eval_accuracy": 0.6480721903199343,
      "eval_loss": 1.042216181755066,
      "eval_runtime": 21.662,
      "eval_samples_per_second": 56.274,
      "eval_steps_per_second": 3.555,
      "step": 355
    },
    {
      "epoch": 3.56,
      "eval_accuracy": 0.6480721903199343,
      "eval_loss": 1.0451197624206543,
      "eval_runtime": 21.6974,
      "eval_samples_per_second": 56.182,
      "eval_steps_per_second": 3.549,
      "step": 360
    },
    {
      "epoch": 3.61,
      "eval_accuracy": 0.6513535684987695,
      "eval_loss": 1.0580275058746338,
      "eval_runtime": 21.7006,
      "eval_samples_per_second": 56.173,
      "eval_steps_per_second": 3.548,
      "step": 365
    },
    {
      "epoch": 3.66,
      "eval_accuracy": 0.6431501230516817,
      "eval_loss": 1.070360779762268,
      "eval_runtime": 21.6721,
      "eval_samples_per_second": 56.247,
      "eval_steps_per_second": 3.553,
      "step": 370
    },
    {
      "epoch": 3.71,
      "eval_accuracy": 0.6406890894175554,
      "eval_loss": 1.0892705917358398,
      "eval_runtime": 21.7434,
      "eval_samples_per_second": 56.063,
      "eval_steps_per_second": 3.541,
      "step": 375
    },
    {
      "epoch": 3.76,
      "eval_accuracy": 0.6423297785069729,
      "eval_loss": 1.117091178894043,
      "eval_runtime": 21.7069,
      "eval_samples_per_second": 56.157,
      "eval_steps_per_second": 3.547,
      "step": 380
    },
    {
      "epoch": 3.81,
      "eval_accuracy": 0.6406890894175554,
      "eval_loss": 1.1144797801971436,
      "eval_runtime": 21.7122,
      "eval_samples_per_second": 56.144,
      "eval_steps_per_second": 3.546,
      "step": 385
    },
    {
      "epoch": 3.86,
      "eval_accuracy": 0.6415094339622641,
      "eval_loss": 1.0975614786148071,
      "eval_runtime": 21.7504,
      "eval_samples_per_second": 56.045,
      "eval_steps_per_second": 3.54,
      "step": 390
    },
    {
      "epoch": 3.9,
      "eval_accuracy": 0.6464315012305168,
      "eval_loss": 1.0675640106201172,
      "eval_runtime": 21.7623,
      "eval_samples_per_second": 56.014,
      "eval_steps_per_second": 3.538,
      "step": 395
    },
    {
      "epoch": 3.95,
      "eval_accuracy": 0.6611977030352748,
      "eval_loss": 1.0599756240844727,
      "eval_runtime": 21.7238,
      "eval_samples_per_second": 56.114,
      "eval_steps_per_second": 3.545,
      "step": 400
    },
    {
      "epoch": 4.01,
      "eval_accuracy": 0.6579163248564397,
      "eval_loss": 1.0529204607009888,
      "eval_runtime": 21.7186,
      "eval_samples_per_second": 56.127,
      "eval_steps_per_second": 3.545,
      "step": 405
    },
    {
      "epoch": 4.06,
      "eval_accuracy": 0.6488925348646432,
      "eval_loss": 1.0624687671661377,
      "eval_runtime": 21.7596,
      "eval_samples_per_second": 56.021,
      "eval_steps_per_second": 3.539,
      "step": 410
    },
    {
      "epoch": 4.11,
      "eval_accuracy": 0.6529942575881871,
      "eval_loss": 1.0808119773864746,
      "eval_runtime": 21.7215,
      "eval_samples_per_second": 56.119,
      "eval_steps_per_second": 3.545,
      "step": 415
    },
    {
      "epoch": 4.16,
      "eval_accuracy": 0.6513535684987695,
      "eval_loss": 1.0901508331298828,
      "eval_runtime": 21.7065,
      "eval_samples_per_second": 56.158,
      "eval_steps_per_second": 3.547,
      "step": 420
    },
    {
      "epoch": 4.21,
      "eval_accuracy": 0.6406890894175554,
      "eval_loss": 1.1300928592681885,
      "eval_runtime": 21.7119,
      "eval_samples_per_second": 56.144,
      "eval_steps_per_second": 3.546,
      "step": 425
    },
    {
      "epoch": 4.26,
      "eval_accuracy": 0.6562756357670222,
      "eval_loss": 1.1078020334243774,
      "eval_runtime": 21.6631,
      "eval_samples_per_second": 56.271,
      "eval_steps_per_second": 3.554,
      "step": 430
    },
    {
      "epoch": 4.3,
      "eval_accuracy": 0.6464315012305168,
      "eval_loss": 1.1226270198822021,
      "eval_runtime": 21.6813,
      "eval_samples_per_second": 56.223,
      "eval_steps_per_second": 3.551,
      "step": 435
    },
    {
      "epoch": 4.35,
      "eval_accuracy": 0.6374077112387203,
      "eval_loss": 1.141611099243164,
      "eval_runtime": 21.7165,
      "eval_samples_per_second": 56.133,
      "eval_steps_per_second": 3.546,
      "step": 440
    },
    {
      "epoch": 4.4,
      "eval_accuracy": 0.6439704675963905,
      "eval_loss": 1.1564966440200806,
      "eval_runtime": 21.7268,
      "eval_samples_per_second": 56.106,
      "eval_steps_per_second": 3.544,
      "step": 445
    },
    {
      "epoch": 4.45,
      "eval_accuracy": 0.6390484003281378,
      "eval_loss": 1.16038978099823,
      "eval_runtime": 21.7288,
      "eval_samples_per_second": 56.101,
      "eval_steps_per_second": 3.544,
      "step": 450
    },
    {
      "epoch": 4.5,
      "eval_accuracy": 0.6423297785069729,
      "eval_loss": 1.1611171960830688,
      "eval_runtime": 21.7071,
      "eval_samples_per_second": 56.157,
      "eval_steps_per_second": 3.547,
      "step": 455
    },
    {
      "epoch": 4.55,
      "eval_accuracy": 0.645611156685808,
      "eval_loss": 1.1644192934036255,
      "eval_runtime": 21.7592,
      "eval_samples_per_second": 56.022,
      "eval_steps_per_second": 3.539,
      "step": 460
    },
    {
      "epoch": 4.6,
      "eval_accuracy": 0.6464315012305168,
      "eval_loss": 1.1690820455551147,
      "eval_runtime": 21.7338,
      "eval_samples_per_second": 56.088,
      "eval_steps_per_second": 3.543,
      "step": 465
    },
    {
      "epoch": 4.65,
      "eval_accuracy": 0.6488925348646432,
      "eval_loss": 1.1662476062774658,
      "eval_runtime": 21.7582,
      "eval_samples_per_second": 56.025,
      "eval_steps_per_second": 3.539,
      "step": 470
    },
    {
      "epoch": 4.7,
      "eval_accuracy": 0.6505332239540607,
      "eval_loss": 1.1616936922073364,
      "eval_runtime": 21.7334,
      "eval_samples_per_second": 56.089,
      "eval_steps_per_second": 3.543,
      "step": 475
    },
    {
      "epoch": 4.75,
      "eval_accuracy": 0.6538146021328958,
      "eval_loss": 1.1625019311904907,
      "eval_runtime": 21.7565,
      "eval_samples_per_second": 56.029,
      "eval_steps_per_second": 3.539,
      "step": 480
    },
    {
      "epoch": 4.8,
      "eval_accuracy": 0.649712879409352,
      "eval_loss": 1.1747452020645142,
      "eval_runtime": 21.7478,
      "eval_samples_per_second": 56.052,
      "eval_steps_per_second": 3.541,
      "step": 485
    },
    {
      "epoch": 4.85,
      "eval_accuracy": 0.6480721903199343,
      "eval_loss": 1.1758366823196411,
      "eval_runtime": 21.6978,
      "eval_samples_per_second": 56.181,
      "eval_steps_per_second": 3.549,
      "step": 490
    },
    {
      "epoch": 4.9,
      "eval_accuracy": 0.6505332239540607,
      "eval_loss": 1.1754568815231323,
      "eval_runtime": 21.7609,
      "eval_samples_per_second": 56.018,
      "eval_steps_per_second": 3.538,
      "step": 495
    },
    {
      "epoch": 4.94,
      "learning_rate": 3.5932203389830512e-06,
      "loss": 0.7172,
      "step": 500
    },
    {
      "epoch": 4.94,
      "eval_accuracy": 0.6521739130434783,
      "eval_loss": 1.169199824333191,
      "eval_runtime": 21.7056,
      "eval_samples_per_second": 56.161,
      "eval_steps_per_second": 3.547,
      "step": 500
    },
    {
      "epoch": 4.99,
      "eval_accuracy": 0.6513535684987695,
      "eval_loss": 1.1712924242019653,
      "eval_runtime": 21.7486,
      "eval_samples_per_second": 56.05,
      "eval_steps_per_second": 3.54,
      "step": 505
    },
    {
      "epoch": 5.05,
      "eval_accuracy": 0.649712879409352,
      "eval_loss": 1.1762943267822266,
      "eval_runtime": 21.7402,
      "eval_samples_per_second": 56.071,
      "eval_steps_per_second": 3.542,
      "step": 510
    },
    {
      "epoch": 5.1,
      "eval_accuracy": 0.649712879409352,
      "eval_loss": 1.189112663269043,
      "eval_runtime": 21.7602,
      "eval_samples_per_second": 56.02,
      "eval_steps_per_second": 3.539,
      "step": 515
    },
    {
      "epoch": 5.15,
      "eval_accuracy": 0.6472518457752255,
      "eval_loss": 1.1983990669250488,
      "eval_runtime": 21.7373,
      "eval_samples_per_second": 56.079,
      "eval_steps_per_second": 3.542,
      "step": 520
    },
    {
      "epoch": 5.2,
      "eval_accuracy": 0.649712879409352,
      "eval_loss": 1.1979426145553589,
      "eval_runtime": 21.7422,
      "eval_samples_per_second": 56.066,
      "eval_steps_per_second": 3.542,
      "step": 525
    },
    {
      "epoch": 5.25,
      "eval_accuracy": 0.645611156685808,
      "eval_loss": 1.196581244468689,
      "eval_runtime": 21.7354,
      "eval_samples_per_second": 56.084,
      "eval_steps_per_second": 3.543,
      "step": 530
    },
    {
      "epoch": 5.3,
      "eval_accuracy": 0.6529942575881871,
      "eval_loss": 1.1924258470535278,
      "eval_runtime": 21.7541,
      "eval_samples_per_second": 56.035,
      "eval_steps_per_second": 3.54,
      "step": 535
    },
    {
      "epoch": 5.34,
      "eval_accuracy": 0.6439704675963905,
      "eval_loss": 1.2046208381652832,
      "eval_runtime": 21.7393,
      "eval_samples_per_second": 56.074,
      "eval_steps_per_second": 3.542,
      "step": 540
    },
    {
      "epoch": 5.39,
      "eval_accuracy": 0.6439704675963905,
      "eval_loss": 1.21062171459198,
      "eval_runtime": 21.7406,
      "eval_samples_per_second": 56.07,
      "eval_steps_per_second": 3.542,
      "step": 545
    },
    {
      "epoch": 5.44,
      "eval_accuracy": 0.6488925348646432,
      "eval_loss": 1.2102861404418945,
      "eval_runtime": 21.7447,
      "eval_samples_per_second": 56.06,
      "eval_steps_per_second": 3.541,
      "step": 550
    },
    {
      "epoch": 5.49,
      "eval_accuracy": 0.6447908121410992,
      "eval_loss": 1.2194526195526123,
      "eval_runtime": 21.7207,
      "eval_samples_per_second": 56.122,
      "eval_steps_per_second": 3.545,
      "step": 555
    },
    {
      "epoch": 5.54,
      "eval_accuracy": 0.645611156685808,
      "eval_loss": 1.2214347124099731,
      "eval_runtime": 21.6815,
      "eval_samples_per_second": 56.223,
      "eval_steps_per_second": 3.551,
      "step": 560
    },
    {
      "epoch": 5.59,
      "eval_accuracy": 0.649712879409352,
      "eval_loss": 1.217451572418213,
      "eval_runtime": 21.6397,
      "eval_samples_per_second": 56.332,
      "eval_steps_per_second": 3.558,
      "step": 565
    },
    {
      "epoch": 5.64,
      "eval_accuracy": 0.6505332239540607,
      "eval_loss": 1.2178735733032227,
      "eval_runtime": 21.6633,
      "eval_samples_per_second": 56.27,
      "eval_steps_per_second": 3.554,
      "step": 570
    },
    {
      "epoch": 5.69,
      "eval_accuracy": 0.6570959803117309,
      "eval_loss": 1.2201108932495117,
      "eval_runtime": 21.6701,
      "eval_samples_per_second": 56.253,
      "eval_steps_per_second": 3.553,
      "step": 575
    },
    {
      "epoch": 5.74,
      "eval_accuracy": 0.6570959803117309,
      "eval_loss": 1.2216575145721436,
      "eval_runtime": 21.7223,
      "eval_samples_per_second": 56.118,
      "eval_steps_per_second": 3.545,
      "step": 580
    },
    {
      "epoch": 5.79,
      "eval_accuracy": 0.6570959803117309,
      "eval_loss": 1.2222086191177368,
      "eval_runtime": 21.689,
      "eval_samples_per_second": 56.204,
      "eval_steps_per_second": 3.55,
      "step": 585
    },
    {
      "epoch": 5.84,
      "eval_accuracy": 0.6554552912223134,
      "eval_loss": 1.2218058109283447,
      "eval_runtime": 21.7235,
      "eval_samples_per_second": 56.114,
      "eval_steps_per_second": 3.545,
      "step": 590
    },
    {
      "epoch": 5.89,
      "eval_accuracy": 0.6546349466776046,
      "eval_loss": 1.2221331596374512,
      "eval_runtime": 21.7174,
      "eval_samples_per_second": 56.13,
      "eval_steps_per_second": 3.546,
      "step": 595
    },
    {
      "epoch": 5.93,
      "eval_accuracy": 0.6546349466776046,
      "eval_loss": 1.22260320186615,
      "eval_runtime": 21.7207,
      "eval_samples_per_second": 56.121,
      "eval_steps_per_second": 3.545,
      "step": 600
    },
    {
      "epoch": 5.98,
      "eval_accuracy": 0.6538146021328958,
      "eval_loss": 1.2229686975479126,
      "eval_runtime": 21.7509,
      "eval_samples_per_second": 56.044,
      "eval_steps_per_second": 3.54,
      "step": 605
    }
  ],
  "max_steps": 606,
  "num_train_epochs": 6,
  "total_flos": 8924601140975520.0,
  "trial_name": null,
  "trial_params": null
}
