{
  "_name_or_path": "deepset/gelectra-large",
  "architectures": [
    "ElectraForSequenceClassification"
  ],
  "attention_probs_dropout_prob": 0.1,
  "classifier_dropout": null,
  "embedding_size": 1024,
  "hidden_act": "gelu",
  "hidden_dropout_prob": 0.1,
  "hidden_size": 1024,
  "id2label": {
    "0": "op0",
    "1": "op1",
    "2": "op2",
    "3": "op3",
    "4": "op4",
    "5": "op5"
  },
  "initializer_range": 0.02,
  "intermediate_size": 4096,
  "label2id": {
    "op0": 0,
    "op1": 1,
    "op2": 2,
    "op3": 3,
    "op4": 4,
    "op5": 5
  },
  "layer_norm_eps": 1e-12,
  "max_position_embeddings": 512,
  "model_type": "electra",
  "num_attention_heads": 16,
  "num_hidden_layers": 24,
  "pad_token_id": 0,
  "position_embedding_type": "absolute",
  "problem_type": "multi_label_classification",
  "summary_activation": "gelu",
  "summary_last_dropout": 0.1,
  "summary_type": "first",
  "summary_use_proj": true,
  "torch_dtype": "float32",
  "transformers_version": "4.20.1",
  "type_vocab_size": 2,
  "use_cache": true,
  "vocab_size": 31102
}
